EESchema Schematic File Version 4
EELAYER 30 0
EELAYER END
$Descr A3 16535 11693
encoding utf-8
Sheet 1 1
Title "Placa Principal"
Date ""
Rev "1.0"
Comp "Proyecto Final - Medidor de consumo eléctrico -  Ing. Electrónica UTN FR San Francisco"
Comment1 "Integrantes: Ceré, Esteban - Dassano, Andrés Oscar - Karlen, Fernando Ariel"
Comment2 "Docente: Ing. Musso, Daniel"
Comment3 ""
Comment4 ""
$EndDescr
$Comp
L esp12e:ESP-12E U1
U 1 1 612015BF
P 2390 1460
F 0 "U1" H 2390 2225 50  0000 C CNN
F 1 "ESP-12E" H 2390 2134 50  0000 C CNN
F 2 "ESP8266:ESP-12E_SMD" H 2390 1460 50  0001 C CNN
F 3 "http://l0l.org.uk/2014/12/esp8266-modules-hardware-guide-gotta-catch-em-all/" H 2390 1460 50  0001 C CNN
	1    2390 1460
	1    0    0    -1  
$EndComp
$Comp
L Device:Jumper JP4
U 1 1 61204CE1
P 4070 1900
F 0 "JP4" V 4060 1850 50  0000 L CNN
F 1 "Flash_ESP" V 4320 1930 50  0000 L CNN
F 2 "Connector_PinHeader_2.54mm:PinHeader_1x02_P2.54mm_Vertical" H 4070 1900 50  0001 C CNN
F 3 "~" H 4070 1900 50  0001 C CNN
	1    4070 1900
	0    1    1    0   
$EndComp
$Comp
L Device:R R6
U 1 1 6120530B
P 3630 1760
F 0 "R6" V 3680 1550 50  0000 L CNN
F 1 "10K" V 3630 1690 50  0000 L CNN
F 2 "Resistor_SMD:R_1206_3216Metric_Pad1.30x1.75mm_HandSolder" V 3560 1760 50  0001 C CNN
F 3 "~" H 3630 1760 50  0001 C CNN
	1    3630 1760
	0    1    1    0   
$EndComp
NoConn ~ 2140 2360
NoConn ~ 2240 2360
NoConn ~ 2340 2360
NoConn ~ 2440 2360
NoConn ~ 2540 2360
NoConn ~ 2640 2360
$Comp
L Device:CP C3
U 1 1 6120581F
P 1410 2050
F 0 "C3" H 1528 2096 50  0000 L CNN
F 1 "100 uF" H 1450 1950 50  0000 L CNN
F 2 "Capacitor_THT:CP_Radial_D5.0mm_P2.00mm" H 1448 1900 50  0001 C CNN
F 3 "~" H 1410 2050 50  0001 C CNN
	1    1410 2050
	1    0    0    -1  
$EndComp
Wire Wire Line
	1490 1860 1410 1860
Wire Wire Line
	1410 1860 1410 1900
$Comp
L power:GND #PWR05
U 1 1 612062E3
P 1410 2190
F 0 "#PWR05" H 1410 1940 50  0001 C CNN
F 1 "GND" H 1415 2017 50  0000 C CNN
F 2 "" H 1410 2190 50  0001 C CNN
F 3 "" H 1410 2190 50  0001 C CNN
	1    1410 2190
	1    0    0    -1  
$EndComp
Wire Wire Line
	1410 2200 1410 2190
Wire Wire Line
	1410 1860 1070 1860
Connection ~ 1410 1860
NoConn ~ 1490 1760
NoConn ~ 1490 1660
NoConn ~ 1490 1560
NoConn ~ 1490 1460
NoConn ~ 1490 1260
$Comp
L Device:R R5
U 1 1 612070B3
P 1280 1360
F 0 "R5" V 1370 1310 50  0000 L CNN
F 1 "10K" V 1280 1300 50  0000 L CNN
F 2 "Resistor_SMD:R_1206_3216Metric_Pad1.30x1.75mm_HandSolder" V 1210 1360 50  0001 C CNN
F 3 "~" H 1280 1360 50  0001 C CNN
	1    1280 1360
	0    1    1    0   
$EndComp
$Comp
L power:GND #PWR01
U 1 1 6120B5ED
P 580 1710
F 0 "#PWR01" H 580 1460 50  0001 C CNN
F 1 "GND" H 585 1537 50  0000 C CNN
F 2 "" H 580 1710 50  0001 C CNN
F 3 "" H 580 1710 50  0001 C CNN
	1    580  1710
	1    0    0    -1  
$EndComp
Wire Wire Line
	3290 1860 3410 1860
Wire Wire Line
	3290 1760 3480 1760
Wire Wire Line
	3780 1760 3830 1760
$Comp
L power:GND #PWR011
U 1 1 6120E973
P 3830 2260
F 0 "#PWR011" H 3830 2010 50  0001 C CNN
F 1 "GND" H 3835 2087 50  0000 C CNN
F 2 "" H 3830 2260 50  0001 C CNN
F 3 "" H 3830 2260 50  0001 C CNN
	1    3830 2260
	1    0    0    -1  
$EndComp
NoConn ~ 3290 1660
Wire Wire Line
	4070 1560 4070 1600
Wire Wire Line
	4070 2200 4070 2260
Wire Wire Line
	4070 2260 3830 2260
Wire Wire Line
	3410 1860 3410 2260
Connection ~ 3830 2260
Wire Wire Line
	3830 2260 3410 2260
Wire Wire Line
	3830 1760 3830 2260
Wire Wire Line
	4070 1560 4170 1560
Connection ~ 4070 1560
$Comp
L Device:Jumper JP5
U 1 1 61216761
P 4090 1260
F 0 "JP5" H 4090 1524 50  0000 C CNN
F 1 "RX_Flash" H 4090 1433 50  0000 C CNN
F 2 "Connector_PinHeader_2.54mm:PinHeader_1x02_P2.54mm_Vertical" H 4090 1260 50  0001 C CNN
F 3 "~" H 4090 1260 50  0001 C CNN
	1    4090 1260
	1    0    0    -1  
$EndComp
Wire Wire Line
	3290 1260 3540 1260
$Comp
L Connector:Conn_01x03_Female J4
U 1 1 61218356
P 3540 560
F 0 "J4" V 3478 372 50  0000 R CNN
F 1 "ESP_Program" V 3387 372 50  0000 R CNN
F 2 "Connector_PinSocket_2.54mm:PinSocket_1x03_P2.54mm_Vertical" H 3540 560 50  0001 C CNN
F 3 "~" H 3540 560 50  0001 C CNN
	1    3540 560 
	0    -1   -1   0   
$EndComp
Wire Wire Line
	3290 1160 3440 1160
Wire Wire Line
	3440 1160 3440 760 
Wire Wire Line
	3540 760  3540 1260
$Comp
L power:GND #PWR010
U 1 1 61219DD0
P 3640 850
F 0 "#PWR010" H 3640 600 50  0001 C CNN
F 1 "GND" H 3645 677 50  0000 C CNN
F 2 "" H 3640 850 50  0001 C CNN
F 3 "" H 3640 850 50  0001 C CNN
	1    3640 850 
	1    0    0    -1  
$EndComp
Wire Wire Line
	3640 760  3640 850 
Wire Wire Line
	3790 1260 3540 1260
Connection ~ 3540 1260
$Comp
L Device:R R9
U 1 1 6121C2BC
P 4800 1600
F 0 "R9" H 4860 1600 50  0000 L CNN
F 1 "1K" V 4800 1530 50  0000 L CNN
F 2 "Resistor_SMD:R_1206_3216Metric_Pad1.30x1.75mm_HandSolder" V 4730 1600 50  0001 C CNN
F 3 "~" H 4800 1600 50  0001 C CNN
	1    4800 1600
	-1   0    0    1   
$EndComp
$Comp
L Device:R R10
U 1 1 6121CD58
P 4800 2020
F 0 "R10" H 4850 2020 50  0000 L CNN
F 1 "1K" V 4800 1950 50  0000 L CNN
F 2 "Resistor_SMD:R_1206_3216Metric_Pad1.30x1.75mm_HandSolder" V 4730 2020 50  0001 C CNN
F 3 "~" H 4800 2020 50  0001 C CNN
	1    4800 2020
	-1   0    0    1   
$EndComp
Wire Wire Line
	4800 2260 4800 2170
Wire Wire Line
	4800 1870 4800 1750
NoConn ~ 3290 1460
NoConn ~ 3290 1360
NoConn ~ 2200 3900
NoConn ~ 2200 4000
NoConn ~ 2200 4100
NoConn ~ 2200 4200
Text GLabel 2200 3700 0    50   Input ~ 0
PIC_RA0
Text GLabel 2200 3800 0    50   Input ~ 0
PIC_RA1
Text GLabel 2200 4600 0    50   Input ~ 0
PIC_SDA
Text GLabel 2200 4700 0    50   Input ~ 0
PIC_SCL
Text GLabel 2200 4800 0    50   Input ~ 0
PIC_RB2
NoConn ~ 2200 4900
Text GLabel 2200 5000 0    50   Input ~ 0
PIC_RB4
$Comp
L Device:Jumper JP2
U 1 1 6123271C
P 1510 5840
F 0 "JP2" H 1440 5760 50  0000 L CNN
F 1 "Flash_PGC" H 1555 5966 50  0000 L CNN
F 2 "Connector_PinHeader_2.54mm:PinHeader_1x02_P2.54mm_Vertical" H 1510 5840 50  0001 C CNN
F 3 "~" H 1510 5840 50  0001 C CNN
	1    1510 5840
	-1   0    0    1   
$EndComp
$Comp
L Device:Jumper JP1
U 1 1 61232E39
P 1510 5530
F 0 "JP1" H 1440 5430 50  0000 L CNN
F 1 "Flash_PGM" H 1555 5656 50  0000 L CNN
F 2 "Connector_PinHeader_2.54mm:PinHeader_1x02_P2.54mm_Vertical" H 1510 5530 50  0001 C CNN
F 3 "~" H 1510 5530 50  0001 C CNN
	1    1510 5530
	-1   0    0    1   
$EndComp
$Comp
L Device:Jumper JP3
U 1 1 61231F4A
P 1510 6150
F 0 "JP3" H 1440 6090 50  0000 L CNN
F 1 "Flash_PGD" H 1555 6276 50  0000 L CNN
F 2 "Connector_PinHeader_2.54mm:PinHeader_1x02_P2.54mm_Vertical" H 1510 6150 50  0001 C CNN
F 3 "~" H 1510 6150 50  0001 C CNN
	1    1510 6150
	-1   0    0    1   
$EndComp
Wire Wire Line
	2100 5300 2200 5300
$Comp
L Device:R R2
U 1 1 6123B6A4
P 980 5530
F 0 "R2" V 1070 5480 50  0000 L CNN
F 1 "10K" V 980 5470 50  0000 L CNN
F 2 "Resistor_SMD:R_1206_3216Metric_Pad1.30x1.75mm_HandSolder" V 910 5530 50  0001 C CNN
F 3 "~" H 980 5530 50  0001 C CNN
	1    980  5530
	0    -1   -1   0   
$EndComp
$Comp
L Device:R R3
U 1 1 6123C19E
P 980 5840
F 0 "R3" V 1070 5790 50  0000 L CNN
F 1 "10K" V 980 5780 50  0000 L CNN
F 2 "Resistor_SMD:R_1206_3216Metric_Pad1.30x1.75mm_HandSolder" V 910 5840 50  0001 C CNN
F 3 "~" H 980 5840 50  0001 C CNN
	1    980  5840
	0    -1   -1   0   
$EndComp
$Comp
L Device:R R4
U 1 1 6123C5DE
P 980 6150
F 0 "R4" V 1070 6100 50  0000 L CNN
F 1 "10K" V 980 6090 50  0000 L CNN
F 2 "Resistor_SMD:R_1206_3216Metric_Pad1.30x1.75mm_HandSolder" V 910 6150 50  0001 C CNN
F 3 "~" H 980 6150 50  0001 C CNN
	1    980  6150
	0    -1   -1   0   
$EndComp
Wire Wire Line
	1130 6150 1210 6150
Wire Wire Line
	1130 5840 1210 5840
Wire Wire Line
	1130 5530 1210 5530
Wire Wire Line
	830  5530 780  5530
Wire Wire Line
	780  5530 780  5840
Wire Wire Line
	780  5840 830  5840
Wire Wire Line
	780  5840 780  6150
Wire Wire Line
	780  6150 830  6150
Connection ~ 780  5840
$Comp
L power:GND #PWR02
U 1 1 61240C08
P 650 6190
F 0 "#PWR02" H 650 5940 50  0001 C CNN
F 1 "GND" H 655 6017 50  0000 C CNN
F 2 "" H 650 6190 50  0001 C CNN
F 3 "" H 650 6190 50  0001 C CNN
	1    650  6190
	1    0    0    -1  
$EndComp
$Comp
L power:GND #PWR08
U 1 1 6124136F
P 3360 5700
F 0 "#PWR08" H 3360 5450 50  0001 C CNN
F 1 "GND" H 3365 5527 50  0000 C CNN
F 2 "" H 3360 5700 50  0001 C CNN
F 3 "" H 3360 5700 50  0001 C CNN
	1    3360 5700
	1    0    0    -1  
$EndComp
Wire Wire Line
	3300 5600 3300 5660
Wire Wire Line
	3300 5660 3360 5660
Wire Wire Line
	3400 5660 3400 5600
Wire Wire Line
	3360 5700 3360 5660
Connection ~ 3360 5660
Wire Wire Line
	3360 5660 3400 5660
NoConn ~ 4600 3700
NoConn ~ 4600 3800
NoConn ~ 4600 3900
NoConn ~ 4600 4000
NoConn ~ 4600 4100
Text GLabel 4600 4200 2    50   Input ~ 0
PIC_TX
Text GLabel 4600 4300 2    50   Input ~ 0
PIC_RX
NoConn ~ 4600 4500
$Comp
L Switch:SW_Push SW2
U 1 1 61218D48
P 4900 5330
F 0 "SW2" V 4900 5615 50  0000 C CNN
F 1 "Reset_PIC" V 4750 5550 50  0000 C CNN
F 2 "Button_Switch_THT:SW_PUSH_6mm" H 4900 5530 50  0001 C CNN
F 3 "http://www.apem.com/int/index.php?controller=attachment&id_attachment=488" H 4900 5530 50  0001 C CNN
	1    4900 5330
	0    1    1    0   
$EndComp
$Comp
L Connector:Conn_01x06_Female J5
U 1 1 61219B4D
P 4900 6050
F 0 "J5" H 4928 6026 50  0000 L CNN
F 1 "PIC_Program" H 4920 5810 50  0000 L CNN
F 2 "Connector_PinSocket_2.54mm:PinSocket_1x06_P2.54mm_Vertical" H 4900 6050 50  0001 C CNN
F 3 "~" H 4900 6050 50  0001 C CNN
	1    4900 6050
	1    0    0    -1  
$EndComp
Wire Wire Line
	1130 1360 1070 1360
Wire Wire Line
	1070 1360 1070 1860
Wire Wire Line
	1430 1360 1490 1360
Wire Wire Line
	580  1160 580  1230
Wire Wire Line
	580  1710 580  1630
$Comp
L Device:R R7
U 1 1 61211EFD
P 4320 1560
F 0 "R7" V 4370 1350 50  0000 L CNN
F 1 "10K" V 4320 1500 50  0000 L CNN
F 2 "Resistor_SMD:R_1206_3216Metric_Pad1.30x1.75mm_HandSolder" V 4250 1560 50  0001 C CNN
F 3 "~" H 4320 1560 50  0001 C CNN
	1    4320 1560
	0    -1   -1   0   
$EndComp
Wire Wire Line
	4470 1560 4540 1560
Wire Wire Line
	3290 1560 4070 1560
Wire Wire Line
	4800 2260 4070 2260
Connection ~ 4070 2260
$Comp
L Device:Crystal Y1
U 1 1 61236B61
P 1390 4250
F 0 "Y1" V 1344 4381 50  0000 L CNN
F 1 "4 MHz" V 1435 4381 50  0000 L CNN
F 2 "Capacitor_THT:C_Disc_D4.3mm_W1.9mm_P5.00mm" H 1390 4250 50  0001 C CNN
F 3 "~" H 1390 4250 50  0001 C CNN
	1    1390 4250
	0    1    1    0   
$EndComp
$Comp
L Device:C C1
U 1 1 6123791D
P 1150 4000
F 0 "C1" V 898 4000 50  0000 C CNN
F 1 "22 pF" V 989 4000 50  0000 C CNN
F 2 "Capacitor_SMD:C_0805_2012Metric_Pad1.18x1.45mm_HandSolder" H 1188 3850 50  0001 C CNN
F 3 "~" H 1150 4000 50  0001 C CNN
	1    1150 4000
	0    1    1    0   
$EndComp
$Comp
L Device:C C2
U 1 1 61238939
P 1150 4490
F 0 "C2" V 1370 4490 50  0000 C CNN
F 1 "22 pF" V 1290 4490 50  0000 C CNN
F 2 "Capacitor_SMD:C_0805_2012Metric_Pad1.18x1.45mm_HandSolder" H 1188 4340 50  0001 C CNN
F 3 "~" H 1150 4490 50  0001 C CNN
	1    1150 4490
	0    1    1    0   
$EndComp
$Comp
L power:GND #PWR03
U 1 1 61238E52
P 680 4370
F 0 "#PWR03" H 680 4120 50  0001 C CNN
F 1 "GND" H 685 4197 50  0000 C CNN
F 2 "" H 680 4370 50  0001 C CNN
F 3 "" H 680 4370 50  0001 C CNN
	1    680  4370
	1    0    0    -1  
$EndComp
Wire Wire Line
	1000 4000 900  4000
Wire Wire Line
	900  4000 900  4260
Wire Wire Line
	900  4260 900  4490
Wire Wire Line
	900  4490 1000 4490
Connection ~ 900  4260
Wire Wire Line
	1300 4490 1390 4490
Wire Wire Line
	1390 4490 1390 4400
Wire Wire Line
	1300 4000 1390 4000
Wire Wire Line
	1390 4000 1390 4100
Wire Wire Line
	2200 4300 1800 4300
Wire Wire Line
	1800 4300 1800 4000
Wire Wire Line
	1800 4000 1390 4000
Connection ~ 1390 4000
Wire Wire Line
	1390 4490 1800 4490
Wire Wire Line
	1800 4490 1800 4400
Wire Wire Line
	1800 4400 2200 4400
Connection ~ 1390 4490
$Comp
L Device:CP C5
U 1 1 61244A43
P 2700 3350
F 0 "C5" V 2750 3200 50  0000 L CNN
F 1 "100 uF" V 2750 3410 50  0000 L CNN
F 2 "Capacitor_THT:CP_Radial_D5.0mm_P2.00mm" H 2738 3200 50  0001 C CNN
F 3 "~" H 2700 3350 50  0001 C CNN
	1    2700 3350
	0    1    1    0   
$EndComp
$Comp
L Device:C C4
U 1 1 61248EA8
P 2700 2850
F 0 "C4" V 2650 2710 50  0000 L CNN
F 1 "100 nF" V 2660 2900 50  0000 L CNN
F 2 "Capacitor_SMD:C_0805_2012Metric_Pad1.18x1.45mm_HandSolder" H 2738 2700 50  0001 C CNN
F 3 "~" H 2700 2850 50  0001 C CNN
	1    2700 2850
	0    1    1    0   
$EndComp
Wire Wire Line
	2550 2850 2470 2850
Wire Wire Line
	2470 3350 2550 3350
Wire Wire Line
	2850 2850 2950 2850
Wire Wire Line
	2950 2850 2950 3090
Wire Wire Line
	2950 3350 2850 3350
$Comp
L power:GND #PWR07
U 1 1 6124DCBC
P 2140 3200
F 0 "#PWR07" H 2140 2950 50  0001 C CNN
F 1 "GND" H 2145 3027 50  0000 C CNN
F 2 "" H 2140 3200 50  0001 C CNN
F 3 "" H 2140 3200 50  0001 C CNN
	1    2140 3200
	1    0    0    -1  
$EndComp
$Comp
L MCU_Microchip_PIC18:PIC18F2550-ISO U2
U 1 1 6121F55F
P 3400 4500
F 0 "U2" H 3770 5640 50  0000 C CNN
F 1 "PIC18F2550-ISO" H 3810 5530 50  0000 C CNN
F 2 "Package_SO:SOIC-28W_7.5x17.9mm_P1.27mm" H 3400 4500 50  0001 C CIN
F 3 "http://ww1.microchip.com/downloads/en/devicedoc/39632c.pdf" H 3400 4050 50  0001 C CNN
	1    3400 4500
	1    0    0    -1  
$EndComp
Wire Wire Line
	3400 3400 3400 3090
Wire Wire Line
	3400 3090 2950 3090
Connection ~ 2950 3090
Wire Wire Line
	2950 3090 2950 3350
Wire Wire Line
	3510 3090 3400 3090
Connection ~ 3400 3090
Wire Wire Line
	4700 5850 4640 5850
Wire Wire Line
	4640 5850 4640 4700
Wire Wire Line
	4640 4700 4600 4700
Wire Wire Line
	4900 4950 4900 5010
Wire Wire Line
	4900 5530 4900 5580
$Comp
L power:GND #PWR015
U 1 1 6127F920
P 4900 5580
F 0 "#PWR015" H 4900 5330 50  0001 C CNN
F 1 "GND" H 4905 5407 50  0000 C CNN
F 2 "" H 4900 5580 50  0001 C CNN
F 3 "" H 4900 5580 50  0001 C CNN
	1    4900 5580
	1    0    0    -1  
$EndComp
Wire Wire Line
	4700 5950 4510 5950
Wire Wire Line
	4510 5950 4510 5790
$Comp
L power:GND #PWR012
U 1 1 61292999
P 3940 5840
F 0 "#PWR012" H 3940 5590 50  0001 C CNN
F 1 "GND" H 3945 5667 50  0000 C CNN
F 2 "" H 3940 5840 50  0001 C CNN
F 3 "" H 3940 5840 50  0001 C CNN
	1    3940 5840
	1    0    0    -1  
$EndComp
Wire Wire Line
	4700 6050 4160 6050
NoConn ~ 4700 6350
Wire Wire Line
	2100 5300 2100 6150
Wire Wire Line
	2100 6150 4700 6150
Wire Wire Line
	4700 6250 2000 6250
Wire Wire Line
	2000 6250 2000 5840
Wire Wire Line
	2000 5200 2200 5200
Connection ~ 2100 6150
Connection ~ 2000 5840
Wire Wire Line
	2000 5840 2000 5200
Wire Wire Line
	1810 6150 2100 6150
Wire Wire Line
	1810 5840 2000 5840
Wire Wire Line
	2200 5100 1890 5100
Wire Wire Line
	1890 5100 1890 5530
Wire Wire Line
	1890 5530 1810 5530
Wire Notes Line
	500  6500 5500 6500
$Comp
L Connector:Conn_01x06_Female J8
U 1 1 613120C4
P 11990 1370
F 0 "J8" V 12018 1346 50  0000 L CNN
F 1 "HC-05" V 12120 1240 50  0000 L CNN
F 2 "Connector_PinSocket_2.54mm:PinSocket_1x06_P2.54mm_Vertical" H 11990 1370 50  0001 C CNN
F 3 "~" H 11990 1370 50  0001 C CNN
	1    11990 1370
	0    -1   -1   0   
$EndComp
$Comp
L Connector:Conn_01x06_Female J9
U 1 1 613140CE
P 13660 1440
F 0 "J9" V 13688 1416 50  0000 L CNN
F 1 "RTC_DS3231" V 13760 1200 50  0000 L CNN
F 2 "Connector_PinSocket_2.54mm:PinSocket_1x06_P2.54mm_Vertical" H 13660 1440 50  0001 C CNN
F 3 "~" H 13660 1440 50  0001 C CNN
	1    13660 1440
	0    -1   -1   0   
$EndComp
Wire Wire Line
	2470 2850 2470 3100
Wire Wire Line
	2140 3200 2140 3100
Wire Wire Line
	2140 3100 2470 3100
Connection ~ 2470 3100
Wire Wire Line
	2470 3100 2470 3350
Wire Wire Line
	680  4370 680  4260
Wire Wire Line
	680  4260 900  4260
Wire Wire Line
	650  6190 650  5840
Wire Wire Line
	650  5840 780  5840
Wire Wire Line
	3940 5840 3940 5750
Wire Wire Line
	3940 5750 4160 5750
Wire Wire Line
	4160 5750 4160 6050
Wire Wire Line
	4460 5790 4510 5790
$Comp
L Device:R R11
U 1 1 6125D0F6
P 4900 4800
F 0 "R11" H 4990 4750 50  0000 L CNN
F 1 "10K" V 4900 4740 50  0000 L CNN
F 2 "Resistor_SMD:R_1206_3216Metric_Pad1.30x1.75mm_HandSolder" V 4830 4800 50  0001 C CNN
F 3 "~" H 4900 4800 50  0001 C CNN
	1    4900 4800
	1    0    0    -1  
$EndComp
Wire Wire Line
	4540 1560 4540 1810
Wire Wire Line
	4510 1810 4540 1810
NoConn ~ 11790 1570
NoConn ~ 12290 1570
Wire Wire Line
	12190 1570 12190 1680
Wire Wire Line
	12190 1680 12360 1680
Text GLabel 12360 1680 2    50   Input ~ 0
PIC_TX
Text GLabel 12360 1780 2    50   Input ~ 0
PIC_RX
Wire Wire Line
	12360 1780 12090 1780
Wire Wire Line
	12090 1780 12090 1570
Wire Wire Line
	11770 1690 11890 1690
Wire Wire Line
	11890 1690 11890 1570
Wire Wire Line
	11990 1570 11990 1650
$Comp
L power:GND #PWR046
U 1 1 6139ABB6
P 11990 1650
F 0 "#PWR046" H 11990 1400 50  0001 C CNN
F 1 "GND" H 11940 1510 50  0000 C CNN
F 2 "" H 11990 1650 50  0001 C CNN
F 3 "" H 11990 1650 50  0001 C CNN
	1    11990 1650
	1    0    0    -1  
$EndComp
$Comp
L power:GND #PWR052
U 1 1 613A491F
P 13960 1960
F 0 "#PWR052" H 13960 1710 50  0001 C CNN
F 1 "GND" H 13910 1820 50  0000 C CNN
F 2 "" H 13960 1960 50  0001 C CNN
F 3 "" H 13960 1960 50  0001 C CNN
	1    13960 1960
	1    0    0    -1  
$EndComp
NoConn ~ 13460 1640
Text GLabel 15070 1920 2    50   Input ~ 0
PIC_SDA
Text GLabel 15070 1820 2    50   Input ~ 0
PIC_SCL
Text GLabel 15070 1720 2    50   Input ~ 0
PIC_RB2
$Comp
L Device:R R49
U 1 1 613D89C8
P 14680 1190
F 0 "R49" H 14470 1240 50  0000 L CNN
F 1 "10K" V 14680 1130 50  0000 L CNN
F 2 "Resistor_SMD:R_1206_3216Metric_Pad1.30x1.75mm_HandSolder" V 14610 1190 50  0001 C CNN
F 3 "~" H 14680 1190 50  0001 C CNN
	1    14680 1190
	-1   0    0    1   
$EndComp
$Comp
L Device:R R48
U 1 1 613D91C6
P 14390 1190
F 0 "R48" H 14190 1250 50  0000 L CNN
F 1 "10K" V 14390 1130 50  0000 L CNN
F 2 "Resistor_SMD:R_1206_3216Metric_Pad1.30x1.75mm_HandSolder" V 14320 1190 50  0001 C CNN
F 3 "~" H 14390 1190 50  0001 C CNN
	1    14390 1190
	-1   0    0    1   
$EndComp
Wire Wire Line
	14070 1720 15070 1720
$Comp
L Amplifier_Operational:LM358 U5
U 1 1 6122AEEF
P 7970 1730
F 0 "U5" H 7970 2097 50  0000 C CNN
F 1 "LM358" H 7970 2006 50  0000 C CNN
F 2 "Package_SO:SOP-8_3.9x4.9mm_P1.27mm" H 7970 1730 50  0001 C CNN
F 3 "http://www.ti.com/lit/ds/symlink/lm2904-n.pdf" H 7970 1730 50  0001 C CNN
	1    7970 1730
	1    0    0    -1  
$EndComp
$Comp
L Amplifier_Operational:LM358 U5
U 2 1 6122CB48
P 9450 1830
F 0 "U5" H 9450 2197 50  0000 C CNN
F 1 "LM358" H 9450 2106 50  0000 C CNN
F 2 "Package_SO:SOP-8_3.9x4.9mm_P1.27mm" H 9450 1830 50  0001 C CNN
F 3 "http://www.ti.com/lit/ds/symlink/lm2904-n.pdf" H 9450 1830 50  0001 C CNN
	2    9450 1830
	1    0    0    -1  
$EndComp
$Comp
L Connector:AudioJack4 J7
U 1 1 613038FB
P 5890 1170
F 0 "J7" V 5590 1200 50  0000 L CNN
F 1 "Current_Sensor" V 5500 900 50  0000 L CNN
F 2 "Connector_Audio:Jack_3.5mm_PJ320D_Horizontal" H 5890 1170 50  0001 C CNN
F 3 "~" H 5890 1170 50  0001 C CNN
	1    5890 1170
	0    1    1    0   
$EndComp
$Comp
L power:GND #PWR018
U 1 1 6124C015
P 5990 1420
F 0 "#PWR018" H 5990 1170 50  0001 C CNN
F 1 "GND" H 5940 1280 50  0000 C CNN
F 2 "" H 5990 1420 50  0001 C CNN
F 3 "" H 5990 1420 50  0001 C CNN
	1    5990 1420
	1    0    0    -1  
$EndComp
$Comp
L Amplifier_Operational:LM358 U6
U 3 1 6124D2AB
P 7370 5390
F 0 "U6" V 7045 5390 50  0000 C CNN
F 1 "LM358" V 7136 5390 50  0000 C CNN
F 2 "Package_SO:SOP-8_3.9x4.9mm_P1.27mm" H 7370 5390 50  0001 C CNN
F 3 "http://www.ti.com/lit/ds/symlink/lm2904-n.pdf" H 7370 5390 50  0001 C CNN
	3    7370 5390
	0    1    1    0   
$EndComp
$Comp
L Device:R R24
U 1 1 61258260
P 7910 2030
F 0 "R24" V 7820 1980 50  0000 L CNN
F 1 "15K" V 7910 1970 50  0000 L CNN
F 2 "Resistor_SMD:R_1206_3216Metric_Pad1.30x1.75mm_HandSolder" V 7840 2030 50  0001 C CNN
F 3 "~" H 7910 2030 50  0001 C CNN
	1    7910 2030
	0    1    1    0   
$EndComp
$Comp
L Device:R R15
U 1 1 61258DE9
P 6600 1390
F 0 "R15" H 6400 1400 50  0000 L CNN
F 1 "10K" V 6600 1320 50  0000 L CNN
F 2 "Resistor_SMD:R_1206_3216Metric_Pad1.30x1.75mm_HandSolder" V 6530 1390 50  0001 C CNN
F 3 "~" H 6600 1390 50  0001 C CNN
	1    6600 1390
	-1   0    0    1   
$EndComp
Wire Wire Line
	7670 1830 7600 1830
Wire Wire Line
	7600 1830 7600 2030
Wire Wire Line
	7600 2030 7760 2030
Wire Wire Line
	8270 1730 8350 1730
Wire Wire Line
	8350 1730 8350 2030
Wire Wire Line
	8350 2030 8060 2030
$Comp
L Device:R R34
U 1 1 6127090C
P 8820 1730
F 0 "R34" V 8730 1680 50  0000 L CNN
F 1 "1M" V 8820 1670 50  0000 L CNN
F 2 "Resistor_SMD:R_1206_3216Metric_Pad1.30x1.75mm_HandSolder" V 8750 1730 50  0001 C CNN
F 3 "~" H 8820 1730 50  0001 C CNN
	1    8820 1730
	0    1    1    0   
$EndComp
Wire Wire Line
	8970 1730 9080 1730
Connection ~ 8350 1730
$Comp
L Device:R R38
U 1 1 6127EDD6
P 9080 1480
F 0 "R38" H 8890 1480 50  0000 L CNN
F 1 "1M" V 9080 1420 50  0000 L CNN
F 2 "Resistor_SMD:R_1206_3216Metric_Pad1.30x1.75mm_HandSolder" V 9010 1480 50  0001 C CNN
F 3 "~" H 9080 1480 50  0001 C CNN
	1    9080 1480
	-1   0    0    1   
$EndComp
$Comp
L power:GND #PWR036
U 1 1 6127FBD1
P 8850 1340
F 0 "#PWR036" H 8850 1090 50  0001 C CNN
F 1 "GND" H 8800 1200 50  0000 C CNN
F 2 "" H 8850 1340 50  0001 C CNN
F 3 "" H 8850 1340 50  0001 C CNN
	1    8850 1340
	1    0    0    -1  
$EndComp
Wire Wire Line
	8850 1340 8850 1240
Wire Wire Line
	8850 1240 9080 1240
Wire Wire Line
	9080 1240 9080 1330
Wire Wire Line
	9080 1630 9080 1730
Connection ~ 9080 1730
Wire Wire Line
	9080 1730 9150 1730
$Comp
L Device:R R20
U 1 1 61295FC7
P 7040 1830
F 0 "R20" V 6950 1780 50  0000 L CNN
F 1 "8K2" V 7040 1760 50  0000 L CNN
F 2 "Resistor_SMD:R_1206_3216Metric_Pad1.30x1.75mm_HandSolder" V 6970 1830 50  0001 C CNN
F 3 "~" H 7040 1830 50  0001 C CNN
	1    7040 1830
	0    -1   -1   0   
$EndComp
$Comp
L Device:R R18
U 1 1 61297437
P 6860 2060
F 0 "R18" H 6930 2070 50  0000 L CNN
F 1 "1K2" V 6860 1990 50  0000 L CNN
F 2 "Resistor_SMD:R_1206_3216Metric_Pad1.30x1.75mm_HandSolder" V 6790 2060 50  0001 C CNN
F 3 "~" H 6860 2060 50  0001 C CNN
	1    6860 2060
	1    0    0    -1  
$EndComp
$Comp
L power:GND #PWR025
U 1 1 612977D7
P 6860 2270
F 0 "#PWR025" H 6860 2020 50  0001 C CNN
F 1 "GND" H 6810 2130 50  0000 C CNN
F 2 "" H 6860 2270 50  0001 C CNN
F 3 "" H 6860 2270 50  0001 C CNN
	1    6860 2270
	1    0    0    -1  
$EndComp
Wire Wire Line
	6860 2270 6860 2210
$Comp
L Device:R R22
U 1 1 6129587A
P 7390 1830
F 0 "R22" V 7300 1780 50  0000 L CNN
F 1 "10K" V 7390 1760 50  0000 L CNN
F 2 "Resistor_SMD:R_1206_3216Metric_Pad1.30x1.75mm_HandSolder" V 7320 1830 50  0001 C CNN
F 3 "~" H 7390 1830 50  0001 C CNN
	1    7390 1830
	0    -1   -1   0   
$EndComp
Wire Wire Line
	7540 1830 7600 1830
Connection ~ 7600 1830
Wire Wire Line
	7190 1830 7240 1830
Wire Wire Line
	6890 1830 6860 1830
Wire Wire Line
	6860 1830 6860 1910
Wire Wire Line
	6600 1630 6600 1540
$Comp
L Device:R R16
U 1 1 612D03B5
P 6600 2040
F 0 "R16" H 6410 2050 50  0000 L CNN
F 1 "10K" V 6600 1970 50  0000 L CNN
F 2 "Resistor_SMD:R_1206_3216Metric_Pad1.30x1.75mm_HandSolder" V 6530 2040 50  0001 C CNN
F 3 "~" H 6600 2040 50  0001 C CNN
	1    6600 2040
	-1   0    0    1   
$EndComp
$Comp
L power:GND #PWR022
U 1 1 612D0DA4
P 6600 2270
F 0 "#PWR022" H 6600 2020 50  0001 C CNN
F 1 "GND" H 6550 2130 50  0000 C CNN
F 2 "" H 6600 2270 50  0001 C CNN
F 3 "" H 6600 2270 50  0001 C CNN
	1    6600 2270
	1    0    0    -1  
$EndComp
Wire Wire Line
	6600 2270 6600 2190
Wire Wire Line
	7670 1630 6600 1630
Wire Wire Line
	6600 1890 6600 1630
Connection ~ 6600 1630
Wire Wire Line
	6600 1240 6600 1030
Wire Wire Line
	6480 1030 6600 1030
Wire Wire Line
	8350 1730 8670 1730
$Comp
L Device:R R40
U 1 1 6131DAEF
P 9400 2130
F 0 "R40" V 9310 2080 50  0000 L CNN
F 1 "1M" V 9400 2070 50  0000 L CNN
F 2 "Resistor_SMD:R_1206_3216Metric_Pad1.30x1.75mm_HandSolder" V 9330 2130 50  0001 C CNN
F 3 "~" H 9400 2130 50  0001 C CNN
	1    9400 2130
	0    1    1    0   
$EndComp
Wire Wire Line
	9550 2130 9830 2130
Wire Wire Line
	9830 1830 9750 1830
$Comp
L Device:R R35
U 1 1 6132EFD3
P 8820 1930
F 0 "R35" V 8730 1880 50  0000 L CNN
F 1 "1M" V 8820 1870 50  0000 L CNN
F 2 "Resistor_SMD:R_1206_3216Metric_Pad1.30x1.75mm_HandSolder" V 8750 1930 50  0001 C CNN
F 3 "~" H 8820 1930 50  0001 C CNN
	1    8820 1930
	0    1    1    0   
$EndComp
Text GLabel 5160 1020 0    50   Input ~ 0
PIC_TX
$Comp
L Device:R R26
U 1 1 6137B393
P 8040 2320
F 0 "R26" V 7950 2270 50  0000 L CNN
F 1 "27K" V 8040 2260 50  0000 L CNN
F 2 "Resistor_SMD:R_1206_3216Metric_Pad1.30x1.75mm_HandSolder" V 7970 2320 50  0001 C CNN
F 3 "~" H 8040 2320 50  0001 C CNN
	1    8040 2320
	0    1    1    0   
$EndComp
$Comp
L Device:R R30
U 1 1 6137B6BF
P 8430 2320
F 0 "R30" V 8340 2270 50  0000 L CNN
F 1 "1K8" V 8430 2260 50  0000 L CNN
F 2 "Resistor_SMD:R_1206_3216Metric_Pad1.30x1.75mm_HandSolder" V 8360 2320 50  0001 C CNN
F 3 "~" H 8430 2320 50  0001 C CNN
	1    8430 2320
	0    1    1    0   
$EndComp
$Comp
L Device:R R36
U 1 1 6137BFF0
P 8820 2320
F 0 "R36" V 8730 2270 50  0000 L CNN
F 1 "18K" V 8820 2260 50  0000 L CNN
F 2 "Resistor_SMD:R_1206_3216Metric_Pad1.30x1.75mm_HandSolder" V 8750 2320 50  0001 C CNN
F 3 "~" H 8820 2320 50  0001 C CNN
	1    8820 2320
	0    1    1    0   
$EndComp
Wire Wire Line
	8580 2320 8620 2320
Wire Wire Line
	8670 1930 8620 1930
Wire Wire Line
	8620 1930 8620 2320
Connection ~ 8620 2320
Wire Wire Line
	8620 2320 8670 2320
Wire Wire Line
	8190 2320 8280 2320
Wire Wire Line
	7710 2320 7890 2320
$Comp
L power:GND #PWR038
U 1 1 613B3152
P 9130 2360
F 0 "#PWR038" H 9130 2110 50  0001 C CNN
F 1 "GND" H 9080 2220 50  0000 C CNN
F 2 "" H 9130 2360 50  0001 C CNN
F 3 "" H 9130 2360 50  0001 C CNN
	1    9130 2360
	1    0    0    -1  
$EndComp
Wire Wire Line
	8970 2320 9130 2320
Wire Wire Line
	9130 2320 9130 2360
Wire Wire Line
	6370 1630 6600 1630
$Comp
L Device:CP C10
U 1 1 613BCB81
P 6220 1630
F 0 "C10" V 6270 1420 50  0000 L CNN
F 1 "100 uF" V 6270 1690 50  0000 L CNN
F 2 "Capacitor_THT:CP_Radial_D5.0mm_P2.00mm" H 6258 1480 50  0001 C CNN
F 3 "~" H 6220 1630 50  0001 C CNN
	1    6220 1630
	0    1    1    0   
$EndComp
Wire Wire Line
	8970 1930 9080 1930
Wire Wire Line
	9080 1930 9080 2130
Wire Wire Line
	9080 2130 9250 2130
Connection ~ 9080 1930
Wire Wire Line
	9080 1930 9150 1930
Wire Wire Line
	6970 5290 7070 5290
$Comp
L Device:C C14
U 1 1 6147526F
P 7370 5480
F 0 "C14" V 7320 5260 50  0000 L CNN
F 1 "100 nF" V 7330 5530 50  0000 L CNN
F 2 "Capacitor_SMD:C_0805_2012Metric_Pad1.18x1.45mm_HandSolder" H 7408 5330 50  0001 C CNN
F 3 "~" H 7370 5480 50  0001 C CNN
	1    7370 5480
	0    1    1    0   
$EndComp
Wire Wire Line
	7220 5480 6970 5480
Wire Wire Line
	7520 5480 7770 5480
Wire Wire Line
	9830 1830 9830 2130
$Comp
L Device:R R43
U 1 1 614B1146
P 10030 1830
F 0 "R43" V 9930 1780 50  0000 L CNN
F 1 "10K" V 10030 1760 50  0000 L CNN
F 2 "Resistor_SMD:R_1206_3216Metric_Pad1.30x1.75mm_HandSolder" V 9960 1830 50  0001 C CNN
F 3 "~" H 10030 1830 50  0001 C CNN
	1    10030 1830
	0    -1   -1   0   
$EndComp
$Comp
L Device:C C19
U 1 1 614B1DCA
P 10330 2040
F 0 "C19" H 10170 1950 50  0000 L CNN
F 1 "100 nF" H 10440 2050 50  0000 L CNN
F 2 "Capacitor_SMD:C_0805_2012Metric_Pad1.18x1.45mm_HandSolder" H 10368 1890 50  0001 C CNN
F 3 "~" H 10330 2040 50  0001 C CNN
	1    10330 2040
	-1   0    0    1   
$EndComp
$Comp
L power:GND #PWR043
U 1 1 614B2DE8
P 10330 2330
F 0 "#PWR043" H 10330 2080 50  0001 C CNN
F 1 "GND" H 10280 2190 50  0000 C CNN
F 2 "" H 10330 2330 50  0001 C CNN
F 3 "" H 10330 2330 50  0001 C CNN
	1    10330 2330
	1    0    0    -1  
$EndComp
Wire Wire Line
	10180 1830 10330 1830
Wire Wire Line
	10330 1830 10330 1890
Wire Wire Line
	9880 1830 9830 1830
Connection ~ 9830 1830
Wire Wire Line
	10330 2330 10330 2190
Wire Wire Line
	10330 1830 10500 1830
Connection ~ 10330 1830
Text GLabel 10500 1830 2    50   Input ~ 0
PIC_RA1
$Comp
L Amplifier_Operational:LM358 U4
U 1 1 614F0945
P 7880 4150
F 0 "U4" H 7880 4517 50  0000 C CNN
F 1 "LM358" H 7880 4426 50  0000 C CNN
F 2 "Package_SO:SOP-8_3.9x4.9mm_P1.27mm" H 7880 4150 50  0001 C CNN
F 3 "http://www.ti.com/lit/ds/symlink/lm2904-n.pdf" H 7880 4150 50  0001 C CNN
	1    7880 4150
	1    0    0    -1  
$EndComp
$Comp
L Amplifier_Operational:LM358 U4
U 2 1 614F094B
P 9360 4250
F 0 "U4" H 9360 4617 50  0000 C CNN
F 1 "LM358" H 9360 4526 50  0000 C CNN
F 2 "Package_SO:SOP-8_3.9x4.9mm_P1.27mm" H 9360 4250 50  0001 C CNN
F 3 "http://www.ti.com/lit/ds/symlink/lm2904-n.pdf" H 9360 4250 50  0001 C CNN
	2    9360 4250
	1    0    0    -1  
$EndComp
$Comp
L Connector:Screw_Terminal_01x02 J6
U 1 1 614F0951
P 5890 3510
F 0 "J6" V 5952 3554 50  0000 L CNN
F 1 "Voltage_Sensor_1V" V 6110 3160 50  0000 L CNN
F 2 "Connector_JST:JST_EH_B2B-EH-A_1x02_P2.50mm_Vertical" H 5890 3510 50  0001 C CNN
F 3 "~" H 5890 3510 50  0001 C CNN
	1    5890 3510
	0    1    -1   0   
$EndComp
$Comp
L power:GND #PWR017
U 1 1 614F0957
P 5890 3860
F 0 "#PWR017" H 5890 3610 50  0001 C CNN
F 1 "GND" H 5840 3720 50  0000 C CNN
F 2 "" H 5890 3860 50  0001 C CNN
F 3 "" H 5890 3860 50  0001 C CNN
	1    5890 3860
	1    0    0    -1  
$EndComp
$Comp
L Amplifier_Operational:LM358 U4
U 3 1 614F095D
P 7220 3650
F 0 "U4" V 6895 3650 50  0000 C CNN
F 1 "LM358" V 6986 3650 50  0000 C CNN
F 2 "Package_SO:SOP-8_3.9x4.9mm_P1.27mm" H 7220 3650 50  0001 C CNN
F 3 "http://www.ti.com/lit/ds/symlink/lm2904-n.pdf" H 7220 3650 50  0001 C CNN
	3    7220 3650
	0    1    1    0   
$EndComp
$Comp
L Device:R R23
U 1 1 614F0963
P 7820 4450
F 0 "R23" V 7730 4400 50  0000 L CNN
F 1 "15K" V 7820 4390 50  0000 L CNN
F 2 "Resistor_SMD:R_1206_3216Metric_Pad1.30x1.75mm_HandSolder" V 7750 4450 50  0001 C CNN
F 3 "~" H 7820 4450 50  0001 C CNN
	1    7820 4450
	0    1    1    0   
$EndComp
$Comp
L Device:R R13
U 1 1 614F0969
P 6510 3810
F 0 "R13" H 6310 3810 50  0000 L CNN
F 1 "10K" V 6510 3740 50  0000 L CNN
F 2 "Resistor_SMD:R_1206_3216Metric_Pad1.30x1.75mm_HandSolder" V 6440 3810 50  0001 C CNN
F 3 "~" H 6510 3810 50  0001 C CNN
	1    6510 3810
	-1   0    0    1   
$EndComp
Wire Wire Line
	7580 4250 7510 4250
Wire Wire Line
	7510 4250 7510 4450
Wire Wire Line
	7510 4450 7670 4450
Wire Wire Line
	8180 4150 8260 4150
Wire Wire Line
	8260 4150 8260 4450
Wire Wire Line
	8260 4450 7970 4450
$Comp
L Device:R R31
U 1 1 614F0975
P 8730 4150
F 0 "R31" V 8640 4100 50  0000 L CNN
F 1 "1M" V 8730 4090 50  0000 L CNN
F 2 "Resistor_SMD:R_1206_3216Metric_Pad1.30x1.75mm_HandSolder" V 8660 4150 50  0001 C CNN
F 3 "~" H 8730 4150 50  0001 C CNN
	1    8730 4150
	0    1    1    0   
$EndComp
Wire Wire Line
	8880 4150 8990 4150
Connection ~ 8260 4150
$Comp
L Device:R R37
U 1 1 614F097D
P 8990 3900
F 0 "R37" H 8800 3900 50  0000 L CNN
F 1 "1M" V 8990 3840 50  0000 L CNN
F 2 "Resistor_SMD:R_1206_3216Metric_Pad1.30x1.75mm_HandSolder" V 8920 3900 50  0001 C CNN
F 3 "~" H 8990 3900 50  0001 C CNN
	1    8990 3900
	-1   0    0    1   
$EndComp
$Comp
L power:GND #PWR035
U 1 1 614F0983
P 8760 3760
F 0 "#PWR035" H 8760 3510 50  0001 C CNN
F 1 "GND" H 8710 3620 50  0000 C CNN
F 2 "" H 8760 3760 50  0001 C CNN
F 3 "" H 8760 3760 50  0001 C CNN
	1    8760 3760
	1    0    0    -1  
$EndComp
Wire Wire Line
	8760 3760 8760 3660
Wire Wire Line
	8760 3660 8990 3660
Wire Wire Line
	8990 3660 8990 3750
Wire Wire Line
	8990 4050 8990 4150
Connection ~ 8990 4150
Wire Wire Line
	8990 4150 9060 4150
$Comp
L Device:R R19
U 1 1 614F098F
P 6950 4250
F 0 "R19" V 6860 4200 50  0000 L CNN
F 1 "8K2" V 6950 4180 50  0000 L CNN
F 2 "Resistor_SMD:R_1206_3216Metric_Pad1.30x1.75mm_HandSolder" V 6880 4250 50  0001 C CNN
F 3 "~" H 6950 4250 50  0001 C CNN
	1    6950 4250
	0    -1   -1   0   
$EndComp
$Comp
L Device:R R17
U 1 1 614F0995
P 6770 4480
F 0 "R17" H 6840 4490 50  0000 L CNN
F 1 "1K2" V 6770 4410 50  0000 L CNN
F 2 "Resistor_SMD:R_1206_3216Metric_Pad1.30x1.75mm_HandSolder" V 6700 4480 50  0001 C CNN
F 3 "~" H 6770 4480 50  0001 C CNN
	1    6770 4480
	1    0    0    -1  
$EndComp
$Comp
L power:GND #PWR023
U 1 1 614F099B
P 6770 4690
F 0 "#PWR023" H 6770 4440 50  0001 C CNN
F 1 "GND" H 6720 4550 50  0000 C CNN
F 2 "" H 6770 4690 50  0001 C CNN
F 3 "" H 6770 4690 50  0001 C CNN
	1    6770 4690
	1    0    0    -1  
$EndComp
Wire Wire Line
	6770 4690 6770 4630
$Comp
L Device:R R21
U 1 1 614F09A2
P 7300 4250
F 0 "R21" V 7210 4200 50  0000 L CNN
F 1 "10K" V 7300 4180 50  0000 L CNN
F 2 "Resistor_SMD:R_1206_3216Metric_Pad1.30x1.75mm_HandSolder" V 7230 4250 50  0001 C CNN
F 3 "~" H 7300 4250 50  0001 C CNN
	1    7300 4250
	0    -1   -1   0   
$EndComp
Wire Wire Line
	7450 4250 7510 4250
Connection ~ 7510 4250
Wire Wire Line
	7100 4250 7150 4250
Wire Wire Line
	6800 4250 6770 4250
Wire Wire Line
	6770 4250 6770 4330
Wire Wire Line
	6510 4050 6510 3960
$Comp
L Device:R R14
U 1 1 614F09AE
P 6510 4460
F 0 "R14" H 6320 4460 50  0000 L CNN
F 1 "10K" V 6510 4390 50  0000 L CNN
F 2 "Resistor_SMD:R_1206_3216Metric_Pad1.30x1.75mm_HandSolder" V 6440 4460 50  0001 C CNN
F 3 "~" H 6510 4460 50  0001 C CNN
	1    6510 4460
	-1   0    0    1   
$EndComp
$Comp
L power:GND #PWR021
U 1 1 614F09B4
P 6510 4690
F 0 "#PWR021" H 6510 4440 50  0001 C CNN
F 1 "GND" H 6460 4550 50  0000 C CNN
F 2 "" H 6510 4690 50  0001 C CNN
F 3 "" H 6510 4690 50  0001 C CNN
	1    6510 4690
	1    0    0    -1  
$EndComp
Wire Wire Line
	6510 4690 6510 4610
Wire Wire Line
	7580 4050 6510 4050
Wire Wire Line
	6510 4310 6510 4050
Connection ~ 6510 4050
Wire Wire Line
	6510 3660 6510 3450
Wire Wire Line
	6390 3450 6510 3450
Wire Wire Line
	8260 4150 8580 4150
$Comp
L Device:R R39
U 1 1 614F09C2
P 9310 4550
F 0 "R39" V 9220 4500 50  0000 L CNN
F 1 "1M" V 9310 4490 50  0000 L CNN
F 2 "Resistor_SMD:R_1206_3216Metric_Pad1.30x1.75mm_HandSolder" V 9240 4550 50  0001 C CNN
F 3 "~" H 9310 4550 50  0001 C CNN
	1    9310 4550
	0    1    1    0   
$EndComp
Wire Wire Line
	9460 4550 9740 4550
Wire Wire Line
	9740 4250 9660 4250
$Comp
L Device:R R32
U 1 1 614F09CA
P 8730 4350
F 0 "R32" V 8640 4300 50  0000 L CNN
F 1 "1M" V 8730 4290 50  0000 L CNN
F 2 "Resistor_SMD:R_1206_3216Metric_Pad1.30x1.75mm_HandSolder" V 8660 4350 50  0001 C CNN
F 3 "~" H 8730 4350 50  0001 C CNN
	1    8730 4350
	0    1    1    0   
$EndComp
$Comp
L Device:R R25
U 1 1 614F09D0
P 7950 4740
F 0 "R25" V 7860 4690 50  0000 L CNN
F 1 "27K" V 7950 4680 50  0000 L CNN
F 2 "Resistor_SMD:R_1206_3216Metric_Pad1.30x1.75mm_HandSolder" V 7880 4740 50  0001 C CNN
F 3 "~" H 7950 4740 50  0001 C CNN
	1    7950 4740
	0    1    1    0   
$EndComp
$Comp
L Device:R R29
U 1 1 614F09D6
P 8340 4740
F 0 "R29" V 8250 4690 50  0000 L CNN
F 1 "1K8" V 8340 4680 50  0000 L CNN
F 2 "Resistor_SMD:R_1206_3216Metric_Pad1.30x1.75mm_HandSolder" V 8270 4740 50  0001 C CNN
F 3 "~" H 8340 4740 50  0001 C CNN
	1    8340 4740
	0    1    1    0   
$EndComp
$Comp
L Device:R R33
U 1 1 614F09DC
P 8730 4740
F 0 "R33" V 8640 4690 50  0000 L CNN
F 1 "18K" V 8730 4680 50  0000 L CNN
F 2 "Resistor_SMD:R_1206_3216Metric_Pad1.30x1.75mm_HandSolder" V 8660 4740 50  0001 C CNN
F 3 "~" H 8730 4740 50  0001 C CNN
	1    8730 4740
	0    1    1    0   
$EndComp
Wire Wire Line
	8490 4740 8530 4740
Wire Wire Line
	8580 4350 8530 4350
Wire Wire Line
	8530 4350 8530 4740
Connection ~ 8530 4740
Wire Wire Line
	8530 4740 8580 4740
Wire Wire Line
	8100 4740 8190 4740
Wire Wire Line
	7620 4740 7800 4740
$Comp
L power:GND #PWR037
U 1 1 614F09EA
P 9040 4780
F 0 "#PWR037" H 9040 4530 50  0001 C CNN
F 1 "GND" H 8990 4640 50  0000 C CNN
F 2 "" H 9040 4780 50  0001 C CNN
F 3 "" H 9040 4780 50  0001 C CNN
	1    9040 4780
	1    0    0    -1  
$EndComp
Wire Wire Line
	8880 4740 9040 4740
Wire Wire Line
	9040 4740 9040 4780
Wire Wire Line
	6280 4050 6510 4050
$Comp
L Device:CP C9
U 1 1 614F09F3
P 6130 4050
F 0 "C9" V 6180 3900 50  0000 L CNN
F 1 "100 uF" V 6180 4110 50  0000 L CNN
F 2 "Capacitor_THT:CP_Radial_D5.0mm_P2.00mm" H 6168 3900 50  0001 C CNN
F 3 "~" H 6130 4050 50  0001 C CNN
	1    6130 4050
	0    1    1    0   
$EndComp
Wire Wire Line
	8880 4350 8990 4350
Wire Wire Line
	8990 4350 8990 4550
Wire Wire Line
	8990 4550 9160 4550
Connection ~ 8990 4350
Wire Wire Line
	8990 4350 9060 4350
$Comp
L power:GND #PWR024
U 1 1 614F0A01
P 6820 3820
F 0 "#PWR024" H 6820 3570 50  0001 C CNN
F 1 "GND" H 6770 3680 50  0000 C CNN
F 2 "" H 6820 3820 50  0001 C CNN
F 3 "" H 6820 3820 50  0001 C CNN
	1    6820 3820
	1    0    0    -1  
$EndComp
Wire Wire Line
	6820 3820 6820 3740
Wire Wire Line
	6820 3550 6920 3550
$Comp
L Device:C C12
U 1 1 614F0A09
P 7220 3740
F 0 "C12" V 7180 3540 50  0000 L CNN
F 1 "100 nF" V 7180 3790 50  0000 L CNN
F 2 "Capacitor_SMD:C_0805_2012Metric_Pad1.18x1.45mm_HandSolder" H 7258 3590 50  0001 C CNN
F 3 "~" H 7220 3740 50  0001 C CNN
	1    7220 3740
	0    1    1    0   
$EndComp
Wire Wire Line
	7070 3740 6820 3740
Connection ~ 6820 3740
Wire Wire Line
	6820 3740 6820 3550
Wire Wire Line
	7370 3740 7620 3740
Wire Wire Line
	7620 3740 7620 3550
Wire Wire Line
	7620 3550 7520 3550
Wire Wire Line
	7620 3550 7620 3400
Connection ~ 7620 3550
Wire Wire Line
	7690 3400 7620 3400
Wire Wire Line
	9740 4250 9740 4550
$Comp
L Device:R R42
U 1 1 614F0A1A
P 9940 4250
F 0 "R42" V 9840 4200 50  0000 L CNN
F 1 "10K" V 9940 4180 50  0000 L CNN
F 2 "Resistor_SMD:R_1206_3216Metric_Pad1.30x1.75mm_HandSolder" V 9870 4250 50  0001 C CNN
F 3 "~" H 9940 4250 50  0001 C CNN
	1    9940 4250
	0    -1   -1   0   
$EndComp
$Comp
L Device:C C18
U 1 1 614F0A20
P 10240 4460
F 0 "C18" H 10070 4370 50  0000 L CNN
F 1 "100 nF" H 10350 4470 50  0000 L CNN
F 2 "Capacitor_SMD:C_0805_2012Metric_Pad1.18x1.45mm_HandSolder" H 10278 4310 50  0001 C CNN
F 3 "~" H 10240 4460 50  0001 C CNN
	1    10240 4460
	-1   0    0    1   
$EndComp
$Comp
L power:GND #PWR042
U 1 1 614F0A26
P 10240 4750
F 0 "#PWR042" H 10240 4500 50  0001 C CNN
F 1 "GND" H 10190 4610 50  0000 C CNN
F 2 "" H 10240 4750 50  0001 C CNN
F 3 "" H 10240 4750 50  0001 C CNN
	1    10240 4750
	1    0    0    -1  
$EndComp
Wire Wire Line
	10090 4250 10240 4250
Wire Wire Line
	10240 4250 10240 4310
Wire Wire Line
	9790 4250 9740 4250
Connection ~ 9740 4250
Wire Wire Line
	10240 4750 10240 4610
Wire Wire Line
	10240 4250 10480 4250
Connection ~ 10240 4250
Text GLabel 10610 4250 2    50   Input ~ 0
PIC_RA0
Wire Notes Line
	5500 2670 500  2670
$Comp
L Amplifier_Operational:LM358 U6
U 1 1 615C1ED6
P 9380 5490
F 0 "U6" H 9380 5123 50  0000 C CNN
F 1 "LM358" H 9380 5214 50  0000 C CNN
F 2 "Package_SO:SOP-8_3.9x4.9mm_P1.27mm" H 9380 5490 50  0001 C CNN
F 3 "http://www.ti.com/lit/ds/symlink/lm2904-n.pdf" H 9380 5490 50  0001 C CNN
	1    9380 5490
	-1   0    0    1   
$EndComp
$Comp
L Amplifier_Operational:LM358 U5
U 3 1 615C9934
P 9870 1090
F 0 "U5" V 9545 1090 50  0000 C CNN
F 1 "LM358" V 9636 1090 50  0000 C CNN
F 2 "Package_SO:SOP-8_3.9x4.9mm_P1.27mm" H 9870 1090 50  0001 C CNN
F 3 "http://www.ti.com/lit/ds/symlink/lm2904-n.pdf" H 9870 1090 50  0001 C CNN
	3    9870 1090
	0    1    1    0   
$EndComp
$Comp
L power:GND #PWR026
U 1 1 615C993A
P 9470 1260
F 0 "#PWR026" H 9470 1010 50  0001 C CNN
F 1 "GND" H 9420 1120 50  0000 C CNN
F 2 "" H 9470 1260 50  0001 C CNN
F 3 "" H 9470 1260 50  0001 C CNN
	1    9470 1260
	1    0    0    -1  
$EndComp
Wire Wire Line
	9470 990  9570 990 
$Comp
L Device:C C13
U 1 1 615C9941
P 9870 1180
F 0 "C13" V 9820 990 50  0000 L CNN
F 1 "100 nF" V 9830 1230 50  0000 L CNN
F 2 "Capacitor_SMD:C_0805_2012Metric_Pad1.18x1.45mm_HandSolder" H 9908 1030 50  0001 C CNN
F 3 "~" H 9870 1180 50  0001 C CNN
	1    9870 1180
	0    1    1    0   
$EndComp
Wire Wire Line
	9720 1180 9470 1180
Wire Wire Line
	10020 1180 10270 1180
Wire Wire Line
	10270 1180 10270 990 
Wire Wire Line
	10270 990  10170 990 
Wire Wire Line
	10270 990  10270 840 
Connection ~ 10270 990 
Wire Wire Line
	10340 840  10270 840 
Wire Wire Line
	9470 1260 9470 1180
Wire Wire Line
	9470 990  9470 1180
Connection ~ 9470 1180
Wire Wire Line
	10480 4250 10480 5390
Wire Wire Line
	10480 5390 9680 5390
Connection ~ 10480 4250
Wire Wire Line
	10480 4250 10610 4250
$Comp
L Device:R R44
U 1 1 61672AFD
P 10170 5590
F 0 "R44" V 10080 5540 50  0000 L CNN
F 1 "10K" V 10170 5520 50  0000 L CNN
F 2 "Resistor_SMD:R_1206_3216Metric_Pad1.30x1.75mm_HandSolder" V 10100 5590 50  0001 C CNN
F 3 "~" H 10170 5590 50  0001 C CNN
	1    10170 5590
	0    -1   -1   0   
$EndComp
Wire Wire Line
	9680 5590 9840 5590
Wire Wire Line
	9840 5590 9840 5650
Wire Wire Line
	9840 5590 10020 5590
Connection ~ 9840 5590
Wire Wire Line
	10320 5590 10730 5590
Wire Wire Line
	10730 5590 10730 5390
Wire Wire Line
	10780 5390 10730 5390
Wire Wire Line
	9080 5490 8900 5490
$Comp
L power:GND #PWR041
U 1 1 617005B6
P 9840 6050
F 0 "#PWR041" H 9840 5800 50  0001 C CNN
F 1 "GND" H 9790 5910 50  0000 C CNN
F 2 "" H 9840 6050 50  0001 C CNN
F 3 "" H 9840 6050 50  0001 C CNN
	1    9840 6050
	1    0    0    -1  
$EndComp
Wire Wire Line
	9840 6050 9840 5950
Text GLabel 8900 5490 0    50   Input ~ 0
PIC_RB4
Wire Notes Line
	11090 6320 5500 6320
Wire Notes Line
	5500 3210 11090 3210
Wire Wire Line
	4900 4590 4940 4590
$Comp
L power:+12V #PWR033
U 1 1 6196F41D
P 10340 840
F 0 "#PWR033" H 10340 690 50  0001 C CNN
F 1 "+12V" V 10355 968 50  0000 L CNN
F 2 "" H 10340 840 50  0001 C CNN
F 3 "" H 10340 840 50  0001 C CNN
	1    10340 840 
	0    1    1    0   
$EndComp
$Comp
L power:+12V #PWR030
U 1 1 6196FB13
P 7690 3400
F 0 "#PWR030" H 7690 3250 50  0001 C CNN
F 1 "+12V" V 7705 3528 50  0000 L CNN
F 2 "" H 7690 3400 50  0001 C CNN
F 3 "" H 7690 3400 50  0001 C CNN
	1    7690 3400
	0    1    1    0   
$EndComp
Connection ~ 14070 1720
$Comp
L power:PWR_FLAG #FLG01
U 1 1 6172A569
P 12970 6610
F 0 "#FLG01" H 12970 6685 50  0001 C CNN
F 1 "PWR_FLAG" H 12970 6783 50  0000 C CNN
F 2 "" H 12970 6610 50  0001 C CNN
F 3 "~" H 12970 6610 50  0001 C CNN
	1    12970 6610
	1    0    0    -1  
$EndComp
$Comp
L power:GND #PWR049
U 1 1 6172AC2F
P 12970 6770
F 0 "#PWR049" H 12970 6520 50  0001 C CNN
F 1 "GND" H 12920 6630 50  0000 C CNN
F 2 "" H 12970 6770 50  0001 C CNN
F 3 "" H 12970 6770 50  0001 C CNN
	1    12970 6770
	1    0    0    -1  
$EndComp
Wire Wire Line
	12970 6610 12970 6770
$Comp
L power:PWR_FLAG #FLG04
U 1 1 61919703
P 14330 6620
F 0 "#FLG04" H 14330 6695 50  0001 C CNN
F 1 "PWR_FLAG" H 14330 6793 50  0000 C CNN
F 2 "" H 14330 6620 50  0001 C CNN
F 3 "~" H 14330 6620 50  0001 C CNN
	1    14330 6620
	1    0    0    -1  
$EndComp
$Comp
L power:+12V #PWR056
U 1 1 6196EE34
P 14330 6790
F 0 "#PWR056" H 14330 6640 50  0001 C CNN
F 1 "+12V" H 14345 6918 50  0000 L CNN
F 2 "" H 14330 6790 50  0001 C CNN
F 3 "" H 14330 6790 50  0001 C CNN
	1    14330 6790
	-1   0    0    1   
$EndComp
Wire Wire Line
	14330 6620 14330 6790
Wire Notes Line
	5500 6500 5500 500 
$Comp
L Device:Fuse F1
U 1 1 614FE2B3
P 1850 8330
F 0 "F1" V 1653 8330 50  0000 C CNN
F 1 "Fuse" V 1744 8330 50  0000 C CNN
F 2 "Fuse:Fuseholder_Cylinder-5x20mm_Schurter_0031_8201_Horizontal_Open" V 1780 8330 50  0001 C CNN
F 3 "~" H 1850 8330 50  0001 C CNN
	1    1850 8330
	0    1    1    0   
$EndComp
$Comp
L Device:Varistor RV1
U 1 1 614FF832
P 2190 8580
F 0 "RV1" H 2293 8626 50  0000 L CNN
F 1 "Varistor" H 2293 8535 50  0000 L CNN
F 2 "Varistor:RV_Disc_D21.5mm_W4.3mm_P10mm" V 2120 8580 50  0001 C CNN
F 3 "~" H 2190 8580 50  0001 C CNN
	1    2190 8580
	1    0    0    -1  
$EndComp
Wire Wire Line
	2000 8330 2190 8330
$Comp
L Diode:1N4007 D1
U 1 1 61540F10
P 2960 8040
F 0 "D1" V 2914 8120 50  0000 L CNN
F 1 "1N4007" V 3005 8120 50  0000 L CNN
F 2 "Diode_SMD:D_SMA-SMB_Universal_Handsoldering" H 2960 7865 50  0001 C CNN
F 3 "http://www.vishay.com/docs/88503/1n4001.pdf" H 2960 8040 50  0001 C CNN
	1    2960 8040
	0    1    1    0   
$EndComp
$Comp
L Diode:1N4007 D3
U 1 1 61541F8C
P 3600 8030
F 0 "D3" V 3554 8110 50  0000 L CNN
F 1 "1N4007" V 3690 8070 50  0000 L CNN
F 2 "Diode_SMD:D_SMA-SMB_Universal_Handsoldering" H 3600 7855 50  0001 C CNN
F 3 "http://www.vishay.com/docs/88503/1n4001.pdf" H 3600 8030 50  0001 C CNN
	1    3600 8030
	0    1    1    0   
$EndComp
$Comp
L Diode:1N4007 D2
U 1 1 615425AA
P 2960 9120
F 0 "D2" V 2914 9200 50  0000 L CNN
F 1 "1N4007" V 3005 9200 50  0000 L CNN
F 2 "Diode_SMD:D_SMA-SMB_Universal_Handsoldering" H 2960 8945 50  0001 C CNN
F 3 "http://www.vishay.com/docs/88503/1n4001.pdf" H 2960 9120 50  0001 C CNN
	1    2960 9120
	0    1    1    0   
$EndComp
$Comp
L Diode:1N4007 D4
U 1 1 61542CB4
P 3600 9100
F 0 "D4" V 3554 9180 50  0000 L CNN
F 1 "1N4007" V 3645 9180 50  0000 L CNN
F 2 "Diode_SMD:D_SMA-SMB_Universal_Handsoldering" H 3600 8925 50  0001 C CNN
F 3 "http://www.vishay.com/docs/88503/1n4001.pdf" H 3600 9100 50  0001 C CNN
	1    3600 9100
	0    1    1    0   
$EndComp
Wire Wire Line
	2190 8330 2190 8430
$Comp
L Device:CP C6
U 1 1 616C488B
P 4210 7930
F 0 "C6" H 4328 7976 50  0000 L CNN
F 1 "10 uF 400V" H 3970 7830 50  0000 L CNN
F 2 "Capacitor_THT:CP_Radial_D13.0mm_P5.00mm" H 4248 7780 50  0001 C CNN
F 3 "~" H 4210 7930 50  0001 C CNN
	1    4210 7930
	1    0    0    -1  
$EndComp
$Comp
L Device:CP C7
U 1 1 616C4E9F
P 4750 7930
F 0 "C7" H 4868 7976 50  0000 L CNN
F 1 "2.2 uF 400V" H 4490 7820 50  0000 L CNN
F 2 "Capacitor_THT:CP_Radial_D8.0mm_P3.50mm" H 4788 7780 50  0001 C CNN
F 3 "~" H 4750 7930 50  0001 C CNN
	1    4750 7930
	-1   0    0    1   
$EndComp
$Comp
L Device:R R12
U 1 1 616C793B
P 5190 7910
F 0 "R12" H 5260 7956 50  0000 L CNN
F 1 "47 K 3W" H 5260 7865 50  0000 L CNN
F 2 "Resistor_THT:R_Axial_DIN0922_L20.0mm_D9.0mm_P30.48mm_Horizontal" V 5120 7910 50  0001 C CNN
F 3 "~" H 5190 7910 50  0001 C CNN
	1    5190 7910
	1    0    0    -1  
$EndComp
$Comp
L Diode:1N4007 D5
U 1 1 616C7EC3
P 5190 8410
F 0 "D5" V 5144 8490 50  0000 L CNN
F 1 "1N4007" V 5235 8490 50  0000 L CNN
F 2 "Diode_SMD:D_SMA-SMB_Universal_Handsoldering" H 5190 8235 50  0001 C CNN
F 3 "http://www.vishay.com/docs/88503/1n4001.pdf" H 5190 8410 50  0001 C CNN
	1    5190 8410
	0    1    1    0   
$EndComp
Wire Wire Line
	4210 7780 4210 7640
Wire Wire Line
	5190 8260 5190 8170
Wire Wire Line
	4750 8170 5190 8170
Connection ~ 5190 8170
Wire Wire Line
	5190 8170 5190 8060
Wire Wire Line
	5190 7640 5190 7760
$Comp
L Regulator_Switching:TNY276G U3
U 1 1 6174BEDA
P 5390 8970
F 0 "U3" H 5060 9016 50  0000 R CNN
F 1 "TNY276G" H 5060 8925 50  0000 R CNN
F 2 "Package_DIP:PowerIntegrations_SMD-8C" H 5390 8970 50  0001 C CIN
F 3 "http://www.powerint.com/sites/default/files/product-docs/tny274-280.pdf" H 5390 8970 50  0001 C CNN
	1    5390 8970
	1    0    0    -1  
$EndComp
Wire Wire Line
	5190 8560 5190 8610
$Comp
L Device:Transformer_1P_SS T1
U 1 1 61783ED7
P 6330 7840
F 0 "T1" H 6330 8221 50  0000 C CNN
F 1 "Transformer_1P_SS" H 6330 8130 50  0000 C CNN
F 2 "personalizados:trafo_fuente" H 6330 7840 50  0001 C CNN
F 3 "~" H 6330 7840 50  0001 C CNN
	1    6330 7840
	1    0    0    -1  
$EndComp
Wire Wire Line
	5190 8610 5790 8610
Wire Wire Line
	5790 8610 5790 8040
Wire Wire Line
	5790 8040 5930 8040
Connection ~ 5190 8610
Wire Wire Line
	5190 8610 5190 8670
Wire Wire Line
	5930 7640 5190 7640
Connection ~ 5190 7640
$Comp
L MBR2045CT-E3_45:MBR2045CT-E3_45 D6
U 1 1 617FADE2
P 7250 7740
F 0 "D6" H 7250 8057 50  0000 C CNN
F 1 "MBR2045" H 7250 7966 50  0000 C CNN
F 2 "MBR2045CT-E3_45:TO254P1051X465X2009-3" H 7250 7740 50  0001 L BNN
F 3 "" H 7250 7740 50  0001 L BNN
F 4 "28-Nov-17" H 7250 7740 50  0001 L BNN "PARTREV"
F 5 "6168" H 7250 7740 50  0001 L BNN "SNAPEDA_PACKAGE_ID"
F 6 "VISHAY" H 7250 7740 50  0001 L BNN "MANUFACTURER"
F 7 "IPC-7251" H 7250 7740 50  0001 L BNN "STANDARD"
	1    7250 7740
	1    0    0    -1  
$EndComp
$Comp
L Device:C C8
U 1 1 618249A0
P 6120 9320
F 0 "C8" H 6235 9366 50  0000 L CNN
F 1 "100 nF" H 6235 9275 50  0000 L CNN
F 2 "Capacitor_SMD:C_0805_2012Metric_Pad1.18x1.45mm_HandSolder" H 6158 9170 50  0001 C CNN
F 3 "~" H 6120 9320 50  0001 C CNN
	1    6120 9320
	1    0    0    -1  
$EndComp
$Comp
L Device:C C11
U 1 1 61825279
P 6700 9330
F 0 "C11" H 6815 9376 50  0000 L CNN
F 1 "10 nF" H 6815 9285 50  0000 L CNN
F 2 "Capacitor_THT:C_Disc_D5.0mm_W2.5mm_P2.50mm" H 6738 9180 50  0001 C CNN
F 3 "~" H 6700 9330 50  0001 C CNN
	1    6700 9330
	1    0    0    -1  
$EndComp
Wire Wire Line
	1510 8850 2190 8850
Wire Wire Line
	2190 8850 2190 8730
Wire Wire Line
	6700 9480 6700 9660
Wire Wire Line
	6700 9660 6120 9660
Wire Wire Line
	6120 9660 6120 9470
Wire Wire Line
	6120 9660 5190 9660
Wire Wire Line
	5190 9270 5190 9660
Connection ~ 6120 9660
Wire Wire Line
	5190 9660 4210 9660
Wire Wire Line
	4210 8080 4210 9660
Connection ~ 5190 9660
Connection ~ 4210 9660
Wire Wire Line
	2190 8850 3600 8850
Wire Wire Line
	3600 8850 3600 8950
Connection ~ 2190 8850
Wire Wire Line
	2960 8970 2960 8330
Connection ~ 3600 8850
Wire Wire Line
	3600 8180 3600 8850
Wire Wire Line
	2190 8330 2960 8330
Connection ~ 2190 8330
Connection ~ 2960 8330
Wire Wire Line
	2960 8330 2960 8190
Wire Wire Line
	2960 7640 3600 7640
Connection ~ 4210 7640
Wire Wire Line
	2960 7640 2960 7890
Wire Wire Line
	3600 7880 3600 7640
Connection ~ 3600 7640
Wire Wire Line
	3600 7640 4210 7640
Wire Wire Line
	2960 9270 2960 9660
Wire Wire Line
	2960 9660 3600 9660
Wire Wire Line
	3600 9250 3600 9660
Connection ~ 3600 9660
Wire Wire Line
	3600 9660 4210 9660
Wire Wire Line
	6120 9070 5790 9070
Wire Wire Line
	6120 9070 6120 9170
Wire Wire Line
	5790 8870 6700 8870
Wire Wire Line
	6700 8870 6700 9180
NoConn ~ 6730 7840
Wire Wire Line
	6730 7640 6910 7640
Wire Wire Line
	7050 7840 6910 7840
Wire Wire Line
	6910 7840 6910 7640
Connection ~ 6910 7640
Wire Wire Line
	6910 7640 7050 7640
$Comp
L Isolator:PC817 U7
U 1 1 61BBB705
P 7650 8970
F 0 "U7" H 7650 9295 50  0000 C CNN
F 1 "PC817" H 7650 9204 50  0000 C CNN
F 2 "Package_DIP:DIP-4_W7.62mm" H 7450 8770 50  0001 L CIN
F 3 "http://www.soselectronic.cz/a_info/resource/d/pc817.pdf" H 7650 8970 50  0001 L CNN
	1    7650 8970
	-1   0    0    -1  
$EndComp
Connection ~ 6700 8870
Wire Wire Line
	6700 9660 7190 9660
Wire Wire Line
	7190 9660 7190 9070
Connection ~ 6700 9660
Wire Wire Line
	7350 9070 7190 9070
$Comp
L Device:R R27
U 1 1 61C9112F
P 8310 8240
F 0 "R27" H 8380 8286 50  0000 L CNN
F 1 "820" V 8310 8180 50  0000 L CNN
F 2 "Resistor_SMD:R_1206_3216Metric_Pad1.30x1.75mm_HandSolder" V 8240 8240 50  0001 C CNN
F 3 "~" H 8310 8240 50  0001 C CNN
	1    8310 8240
	1    0    0    -1  
$EndComp
$Comp
L Device:R R28
U 1 1 61C913C4
P 8310 8710
F 0 "R28" H 8380 8756 50  0000 L CNN
F 1 "560" V 8310 8650 50  0000 L CNN
F 2 "Resistor_SMD:R_1206_3216Metric_Pad1.30x1.75mm_HandSolder" V 8240 8710 50  0001 C CNN
F 3 "~" H 8310 8710 50  0001 C CNN
	1    8310 8710
	1    0    0    -1  
$EndComp
$Comp
L Device:D_Zener D7
U 1 1 61CB228D
P 8310 9340
F 0 "D7" V 8264 9420 50  0000 L CNN
F 1 "D_Zener" V 8355 9420 50  0000 L CNN
F 2 "Diode_SMD:D_MiniMELF_Handsoldering" H 8310 9340 50  0001 C CNN
F 3 "~" H 8310 9340 50  0001 C CNN
	1    8310 9340
	0    1    1    0   
$EndComp
Wire Wire Line
	6700 8870 7350 8870
Wire Wire Line
	7950 9070 8310 9070
$Comp
L power:GND #PWR034
U 1 1 61D697D1
P 8310 9570
F 0 "#PWR034" H 8310 9320 50  0001 C CNN
F 1 "GND" H 8260 9430 50  0000 C CNN
F 2 "" H 8310 9570 50  0001 C CNN
F 3 "" H 8310 9570 50  0001 C CNN
	1    8310 9570
	1    0    0    -1  
$EndComp
Wire Wire Line
	8310 8860 8310 9070
Connection ~ 8310 9070
Wire Wire Line
	7950 8870 8100 8870
Wire Wire Line
	8100 8870 8100 8470
Wire Wire Line
	8100 8470 8310 8470
Wire Wire Line
	8310 8470 8310 8560
Wire Wire Line
	8310 8390 8310 8470
Connection ~ 8310 8470
Wire Wire Line
	7450 7740 8310 7740
$Comp
L Device:CP C15
U 1 1 61E27BC8
P 8670 8390
F 0 "C15" H 8788 8436 50  0000 L CNN
F 1 "470 uF" H 8710 8280 50  0000 L CNN
F 2 "Capacitor_THT:CP_Radial_D8.0mm_P3.80mm" H 8708 8240 50  0001 C CNN
F 3 "~" H 8670 8390 50  0001 C CNN
	1    8670 8390
	1    0    0    -1  
$EndComp
$Comp
L Device:CP C16
U 1 1 61E285CA
P 9170 8380
F 0 "C16" H 9288 8426 50  0000 L CNN
F 1 "470 uF" H 9210 8270 50  0000 L CNN
F 2 "Capacitor_THT:CP_Radial_D8.0mm_P3.80mm" H 9208 8230 50  0001 C CNN
F 3 "~" H 9170 8380 50  0001 C CNN
	1    9170 8380
	1    0    0    -1  
$EndComp
Wire Wire Line
	8310 9070 8310 9190
$Comp
L Device:C C17
U 1 1 61E88FAD
P 9640 8390
F 0 "C17" H 9755 8436 50  0000 L CNN
F 1 "100 nF" H 9755 8345 50  0000 L CNN
F 2 "Capacitor_SMD:C_0805_2012Metric_Pad1.18x1.45mm_HandSolder" H 9678 8240 50  0001 C CNN
F 3 "~" H 9640 8390 50  0001 C CNN
	1    9640 8390
	1    0    0    -1  
$EndComp
Wire Wire Line
	8670 8240 8670 7740
Wire Wire Line
	9170 8230 9170 7740
Wire Wire Line
	9170 7740 8670 7740
Wire Wire Line
	8670 9130 8670 8540
Wire Wire Line
	8670 9130 9170 9130
Wire Wire Line
	9170 9130 9170 8530
Wire Wire Line
	9170 9130 9640 9130
Wire Wire Line
	9640 9130 9640 8540
Connection ~ 9170 9130
Wire Wire Line
	9640 8240 9640 7740
Wire Wire Line
	9640 7740 9170 7740
Connection ~ 9170 7740
$Comp
L power:+12V #PWR040
U 1 1 61F72409
P 9830 7640
F 0 "#PWR040" H 9830 7490 50  0001 C CNN
F 1 "+12V" H 9845 7768 50  0000 L CNN
F 2 "" H 9830 7640 50  0001 C CNN
F 3 "" H 9830 7640 50  0001 C CNN
	1    9830 7640
	1    0    0    -1  
$EndComp
Wire Wire Line
	8310 9570 8310 9490
Wire Wire Line
	8310 7740 8310 8090
$Comp
L power:GND #PWR039
U 1 1 61FD8F50
P 9170 9260
F 0 "#PWR039" H 9170 9010 50  0001 C CNN
F 1 "GND" H 9120 9120 50  0000 C CNN
F 2 "" H 9170 9260 50  0001 C CNN
F 3 "" H 9170 9260 50  0001 C CNN
	1    9170 9260
	1    0    0    -1  
$EndComp
Wire Wire Line
	9170 9260 9170 9130
$Comp
L power:GND #PWR028
U 1 1 620603A9
P 7070 8210
F 0 "#PWR028" H 7070 7960 50  0001 C CNN
F 1 "GND" H 7020 8070 50  0000 C CNN
F 2 "" H 7070 8210 50  0001 C CNN
F 3 "" H 7070 8210 50  0001 C CNN
	1    7070 8210
	1    0    0    -1  
$EndComp
Wire Wire Line
	7070 8210 7070 8040
Wire Wire Line
	7070 8040 6730 8040
$Comp
L power:GND #PWR06
U 1 1 620A4AA2
P 1250 8670
F 0 "#PWR06" H 1250 8420 50  0001 C CNN
F 1 "GND" V 1240 8450 50  0000 C CNN
F 2 "" H 1250 8670 50  0001 C CNN
F 3 "" H 1250 8670 50  0001 C CNN
	1    1250 8670
	1    0    0    -1  
$EndComp
Wire Wire Line
	8310 7740 8670 7740
Connection ~ 8310 7740
Connection ~ 8670 7740
Wire Wire Line
	9830 7740 9830 7640
Wire Wire Line
	9640 7740 9830 7740
Connection ~ 9640 7740
$Comp
L Device:C C21
U 1 1 62207BC9
P 12950 5410
F 0 "C21" H 13065 5456 50  0000 L CNN
F 1 "330 nF" H 13065 5365 50  0000 L CNN
F 2 "Capacitor_THT:C_Disc_D3.0mm_W1.6mm_P2.50mm" H 12988 5260 50  0001 C CNN
F 3 "~" H 12950 5410 50  0001 C CNN
	1    12950 5410
	1    0    0    -1  
$EndComp
$Comp
L Device:C C23
U 1 1 6220804B
P 14840 5410
F 0 "C23" H 14955 5456 50  0000 L CNN
F 1 "100 nF" H 14955 5365 50  0000 L CNN
F 2 "Capacitor_SMD:C_0805_2012Metric_Pad1.18x1.45mm_HandSolder" H 14878 5260 50  0001 C CNN
F 3 "~" H 14840 5410 50  0001 C CNN
	1    14840 5410
	1    0    0    -1  
$EndComp
Wire Wire Line
	12950 5560 12950 5670
$Comp
L power:GND #PWR055
U 1 1 62298440
P 13910 5770
F 0 "#PWR055" H 13910 5520 50  0001 C CNN
F 1 "GND" H 13860 5630 50  0000 C CNN
F 2 "" H 13910 5770 50  0001 C CNN
F 3 "" H 13910 5770 50  0001 C CNN
	1    13910 5770
	1    0    0    -1  
$EndComp
Wire Wire Line
	12950 5070 12950 5260
Wire Wire Line
	12950 5070 13160 5070
Wire Wire Line
	12950 5070 12730 5070
Wire Wire Line
	12730 5070 12730 5010
Connection ~ 12950 5070
$Comp
L power:+12V #PWR048
U 1 1 6234E5E0
P 12730 5010
F 0 "#PWR048" H 12730 4860 50  0001 C CNN
F 1 "+12V" H 12745 5138 50  0000 L CNN
F 2 "" H 12730 5010 50  0001 C CNN
F 3 "" H 12730 5010 50  0001 C CNN
	1    12730 5010
	1    0    0    -1  
$EndComp
$Comp
L L7805CD2T:L7805CD2T-TR U8
U 1 1 62353F9C
P 13060 5070
F 0 "U8" H 13810 5335 50  0000 C CNN
F 1 "L7805" H 13810 5244 50  0000 C CNN
F 2 "eec:STMicroelectronics-DPAK_0079457_22-0-A-MFG" H 13060 5470 50  0001 L CNN
F 3 "https://www.st.com/content/ccc/resource/technical/document/datasheet/41/4f/b3/b0/12/d4/47/88/CD00000444.pdf/files/CD00000444.pdf/jcr:content/translations/en.CD00000444.pdf" H 13060 5570 50  0001 L CNN
F 4 "No" H 13060 5670 50  0001 L CNN "automotive"
F 5 "IC" H 13060 5770 50  0001 L CNN "category"
F 6 "1170714" H 13060 5870 50  0001 L CNN "ciiva ids"
F 7 "Integrated Circuits (ICs)" H 13060 5970 50  0001 L CNN "device class L1"
F 8 "Power Management ICs" H 13060 6070 50  0001 L CNN "device class L2"
F 9 "Voltage Regulators - Linear" H 13060 6170 50  0001 L CNN "device class L3"
F 10 "IC REG LINEAR 5V 1.5A D2PAK" H 13060 6270 50  0001 L CNN "digikey description"
F 11 "497-1171-1-ND" H 13060 6370 50  0001 L CNN "digikey part number"
F 12 "2V" H 13060 6470 50  0001 L CNN "dropout voltage"
F 13 "4.83mm" H 13060 6570 50  0001 L CNN "height"
F 14 "Yes" H 13060 6670 50  0001 L CNN "lead free"
F 15 "5a5ccb542b8382df" H 13060 6770 50  0001 L CNN "library id"
F 16 "STMicroelectronics" H 13060 6870 50  0001 L CNN "manufacturer"
F 17 "+125°C" H 13060 6970 50  0001 L CNN "max junction temp"
F 18 "40V" H 13060 7070 50  0001 L CNN "max supply voltage"
F 19 "Linear Voltage Regulators 5.0V 1.0A Positive" H 13060 7170 50  0001 L CNN "mouser description"
F 20 "511-L7805CD2T-TR" H 13060 7270 50  0001 L CNN "mouser part number"
F 21 "4.3mA" H 13060 7370 50  0001 L CNN "nominal supply current"
F 22 "1" H 13060 7470 50  0001 L CNN "number of outputs"
F 23 "1.5A" H 13060 7570 50  0001 L CNN "output current"
F 24 "Fixed" H 13060 7670 50  0001 L CNN "output type"
F 25 "5V" H 13060 7770 50  0001 L CNN "output voltage"
F 26 "D2PAK" H 13060 7870 50  0001 L CNN "package"
F 27 "1329882044" H 13060 7970 50  0001 L CNN "release date"
F 28 "Yes" H 13060 8070 50  0001 L CNN "rohs"
F 29 "0.03mm" H 13060 8170 50  0001 L CNN "standoff height"
F 30 "+125°C" H 13060 8270 50  0001 L CNN "temperature range high"
F 31 "0°C" H 13060 8370 50  0001 L CNN "temperature range low"
	1    13060 5070
	1    0    0    -1  
$EndComp
Wire Wire Line
	14460 5070 14840 5070
Wire Wire Line
	14840 5070 14840 5260
Connection ~ 14840 5070
Wire Wire Line
	14840 5560 14840 5670
$Comp
L Regulator_Linear:LM317_SOT-223 U9
U 1 1 624A3E85
P 13240 3050
F 0 "U9" H 13240 3292 50  0000 C CNN
F 1 "LM317" H 13240 3201 50  0000 C CNN
F 2 "Package_TO_SOT_SMD:TO-252-2" H 13240 3300 50  0001 C CIN
F 3 "http://www.ti.com/lit/ds/symlink/lm317.pdf" H 13240 3050 50  0001 C CNN
	1    13240 3050
	1    0    0    -1  
$EndComp
$Comp
L Device:C C20
U 1 1 624A455F
P 12500 3410
F 0 "C20" H 12615 3456 50  0000 L CNN
F 1 "100 nF" H 12615 3365 50  0000 L CNN
F 2 "Capacitor_SMD:C_0805_2012Metric_Pad1.18x1.45mm_HandSolder" H 12538 3260 50  0001 C CNN
F 3 "~" H 12500 3410 50  0001 C CNN
	1    12500 3410
	1    0    0    -1  
$EndComp
$Comp
L Device:CP C22
U 1 1 624A4DB4
P 13990 3400
F 0 "C22" H 14108 3446 50  0000 L CNN
F 1 "1 uF" H 14030 3290 50  0000 L CNN
F 2 "Capacitor_SMD:C_0805_2012Metric_Pad1.18x1.45mm_HandSolder" H 14028 3250 50  0001 C CNN
F 3 "~" H 13990 3400 50  0001 C CNN
	1    13990 3400
	1    0    0    -1  
$EndComp
$Comp
L Device:R R45
U 1 1 624F31B6
P 13240 3660
F 0 "R45" H 13310 3706 50  0000 L CNN
F 1 "390" V 13240 3600 50  0000 L CNN
F 2 "Resistor_SMD:R_1206_3216Metric_Pad1.30x1.75mm_HandSolder" V 13170 3660 50  0001 C CNN
F 3 "~" H 13240 3660 50  0001 C CNN
	1    13240 3660
	1    0    0    -1  
$EndComp
$Comp
L Device:R R46
U 1 1 624F400B
P 13600 3420
F 0 "R46" H 13670 3466 50  0000 L CNN
F 1 "240" V 13600 3360 50  0000 L CNN
F 2 "Resistor_SMD:R_1206_3216Metric_Pad1.30x1.75mm_HandSolder" V 13530 3420 50  0001 C CNN
F 3 "~" H 13600 3420 50  0001 C CNN
	1    13600 3420
	0    1    1    0   
$EndComp
Wire Wire Line
	13240 3510 13240 3420
Wire Wire Line
	13450 3420 13240 3420
Connection ~ 13240 3420
Wire Wire Line
	13240 3420 13240 3350
Wire Wire Line
	13540 3050 13810 3050
Wire Wire Line
	13810 3050 13810 3420
Wire Wire Line
	13810 3420 13750 3420
Wire Wire Line
	13990 3250 13990 3050
Wire Wire Line
	13990 3050 13810 3050
Connection ~ 13810 3050
Wire Wire Line
	13240 3810 13240 3930
Wire Wire Line
	13240 3930 13990 3930
Wire Wire Line
	13990 3930 13990 3550
Wire Wire Line
	12500 3260 12500 3050
Wire Wire Line
	12500 3050 12940 3050
Wire Wire Line
	12500 3560 12500 3930
Wire Wire Line
	12500 3930 13240 3930
Connection ~ 13240 3930
$Comp
L power:GND #PWR050
U 1 1 62622DE2
P 13240 4050
F 0 "#PWR050" H 13240 3800 50  0001 C CNN
F 1 "GND" H 13190 3910 50  0000 C CNN
F 2 "" H 13240 4050 50  0001 C CNN
F 3 "" H 13240 4050 50  0001 C CNN
	1    13240 4050
	1    0    0    -1  
$EndComp
Wire Wire Line
	13240 4050 13240 3930
Wire Wire Line
	12950 5670 13910 5670
Wire Wire Line
	13910 5770 13910 5670
Connection ~ 13910 5670
Wire Wire Line
	13910 5670 14580 5670
Wire Wire Line
	14580 5270 14580 5670
Wire Wire Line
	14460 5270 14580 5270
Connection ~ 14580 5670
Wire Wire Line
	14580 5670 14840 5670
$Comp
L Device:R R47
U 1 1 613D94E0
P 14070 1190
F 0 "R47" H 14110 1140 50  0000 L CNN
F 1 "10K" V 14070 1130 50  0000 L CNN
F 2 "Resistor_SMD:R_1206_3216Metric_Pad1.30x1.75mm_HandSolder" V 14000 1190 50  0001 C CNN
F 3 "~" H 14070 1190 50  0001 C CNN
	1    14070 1190
	1    0    0    -1  
$EndComp
Wire Wire Line
	14070 1340 14070 1720
Wire Wire Line
	14390 1340 14390 1820
Connection ~ 14390 1820
Wire Wire Line
	14390 1820 15070 1820
Wire Wire Line
	14680 1340 14680 1920
Wire Wire Line
	14680 1920 15070 1920
Wire Wire Line
	14070 1040 14070 940 
Wire Wire Line
	14070 940  14390 940 
Wire Wire Line
	14390 940  14390 1040
Wire Wire Line
	14390 940  14680 940 
Wire Wire Line
	14680 940  14680 1040
Connection ~ 14390 940 
Wire Wire Line
	14390 940  14390 850 
$Comp
L power:+12V #PWR047
U 1 1 628F1E04
P 12040 2950
F 0 "#PWR047" H 12040 2800 50  0001 C CNN
F 1 "+12V" H 12055 3078 50  0000 L CNN
F 2 "" H 12040 2950 50  0001 C CNN
F 3 "" H 12040 2950 50  0001 C CNN
	1    12040 2950
	1    0    0    -1  
$EndComp
Wire Wire Line
	12500 3050 12040 3050
Wire Wire Line
	12040 3050 12040 2950
Connection ~ 12500 3050
Connection ~ 13990 3050
Wire Notes Line
	15880 2360 11090 2360
Wire Notes Line
	500  500  15880 500 
Wire Notes Line
	11090 10060 500  10060
Wire Notes Line
	500  500  500  10060
Wire Notes Line
	11090 500  11090 10060
Wire Notes Line
	15880 7490 11090 7490
Wire Notes Line
	15880 500  15880 7490
Text GLabel 14340 3050 2    50   Input ~ 0
3.3V
Text GLabel 15120 5070 2    50   Input ~ 0
5V
Wire Wire Line
	14840 5070 15120 5070
Wire Wire Line
	13990 3050 14340 3050
Text GLabel 10780 5390 2    50   Input ~ 0
5V
Text GLabel 7820 5200 2    50   Input ~ 0
5V
Text GLabel 7620 4740 0    50   Input ~ 0
5V
Text GLabel 6390 3450 0    50   Input ~ 0
5V
Text GLabel 4460 5790 0    50   Input ~ 0
5V
Text GLabel 4940 4590 2    50   Input ~ 0
5V
Text GLabel 3510 3090 2    50   Input ~ 0
5V
Text GLabel 4510 1810 0    50   Input ~ 0
3.3V
Text GLabel 6480 1030 0    50   Input ~ 0
5V
Text GLabel 7710 2320 0    50   Input ~ 0
5V
Text GLabel 14390 850  0    50   Input ~ 0
5V
Text GLabel 13740 2000 0    50   Input ~ 0
5V
Text GLabel 11770 1690 0    50   Input ~ 0
5V
Wire Wire Line
	5990 1420 5990 1370
Wire Wire Line
	5690 1630 5690 1370
Wire Wire Line
	5690 1630 6070 1630
NoConn ~ 5790 1370
NoConn ~ 5890 1370
$Comp
L Switch:SW_Push SW1
U 1 1 61203B6D
P 580 1430
F 0 "SW1" V 580 1640 50  0000 C CNN
F 1 "Reset_ESP" V 760 1630 50  0000 C CNN
F 2 "Button_Switch_THT:SW_PUSH_6mm" H 580 1630 50  0001 C CNN
F 3 "http://www.apem.com/int/index.php?controller=attachment&id_attachment=488" H 580 1630 50  0001 C CNN
	1    580  1430
	0    1    1    0   
$EndComp
Wire Wire Line
	7670 5290 7770 5290
Wire Wire Line
	7770 5290 7770 5480
Wire Wire Line
	7820 5200 7770 5200
Wire Wire Line
	7770 5200 7770 5290
Connection ~ 7770 5290
Wire Wire Line
	6970 5290 6970 5480
Connection ~ 6970 5480
Wire Wire Line
	6970 5550 6970 5480
$Comp
L power:GND #PWR027
U 1 1 6146B848
P 6970 5550
F 0 "#PWR027" H 6970 5300 50  0001 C CNN
F 1 "GND" H 6920 5410 50  0000 C CNN
F 2 "" H 6970 5550 50  0001 C CNN
F 3 "" H 6970 5550 50  0001 C CNN
	1    6970 5550
	1    0    0    -1  
$EndComp
Wire Wire Line
	13960 1640 13960 1960
Wire Wire Line
	13560 1720 13560 1640
Wire Wire Line
	13560 1720 14070 1720
Wire Wire Line
	13660 1820 13660 1640
Wire Wire Line
	13660 1820 14390 1820
Wire Wire Line
	13760 1640 13760 1920
Wire Wire Line
	13760 1920 14680 1920
Connection ~ 14680 1920
Wire Wire Line
	13860 2000 13740 2000
Wire Wire Line
	13860 1640 13860 2000
Wire Wire Line
	4900 4590 4900 4650
Wire Wire Line
	4640 4700 4750 4700
Wire Wire Line
	4750 4700 4750 5010
Wire Wire Line
	4750 5010 4900 5010
Connection ~ 4640 4700
Connection ~ 4900 5010
Wire Wire Line
	4900 5010 4900 5130
$Comp
L Device:R R41
U 1 1 61673A1C
P 9840 5800
F 0 "R41" H 9630 5800 50  0000 L CNN
F 1 "10K" V 9840 5730 50  0000 L CNN
F 2 "Resistor_SMD:R_1206_3216Metric_Pad1.30x1.75mm_HandSolder" V 9770 5800 50  0001 C CNN
F 3 "~" H 9840 5800 50  0001 C CNN
	1    9840 5800
	-1   0    0    1   
$EndComp
Wire Wire Line
	1510 8430 1510 8850
$Comp
L Connector:Screw_Terminal_01x03 J1
U 1 1 61829155
P 1050 8430
F 0 "J1" H 968 8747 50  0000 C CNN
F 1 "VCA_IN" H 968 8656 50  0000 C CNN
F 2 "TerminalBlock_Phoenix:TerminalBlock_Phoenix_MKDS-1,5-3_1x03_P5.00mm_Horizontal" H 1050 8430 50  0001 C CNN
F 3 "~" H 1050 8430 50  0001 C CNN
	1    1050 8430
	-1   0    0    -1  
$EndComp
Wire Wire Line
	1250 8330 1320 8330
Wire Wire Line
	1250 8430 1510 8430
Wire Wire Line
	1250 8530 1250 8670
Wire Wire Line
	5700 4050 5980 4050
$Comp
L Connector:Screw_Terminal_01x02 J2
U 1 1 6151BEA7
P 1050 7750
F 0 "J2" H 968 7967 50  0000 C CNN
F 1 "Voltage_Sensor_220V" H 968 7876 50  0000 C CNN
F 2 "TerminalBlock_Phoenix:TerminalBlock_Phoenix_MKDS-1,5-2_1x02_P5.00mm_Horizontal" H 1050 7750 50  0001 C CNN
F 3 "~" H 1050 7750 50  0001 C CNN
	1    1050 7750
	-1   0    0    -1  
$EndComp
Wire Wire Line
	1320 7850 1320 8330
Connection ~ 1320 8330
Wire Wire Line
	1320 8330 1700 8330
Wire Wire Line
	1510 7750 1510 8430
Connection ~ 1510 8430
Wire Wire Line
	1250 7850 1320 7850
Wire Wire Line
	1250 7750 1510 7750
Wire Wire Line
	5890 3860 5890 3710
Wire Wire Line
	5700 4050 5700 3710
Wire Wire Line
	5700 3710 5790 3710
Wire Wire Line
	1490 1160 1070 1160
$Comp
L Device:R R1
U 1 1 612084F8
P 1070 960
F 0 "R1" V 1160 910 50  0000 L CNN
F 1 "10K" V 1070 900 50  0000 L CNN
F 2 "Resistor_SMD:R_1206_3216Metric_Pad1.30x1.75mm_HandSolder" V 1000 960 50  0001 C CNN
F 3 "~" H 1070 960 50  0001 C CNN
	1    1070 960 
	1    0    0    -1  
$EndComp
Wire Wire Line
	1070 1160 580  1160
Connection ~ 1070 1160
Wire Wire Line
	1070 1110 1070 1160
Text GLabel 1000 1980 0    50   Input ~ 0
3.3V
Wire Wire Line
	1000 1980 1070 1980
Wire Wire Line
	1070 1980 1070 1860
Connection ~ 1070 1860
Wire Wire Line
	1070 680  1020 680 
Wire Wire Line
	1070 680  1070 810 
Text GLabel 1020 680  0    50   Input ~ 0
3.3V
$Comp
L Device:R R8
U 1 1 6121AED4
P 4980 1260
F 0 "R8" V 5070 1180 50  0000 L CNN
F 1 "1K" V 4980 1190 50  0000 L CNN
F 2 "Resistor_SMD:R_1206_3216Metric_Pad1.30x1.75mm_HandSolder" V 4910 1260 50  0001 C CNN
F 3 "~" H 4980 1260 50  0001 C CNN
	1    4980 1260
	0    1    1    0   
$EndComp
Wire Wire Line
	4830 1260 4800 1260
Wire Wire Line
	4800 1260 4800 1450
Wire Wire Line
	5320 1020 5320 1260
Wire Wire Line
	5320 1260 5130 1260
Wire Wire Line
	5160 1020 5320 1020
Wire Wire Line
	4390 1260 4800 1260
Connection ~ 4800 1260
Wire Wire Line
	4210 7640 4750 7640
Wire Wire Line
	4750 8170 4750 8080
Wire Wire Line
	4750 7780 4750 7640
Connection ~ 4750 7640
Wire Wire Line
	4750 7640 5190 7640
$EndSCHEMATC
