(module LOGO (layer F.Cu)
  (at 0 0)
 (fp_text reference "G***" (at 0 0) (layer F.SilkS) hide
  (effects (font (thickness 0.3)))
  )
  (fp_text value "LOGO" (at 0.75 0) (layer F.SilkS) hide
  (effects (font (thickness 0.3)))
  )
  (fp_poly (pts (xy 0.553428 -3.937413) (xy 0.785807 -3.263194) (xy 0.912924 -2.293055) (xy 1.395033 -3.263194) (xy 1.971823 -3.988304) (xy 2.564315 -4.233333) (xy 3.032035 -4.119488) (xy 3.091118 -3.645028)
     (xy 3.009370 -3.263194) (xy 2.624377 -2.298797) (xy 2.210894 -1.675694) (xy 1.859664 -1.213881) (xy 2.070162 -1.068362) (xy 2.414768 -1.058333) (xy 3.039736 -0.836761) (xy 3.175000 -0.352778)
     (xy 2.936257 0.227242) (xy 2.414768 0.352778) (xy 1.893614 0.405522) (xy 1.964438 0.682955) (xy 2.210894 0.970139) (xy 2.680703 1.685627) (xy 2.991972 2.503216) (xy 3.086190 3.192518)
     (xy 2.904844 3.523143) (xy 2.860466 3.527778) (xy 2.566622 3.829430) (xy 2.469445 4.409722) (xy 2.348684 5.072701) (xy 2.116667 5.291667) (xy 1.785247 5.012619) (xy 1.758487 4.850695)
     (xy 1.636526 4.667050) (xy 1.411111 4.938889) (xy 1.169314 5.169105) (xy 1.072610 4.792312) (xy 1.063736 4.454721) (xy 1.112981 3.783533) (xy 1.338849 3.702966) (xy 1.587500 3.880556)
     (xy 2.019540 4.144850) (xy 2.055667 3.877985) (xy 1.694540 3.057772) (xy 1.517051 2.716509) (xy 1.102759 2.085589) (xy 0.860800 2.029125) (xy 0.834987 2.116667) (xy 0.581152 3.655101)
     (xy 0.379090 4.615105) (xy 0.194685 5.118557) (xy -0.006178 5.287336) (xy -0.053729 5.291667) (xy -0.275959 5.034403) (xy -0.225204 4.762500) (xy -0.199947 4.307343) (xy -0.326106 4.233334)
     (xy -0.701799 4.513801) (xy -0.833129 4.762500) (xy -1.319805 5.229917) (xy -1.994273 5.219576) (xy -2.234259 5.056482) (xy -2.456216 4.546976) (xy -2.377470 4.036101) (xy -2.142534 3.880556)
     (xy -1.789567 4.171149) (xy -1.654290 4.497917) (xy -1.520287 4.910111) (xy -1.460854 4.643423) (xy -1.452034 4.523784) (xy -1.186631 3.950098) (xy -0.961422 3.818228) (xy -0.666508 3.411127)
     (xy -0.724290 2.645833) (xy -0.936846 1.587500) (xy -1.406994 2.557639) (xy -1.928228 3.247922) (xy -2.501445 3.527778) (xy -2.904484 3.425203) (xy -2.949153 2.988588) (xy -2.812416 2.435254)
     (xy -2.463098 1.502189) (xy -2.088291 0.847754) (xy -1.898318 0.467445) (xy -2.305685 0.354321) (xy -2.426249 0.352778) (xy -3.044165 0.125324) (xy -3.175000 -0.352778) (xy -2.933621 -0.935046)
     (xy -2.426249 -1.058333) (xy -1.919894 -1.141400) (xy -2.023776 -1.472762) (xy -2.088291 -1.553309) (xy -2.477799 -2.239972) (xy -2.812416 -3.140809) (xy -2.970848 -3.897604) (xy -2.806617 -4.194908)
     (xy -2.501445 -4.233333) (xy -1.914209 -3.944219) (xy -1.395032 -3.263194) (xy -0.912923 -2.293055) (xy -0.785807 -3.263194) (xy -0.468614 -4.045935) (xy 0.053440 -4.270675) (xy 0.553428 -3.937413) )(layer F.SilkS) (width  0.010000)
  )
)
