(module personalizados:trafo_fuente (layer F.Cu) (tedit 61256CDA)
  (fp_text reference T1 (at -3.75 -3.25) (layer F.SilkS)
    (effects (font (size 1 1) (thickness 0.15)))
  )
  (fp_text value Transformer_1P_SS (at -3.75 -4.25) (layer F.Fab)
    (effects (font (size 1 1) (thickness 0.15)))
  )
  (fp_line (start 9 0) (end 9 -13) (layer F.SilkS) (width 0.12))
  (fp_line (start 9 13) (end 9 0) (layer F.SilkS) (width 0.12))
  (fp_line (start 0 -13) (end 9 -13) (layer F.SilkS) (width 0.12))
  (fp_line (start 0 -13) (end -9 -13) (layer F.SilkS) (width 0.12))
  (fp_line (start -9 0) (end -9 -13) (layer F.SilkS) (width 0.12))
  (fp_line (start -9 0) (end -9 13) (layer F.SilkS) (width 0.12))
  (fp_line (start 0 13) (end -9 13) (layer F.SilkS) (width 0.12))
  (fp_line (start 0 13) (end 9 13) (layer F.SilkS) (width 0.12))
  (pad 1 thru_hole circle (at -6.29 -6.29) (size 2.5 2.5) (drill 1.25) (layers *.Cu *.Mask))
  (pad 3 thru_hole circle (at 6.25 6.25) (size 2.5 2.5) (drill 1.25) (layers *.Cu *.Mask))
  (pad 4 thru_hole circle (at 6.25 0) (size 2.5 2.5) (drill 1.25) (layers *.Cu *.Mask))
  (pad 5 thru_hole circle (at 6.25 -6.29) (size 2.5 2.5) (drill 1.25) (layers *.Cu *.Mask))
  (pad 2 thru_hole circle (at -6.29 6.25) (size 2.5 2.5) (drill 1.25) (layers *.Cu *.Mask))
)
