%TF.GenerationSoftware,KiCad,Pcbnew,(5.1.10)-1*%
%TF.CreationDate,2021-10-04T18:20:24-03:00*%
%TF.ProjectId,placa_principal_smd,706c6163-615f-4707-9269-6e636970616c,rev?*%
%TF.SameCoordinates,Original*%
%TF.FileFunction,Paste,Top*%
%TF.FilePolarity,Positive*%
%FSLAX46Y46*%
G04 Gerber Fmt 4.6, Leading zero omitted, Abs format (unit mm)*
G04 Created by KiCad (PCBNEW (5.1.10)-1) date 2021-10-04 18:20:24*
%MOMM*%
%LPD*%
G01*
G04 APERTURE LIST*
%ADD10R,1.100000X2.500000*%
%ADD11R,2.500000X1.100000*%
%ADD12R,2.750000X3.050000*%
%ADD13R,2.000000X3.500000*%
%ADD14R,1.500000X3.000000*%
%ADD15R,1.520000X3.000000*%
%ADD16R,2.000000X5.000000*%
%ADD17R,12.200000X9.750000*%
G04 APERTURE END LIST*
D10*
%TO.C,U1*%
X109000000Y-92300000D03*
X107000000Y-92300000D03*
X105000000Y-92300000D03*
X103000000Y-92300000D03*
X101000000Y-92300000D03*
X99000000Y-92300000D03*
X97000000Y-92300000D03*
X95000000Y-92300000D03*
X95000000Y-107700000D03*
X97000000Y-107700000D03*
X99000000Y-107700000D03*
X101000000Y-107700000D03*
X103000000Y-107700000D03*
X105000000Y-107700000D03*
X107000000Y-107700000D03*
X109000000Y-107700000D03*
D11*
X93300000Y-94990000D03*
X93300000Y-96990000D03*
X93300000Y-98990000D03*
X93300000Y-100990000D03*
X93300000Y-102990000D03*
X93300000Y-104990000D03*
%TD*%
D12*
%TO.C,U9*%
X116025000Y-152675000D03*
X112975000Y-149325000D03*
X112975000Y-152675000D03*
X116025000Y-149325000D03*
D13*
X116780000Y-157300000D03*
X112220000Y-157300000D03*
%TD*%
D14*
%TO.C,J7*%
X32925000Y-92250000D03*
X31825000Y-85750000D03*
X27825000Y-85750000D03*
X24825000Y-85750000D03*
%TD*%
%TO.C,U2*%
G36*
G01*
X86895000Y-128850000D02*
X86595000Y-128850000D01*
G75*
G02*
X86445000Y-128700000I0J150000D01*
G01*
X86445000Y-126000000D01*
G75*
G02*
X86595000Y-125850000I150000J0D01*
G01*
X86895000Y-125850000D01*
G75*
G02*
X87045000Y-126000000I0J-150000D01*
G01*
X87045000Y-128700000D01*
G75*
G02*
X86895000Y-128850000I-150000J0D01*
G01*
G37*
G36*
G01*
X88165000Y-128850000D02*
X87865000Y-128850000D01*
G75*
G02*
X87715000Y-128700000I0J150000D01*
G01*
X87715000Y-126000000D01*
G75*
G02*
X87865000Y-125850000I150000J0D01*
G01*
X88165000Y-125850000D01*
G75*
G02*
X88315000Y-126000000I0J-150000D01*
G01*
X88315000Y-128700000D01*
G75*
G02*
X88165000Y-128850000I-150000J0D01*
G01*
G37*
G36*
G01*
X89435000Y-128850000D02*
X89135000Y-128850000D01*
G75*
G02*
X88985000Y-128700000I0J150000D01*
G01*
X88985000Y-126000000D01*
G75*
G02*
X89135000Y-125850000I150000J0D01*
G01*
X89435000Y-125850000D01*
G75*
G02*
X89585000Y-126000000I0J-150000D01*
G01*
X89585000Y-128700000D01*
G75*
G02*
X89435000Y-128850000I-150000J0D01*
G01*
G37*
G36*
G01*
X90705000Y-128850000D02*
X90405000Y-128850000D01*
G75*
G02*
X90255000Y-128700000I0J150000D01*
G01*
X90255000Y-126000000D01*
G75*
G02*
X90405000Y-125850000I150000J0D01*
G01*
X90705000Y-125850000D01*
G75*
G02*
X90855000Y-126000000I0J-150000D01*
G01*
X90855000Y-128700000D01*
G75*
G02*
X90705000Y-128850000I-150000J0D01*
G01*
G37*
G36*
G01*
X91975000Y-128850000D02*
X91675000Y-128850000D01*
G75*
G02*
X91525000Y-128700000I0J150000D01*
G01*
X91525000Y-126000000D01*
G75*
G02*
X91675000Y-125850000I150000J0D01*
G01*
X91975000Y-125850000D01*
G75*
G02*
X92125000Y-126000000I0J-150000D01*
G01*
X92125000Y-128700000D01*
G75*
G02*
X91975000Y-128850000I-150000J0D01*
G01*
G37*
G36*
G01*
X93245000Y-128850000D02*
X92945000Y-128850000D01*
G75*
G02*
X92795000Y-128700000I0J150000D01*
G01*
X92795000Y-126000000D01*
G75*
G02*
X92945000Y-125850000I150000J0D01*
G01*
X93245000Y-125850000D01*
G75*
G02*
X93395000Y-126000000I0J-150000D01*
G01*
X93395000Y-128700000D01*
G75*
G02*
X93245000Y-128850000I-150000J0D01*
G01*
G37*
G36*
G01*
X94515000Y-128850000D02*
X94215000Y-128850000D01*
G75*
G02*
X94065000Y-128700000I0J150000D01*
G01*
X94065000Y-126000000D01*
G75*
G02*
X94215000Y-125850000I150000J0D01*
G01*
X94515000Y-125850000D01*
G75*
G02*
X94665000Y-126000000I0J-150000D01*
G01*
X94665000Y-128700000D01*
G75*
G02*
X94515000Y-128850000I-150000J0D01*
G01*
G37*
G36*
G01*
X95785000Y-128850000D02*
X95485000Y-128850000D01*
G75*
G02*
X95335000Y-128700000I0J150000D01*
G01*
X95335000Y-126000000D01*
G75*
G02*
X95485000Y-125850000I150000J0D01*
G01*
X95785000Y-125850000D01*
G75*
G02*
X95935000Y-126000000I0J-150000D01*
G01*
X95935000Y-128700000D01*
G75*
G02*
X95785000Y-128850000I-150000J0D01*
G01*
G37*
G36*
G01*
X97055000Y-128850000D02*
X96755000Y-128850000D01*
G75*
G02*
X96605000Y-128700000I0J150000D01*
G01*
X96605000Y-126000000D01*
G75*
G02*
X96755000Y-125850000I150000J0D01*
G01*
X97055000Y-125850000D01*
G75*
G02*
X97205000Y-126000000I0J-150000D01*
G01*
X97205000Y-128700000D01*
G75*
G02*
X97055000Y-128850000I-150000J0D01*
G01*
G37*
G36*
G01*
X98325000Y-128850000D02*
X98025000Y-128850000D01*
G75*
G02*
X97875000Y-128700000I0J150000D01*
G01*
X97875000Y-126000000D01*
G75*
G02*
X98025000Y-125850000I150000J0D01*
G01*
X98325000Y-125850000D01*
G75*
G02*
X98475000Y-126000000I0J-150000D01*
G01*
X98475000Y-128700000D01*
G75*
G02*
X98325000Y-128850000I-150000J0D01*
G01*
G37*
G36*
G01*
X99595000Y-128850000D02*
X99295000Y-128850000D01*
G75*
G02*
X99145000Y-128700000I0J150000D01*
G01*
X99145000Y-126000000D01*
G75*
G02*
X99295000Y-125850000I150000J0D01*
G01*
X99595000Y-125850000D01*
G75*
G02*
X99745000Y-126000000I0J-150000D01*
G01*
X99745000Y-128700000D01*
G75*
G02*
X99595000Y-128850000I-150000J0D01*
G01*
G37*
G36*
G01*
X100865000Y-128850000D02*
X100565000Y-128850000D01*
G75*
G02*
X100415000Y-128700000I0J150000D01*
G01*
X100415000Y-126000000D01*
G75*
G02*
X100565000Y-125850000I150000J0D01*
G01*
X100865000Y-125850000D01*
G75*
G02*
X101015000Y-126000000I0J-150000D01*
G01*
X101015000Y-128700000D01*
G75*
G02*
X100865000Y-128850000I-150000J0D01*
G01*
G37*
G36*
G01*
X102135000Y-128850000D02*
X101835000Y-128850000D01*
G75*
G02*
X101685000Y-128700000I0J150000D01*
G01*
X101685000Y-126000000D01*
G75*
G02*
X101835000Y-125850000I150000J0D01*
G01*
X102135000Y-125850000D01*
G75*
G02*
X102285000Y-126000000I0J-150000D01*
G01*
X102285000Y-128700000D01*
G75*
G02*
X102135000Y-128850000I-150000J0D01*
G01*
G37*
G36*
G01*
X103405000Y-128850000D02*
X103105000Y-128850000D01*
G75*
G02*
X102955000Y-128700000I0J150000D01*
G01*
X102955000Y-126000000D01*
G75*
G02*
X103105000Y-125850000I150000J0D01*
G01*
X103405000Y-125850000D01*
G75*
G02*
X103555000Y-126000000I0J-150000D01*
G01*
X103555000Y-128700000D01*
G75*
G02*
X103405000Y-128850000I-150000J0D01*
G01*
G37*
G36*
G01*
X103405000Y-119550000D02*
X103105000Y-119550000D01*
G75*
G02*
X102955000Y-119400000I0J150000D01*
G01*
X102955000Y-116700000D01*
G75*
G02*
X103105000Y-116550000I150000J0D01*
G01*
X103405000Y-116550000D01*
G75*
G02*
X103555000Y-116700000I0J-150000D01*
G01*
X103555000Y-119400000D01*
G75*
G02*
X103405000Y-119550000I-150000J0D01*
G01*
G37*
G36*
G01*
X102135000Y-119550000D02*
X101835000Y-119550000D01*
G75*
G02*
X101685000Y-119400000I0J150000D01*
G01*
X101685000Y-116700000D01*
G75*
G02*
X101835000Y-116550000I150000J0D01*
G01*
X102135000Y-116550000D01*
G75*
G02*
X102285000Y-116700000I0J-150000D01*
G01*
X102285000Y-119400000D01*
G75*
G02*
X102135000Y-119550000I-150000J0D01*
G01*
G37*
G36*
G01*
X100865000Y-119550000D02*
X100565000Y-119550000D01*
G75*
G02*
X100415000Y-119400000I0J150000D01*
G01*
X100415000Y-116700000D01*
G75*
G02*
X100565000Y-116550000I150000J0D01*
G01*
X100865000Y-116550000D01*
G75*
G02*
X101015000Y-116700000I0J-150000D01*
G01*
X101015000Y-119400000D01*
G75*
G02*
X100865000Y-119550000I-150000J0D01*
G01*
G37*
G36*
G01*
X99595000Y-119550000D02*
X99295000Y-119550000D01*
G75*
G02*
X99145000Y-119400000I0J150000D01*
G01*
X99145000Y-116700000D01*
G75*
G02*
X99295000Y-116550000I150000J0D01*
G01*
X99595000Y-116550000D01*
G75*
G02*
X99745000Y-116700000I0J-150000D01*
G01*
X99745000Y-119400000D01*
G75*
G02*
X99595000Y-119550000I-150000J0D01*
G01*
G37*
G36*
G01*
X98325000Y-119550000D02*
X98025000Y-119550000D01*
G75*
G02*
X97875000Y-119400000I0J150000D01*
G01*
X97875000Y-116700000D01*
G75*
G02*
X98025000Y-116550000I150000J0D01*
G01*
X98325000Y-116550000D01*
G75*
G02*
X98475000Y-116700000I0J-150000D01*
G01*
X98475000Y-119400000D01*
G75*
G02*
X98325000Y-119550000I-150000J0D01*
G01*
G37*
G36*
G01*
X97055000Y-119550000D02*
X96755000Y-119550000D01*
G75*
G02*
X96605000Y-119400000I0J150000D01*
G01*
X96605000Y-116700000D01*
G75*
G02*
X96755000Y-116550000I150000J0D01*
G01*
X97055000Y-116550000D01*
G75*
G02*
X97205000Y-116700000I0J-150000D01*
G01*
X97205000Y-119400000D01*
G75*
G02*
X97055000Y-119550000I-150000J0D01*
G01*
G37*
G36*
G01*
X95785000Y-119550000D02*
X95485000Y-119550000D01*
G75*
G02*
X95335000Y-119400000I0J150000D01*
G01*
X95335000Y-116700000D01*
G75*
G02*
X95485000Y-116550000I150000J0D01*
G01*
X95785000Y-116550000D01*
G75*
G02*
X95935000Y-116700000I0J-150000D01*
G01*
X95935000Y-119400000D01*
G75*
G02*
X95785000Y-119550000I-150000J0D01*
G01*
G37*
G36*
G01*
X94515000Y-119550000D02*
X94215000Y-119550000D01*
G75*
G02*
X94065000Y-119400000I0J150000D01*
G01*
X94065000Y-116700000D01*
G75*
G02*
X94215000Y-116550000I150000J0D01*
G01*
X94515000Y-116550000D01*
G75*
G02*
X94665000Y-116700000I0J-150000D01*
G01*
X94665000Y-119400000D01*
G75*
G02*
X94515000Y-119550000I-150000J0D01*
G01*
G37*
G36*
G01*
X93245000Y-119550000D02*
X92945000Y-119550000D01*
G75*
G02*
X92795000Y-119400000I0J150000D01*
G01*
X92795000Y-116700000D01*
G75*
G02*
X92945000Y-116550000I150000J0D01*
G01*
X93245000Y-116550000D01*
G75*
G02*
X93395000Y-116700000I0J-150000D01*
G01*
X93395000Y-119400000D01*
G75*
G02*
X93245000Y-119550000I-150000J0D01*
G01*
G37*
G36*
G01*
X91975000Y-119550000D02*
X91675000Y-119550000D01*
G75*
G02*
X91525000Y-119400000I0J150000D01*
G01*
X91525000Y-116700000D01*
G75*
G02*
X91675000Y-116550000I150000J0D01*
G01*
X91975000Y-116550000D01*
G75*
G02*
X92125000Y-116700000I0J-150000D01*
G01*
X92125000Y-119400000D01*
G75*
G02*
X91975000Y-119550000I-150000J0D01*
G01*
G37*
G36*
G01*
X90705000Y-119550000D02*
X90405000Y-119550000D01*
G75*
G02*
X90255000Y-119400000I0J150000D01*
G01*
X90255000Y-116700000D01*
G75*
G02*
X90405000Y-116550000I150000J0D01*
G01*
X90705000Y-116550000D01*
G75*
G02*
X90855000Y-116700000I0J-150000D01*
G01*
X90855000Y-119400000D01*
G75*
G02*
X90705000Y-119550000I-150000J0D01*
G01*
G37*
G36*
G01*
X89435000Y-119550000D02*
X89135000Y-119550000D01*
G75*
G02*
X88985000Y-119400000I0J150000D01*
G01*
X88985000Y-116700000D01*
G75*
G02*
X89135000Y-116550000I150000J0D01*
G01*
X89435000Y-116550000D01*
G75*
G02*
X89585000Y-116700000I0J-150000D01*
G01*
X89585000Y-119400000D01*
G75*
G02*
X89435000Y-119550000I-150000J0D01*
G01*
G37*
G36*
G01*
X88165000Y-119550000D02*
X87865000Y-119550000D01*
G75*
G02*
X87715000Y-119400000I0J150000D01*
G01*
X87715000Y-116700000D01*
G75*
G02*
X87865000Y-116550000I150000J0D01*
G01*
X88165000Y-116550000D01*
G75*
G02*
X88315000Y-116700000I0J-150000D01*
G01*
X88315000Y-119400000D01*
G75*
G02*
X88165000Y-119550000I-150000J0D01*
G01*
G37*
G36*
G01*
X86895000Y-119550000D02*
X86595000Y-119550000D01*
G75*
G02*
X86445000Y-119400000I0J150000D01*
G01*
X86445000Y-116700000D01*
G75*
G02*
X86595000Y-116550000I150000J0D01*
G01*
X86895000Y-116550000D01*
G75*
G02*
X87045000Y-116700000I0J-150000D01*
G01*
X87045000Y-119400000D01*
G75*
G02*
X86895000Y-119550000I-150000J0D01*
G01*
G37*
%TD*%
D15*
%TO.C,U3*%
X79610000Y-168900000D03*
X77070000Y-168900000D03*
X74530000Y-177500000D03*
X71990000Y-168900000D03*
X71990000Y-177500000D03*
X77070000Y-177500000D03*
X79610000Y-177500000D03*
%TD*%
%TO.C,U4*%
G36*
G01*
X34755000Y-121375000D02*
X35055000Y-121375000D01*
G75*
G02*
X35205000Y-121525000I0J-150000D01*
G01*
X35205000Y-123225000D01*
G75*
G02*
X35055000Y-123375000I-150000J0D01*
G01*
X34755000Y-123375000D01*
G75*
G02*
X34605000Y-123225000I0J150000D01*
G01*
X34605000Y-121525000D01*
G75*
G02*
X34755000Y-121375000I150000J0D01*
G01*
G37*
G36*
G01*
X33485000Y-121375000D02*
X33785000Y-121375000D01*
G75*
G02*
X33935000Y-121525000I0J-150000D01*
G01*
X33935000Y-123225000D01*
G75*
G02*
X33785000Y-123375000I-150000J0D01*
G01*
X33485000Y-123375000D01*
G75*
G02*
X33335000Y-123225000I0J150000D01*
G01*
X33335000Y-121525000D01*
G75*
G02*
X33485000Y-121375000I150000J0D01*
G01*
G37*
G36*
G01*
X32215000Y-121375000D02*
X32515000Y-121375000D01*
G75*
G02*
X32665000Y-121525000I0J-150000D01*
G01*
X32665000Y-123225000D01*
G75*
G02*
X32515000Y-123375000I-150000J0D01*
G01*
X32215000Y-123375000D01*
G75*
G02*
X32065000Y-123225000I0J150000D01*
G01*
X32065000Y-121525000D01*
G75*
G02*
X32215000Y-121375000I150000J0D01*
G01*
G37*
G36*
G01*
X30945000Y-121375000D02*
X31245000Y-121375000D01*
G75*
G02*
X31395000Y-121525000I0J-150000D01*
G01*
X31395000Y-123225000D01*
G75*
G02*
X31245000Y-123375000I-150000J0D01*
G01*
X30945000Y-123375000D01*
G75*
G02*
X30795000Y-123225000I0J150000D01*
G01*
X30795000Y-121525000D01*
G75*
G02*
X30945000Y-121375000I150000J0D01*
G01*
G37*
G36*
G01*
X30945000Y-126625000D02*
X31245000Y-126625000D01*
G75*
G02*
X31395000Y-126775000I0J-150000D01*
G01*
X31395000Y-128475000D01*
G75*
G02*
X31245000Y-128625000I-150000J0D01*
G01*
X30945000Y-128625000D01*
G75*
G02*
X30795000Y-128475000I0J150000D01*
G01*
X30795000Y-126775000D01*
G75*
G02*
X30945000Y-126625000I150000J0D01*
G01*
G37*
G36*
G01*
X32215000Y-126625000D02*
X32515000Y-126625000D01*
G75*
G02*
X32665000Y-126775000I0J-150000D01*
G01*
X32665000Y-128475000D01*
G75*
G02*
X32515000Y-128625000I-150000J0D01*
G01*
X32215000Y-128625000D01*
G75*
G02*
X32065000Y-128475000I0J150000D01*
G01*
X32065000Y-126775000D01*
G75*
G02*
X32215000Y-126625000I150000J0D01*
G01*
G37*
G36*
G01*
X33485000Y-126625000D02*
X33785000Y-126625000D01*
G75*
G02*
X33935000Y-126775000I0J-150000D01*
G01*
X33935000Y-128475000D01*
G75*
G02*
X33785000Y-128625000I-150000J0D01*
G01*
X33485000Y-128625000D01*
G75*
G02*
X33335000Y-128475000I0J150000D01*
G01*
X33335000Y-126775000D01*
G75*
G02*
X33485000Y-126625000I150000J0D01*
G01*
G37*
G36*
G01*
X34755000Y-126625000D02*
X35055000Y-126625000D01*
G75*
G02*
X35205000Y-126775000I0J-150000D01*
G01*
X35205000Y-128475000D01*
G75*
G02*
X35055000Y-128625000I-150000J0D01*
G01*
X34755000Y-128625000D01*
G75*
G02*
X34605000Y-128475000I0J150000D01*
G01*
X34605000Y-126775000D01*
G75*
G02*
X34755000Y-126625000I150000J0D01*
G01*
G37*
%TD*%
%TO.C,U5*%
G36*
G01*
X34755000Y-101375000D02*
X35055000Y-101375000D01*
G75*
G02*
X35205000Y-101525000I0J-150000D01*
G01*
X35205000Y-103225000D01*
G75*
G02*
X35055000Y-103375000I-150000J0D01*
G01*
X34755000Y-103375000D01*
G75*
G02*
X34605000Y-103225000I0J150000D01*
G01*
X34605000Y-101525000D01*
G75*
G02*
X34755000Y-101375000I150000J0D01*
G01*
G37*
G36*
G01*
X33485000Y-101375000D02*
X33785000Y-101375000D01*
G75*
G02*
X33935000Y-101525000I0J-150000D01*
G01*
X33935000Y-103225000D01*
G75*
G02*
X33785000Y-103375000I-150000J0D01*
G01*
X33485000Y-103375000D01*
G75*
G02*
X33335000Y-103225000I0J150000D01*
G01*
X33335000Y-101525000D01*
G75*
G02*
X33485000Y-101375000I150000J0D01*
G01*
G37*
G36*
G01*
X32215000Y-101375000D02*
X32515000Y-101375000D01*
G75*
G02*
X32665000Y-101525000I0J-150000D01*
G01*
X32665000Y-103225000D01*
G75*
G02*
X32515000Y-103375000I-150000J0D01*
G01*
X32215000Y-103375000D01*
G75*
G02*
X32065000Y-103225000I0J150000D01*
G01*
X32065000Y-101525000D01*
G75*
G02*
X32215000Y-101375000I150000J0D01*
G01*
G37*
G36*
G01*
X30945000Y-101375000D02*
X31245000Y-101375000D01*
G75*
G02*
X31395000Y-101525000I0J-150000D01*
G01*
X31395000Y-103225000D01*
G75*
G02*
X31245000Y-103375000I-150000J0D01*
G01*
X30945000Y-103375000D01*
G75*
G02*
X30795000Y-103225000I0J150000D01*
G01*
X30795000Y-101525000D01*
G75*
G02*
X30945000Y-101375000I150000J0D01*
G01*
G37*
G36*
G01*
X30945000Y-106625000D02*
X31245000Y-106625000D01*
G75*
G02*
X31395000Y-106775000I0J-150000D01*
G01*
X31395000Y-108475000D01*
G75*
G02*
X31245000Y-108625000I-150000J0D01*
G01*
X30945000Y-108625000D01*
G75*
G02*
X30795000Y-108475000I0J150000D01*
G01*
X30795000Y-106775000D01*
G75*
G02*
X30945000Y-106625000I150000J0D01*
G01*
G37*
G36*
G01*
X32215000Y-106625000D02*
X32515000Y-106625000D01*
G75*
G02*
X32665000Y-106775000I0J-150000D01*
G01*
X32665000Y-108475000D01*
G75*
G02*
X32515000Y-108625000I-150000J0D01*
G01*
X32215000Y-108625000D01*
G75*
G02*
X32065000Y-108475000I0J150000D01*
G01*
X32065000Y-106775000D01*
G75*
G02*
X32215000Y-106625000I150000J0D01*
G01*
G37*
G36*
G01*
X33485000Y-106625000D02*
X33785000Y-106625000D01*
G75*
G02*
X33935000Y-106775000I0J-150000D01*
G01*
X33935000Y-108475000D01*
G75*
G02*
X33785000Y-108625000I-150000J0D01*
G01*
X33485000Y-108625000D01*
G75*
G02*
X33335000Y-108475000I0J150000D01*
G01*
X33335000Y-106775000D01*
G75*
G02*
X33485000Y-106625000I150000J0D01*
G01*
G37*
G36*
G01*
X34755000Y-106625000D02*
X35055000Y-106625000D01*
G75*
G02*
X35205000Y-106775000I0J-150000D01*
G01*
X35205000Y-108475000D01*
G75*
G02*
X35055000Y-108625000I-150000J0D01*
G01*
X34755000Y-108625000D01*
G75*
G02*
X34605000Y-108475000I0J150000D01*
G01*
X34605000Y-106775000D01*
G75*
G02*
X34755000Y-106625000I150000J0D01*
G01*
G37*
%TD*%
%TO.C,U6*%
G36*
G01*
X76755000Y-131625000D02*
X77055000Y-131625000D01*
G75*
G02*
X77205000Y-131775000I0J-150000D01*
G01*
X77205000Y-133475000D01*
G75*
G02*
X77055000Y-133625000I-150000J0D01*
G01*
X76755000Y-133625000D01*
G75*
G02*
X76605000Y-133475000I0J150000D01*
G01*
X76605000Y-131775000D01*
G75*
G02*
X76755000Y-131625000I150000J0D01*
G01*
G37*
G36*
G01*
X75485000Y-131625000D02*
X75785000Y-131625000D01*
G75*
G02*
X75935000Y-131775000I0J-150000D01*
G01*
X75935000Y-133475000D01*
G75*
G02*
X75785000Y-133625000I-150000J0D01*
G01*
X75485000Y-133625000D01*
G75*
G02*
X75335000Y-133475000I0J150000D01*
G01*
X75335000Y-131775000D01*
G75*
G02*
X75485000Y-131625000I150000J0D01*
G01*
G37*
G36*
G01*
X74215000Y-131625000D02*
X74515000Y-131625000D01*
G75*
G02*
X74665000Y-131775000I0J-150000D01*
G01*
X74665000Y-133475000D01*
G75*
G02*
X74515000Y-133625000I-150000J0D01*
G01*
X74215000Y-133625000D01*
G75*
G02*
X74065000Y-133475000I0J150000D01*
G01*
X74065000Y-131775000D01*
G75*
G02*
X74215000Y-131625000I150000J0D01*
G01*
G37*
G36*
G01*
X72945000Y-131625000D02*
X73245000Y-131625000D01*
G75*
G02*
X73395000Y-131775000I0J-150000D01*
G01*
X73395000Y-133475000D01*
G75*
G02*
X73245000Y-133625000I-150000J0D01*
G01*
X72945000Y-133625000D01*
G75*
G02*
X72795000Y-133475000I0J150000D01*
G01*
X72795000Y-131775000D01*
G75*
G02*
X72945000Y-131625000I150000J0D01*
G01*
G37*
G36*
G01*
X72945000Y-126375000D02*
X73245000Y-126375000D01*
G75*
G02*
X73395000Y-126525000I0J-150000D01*
G01*
X73395000Y-128225000D01*
G75*
G02*
X73245000Y-128375000I-150000J0D01*
G01*
X72945000Y-128375000D01*
G75*
G02*
X72795000Y-128225000I0J150000D01*
G01*
X72795000Y-126525000D01*
G75*
G02*
X72945000Y-126375000I150000J0D01*
G01*
G37*
G36*
G01*
X74215000Y-126375000D02*
X74515000Y-126375000D01*
G75*
G02*
X74665000Y-126525000I0J-150000D01*
G01*
X74665000Y-128225000D01*
G75*
G02*
X74515000Y-128375000I-150000J0D01*
G01*
X74215000Y-128375000D01*
G75*
G02*
X74065000Y-128225000I0J150000D01*
G01*
X74065000Y-126525000D01*
G75*
G02*
X74215000Y-126375000I150000J0D01*
G01*
G37*
G36*
G01*
X75485000Y-126375000D02*
X75785000Y-126375000D01*
G75*
G02*
X75935000Y-126525000I0J-150000D01*
G01*
X75935000Y-128225000D01*
G75*
G02*
X75785000Y-128375000I-150000J0D01*
G01*
X75485000Y-128375000D01*
G75*
G02*
X75335000Y-128225000I0J150000D01*
G01*
X75335000Y-126525000D01*
G75*
G02*
X75485000Y-126375000I150000J0D01*
G01*
G37*
G36*
G01*
X76755000Y-126375000D02*
X77055000Y-126375000D01*
G75*
G02*
X77205000Y-126525000I0J-150000D01*
G01*
X77205000Y-128225000D01*
G75*
G02*
X77055000Y-128375000I-150000J0D01*
G01*
X76755000Y-128375000D01*
G75*
G02*
X76605000Y-128225000I0J150000D01*
G01*
X76605000Y-126525000D01*
G75*
G02*
X76755000Y-126375000I150000J0D01*
G01*
G37*
%TD*%
D16*
%TO.C,U8*%
X111440000Y-163625000D03*
X106360000Y-163625000D03*
D17*
X108900000Y-173900000D03*
%TD*%
M02*
