(module STMicroelectronics-DPAK_0079457_22-0-A-MFG (layer F.Cu) (tedit 5EF17694)
(fp_line (start -5.2000000000 4.6750000000) (end -5.2000000000 -4.6750000000) (layer F.Fab) (width 0.15))
(fp_line (start -5.2000000000 -4.6750000000) (end 5.2000000000 -4.6750000000) (layer F.Fab) (width 0.15))
(fp_line (start 5.2000000000 -4.6750000000) (end 5.2000000000 4.6750000000) (layer F.Fab) (width 0.15))
(fp_line (start 5.2000000000 4.6750000000) (end -5.2000000000 4.6750000000) (layer F.Fab) (width 0.15))
(fp_line (start 6.1250000000 -6.6725000000) (end 6.1250000000 -6.6725000000) (layer F.CrtYd) (width 0.15))
(fp_line (start 6.1250000000 -6.6725000000) (end -6.1250000000 -6.6725000000) (layer F.CrtYd) (width 0.15))
(fp_line (start -6.1250000000 -6.6725000000) (end -6.1250000000 10.2775000000) (layer F.CrtYd) (width 0.15))
(fp_line (start -6.1250000000 10.2775000000) (end 6.1250000000 10.2775000000) (layer F.CrtYd) (width 0.15))
(fp_line (start 6.1250000000 10.2775000000) (end 6.1250000000 -6.6725000000) (layer F.CrtYd) (width 0.15))
(fp_line (start 5.2000000000 4.6750000000) (end 5.2000000000 3.4775000000) (layer F.SilkS) (width 0.15))
(fp_line (start -5.2000000000 4.6750000000) (end 5.2000000000 4.6750000000) (layer F.SilkS) (width 0.15))
(fp_line (start -5.2000000000 4.6750000000) (end -5.2000000000 3.4775000000) (layer F.SilkS) (width 0.15))
(fp_text reference REF** (at -5.2750000000 -7.4750000000 0.0000000000) (layer F.SilkS) (effects (justify left) (font (size 1.0 1.0) (thickness 0.15))))
(pad 1 smd rect (at -2.5400000000 8.5025000000 )(size 1.6000000000 3.5000000000)(layers F.Mask F.Paste F.Cu))
(pad 3 smd rect (at 2.5400000000 8.5025000000 )(size 1.6000000000 3.5000000000)(layers F.Mask F.Paste F.Cu))
(pad 4 smd rect (at 0.0000000000 -1.7725000000 )(size 12.2000000000 9.7500000000)(layers F.Mask F.Paste F.Cu))
(model eec.models/STMicroelectronics_-_L7805CD2T-TR.step
      (at (xyz 0.0000000000 0.0000000000 0.0000000000))
      (rotate (xyz 0.0000000000 0.0000000000 0.0000000000))
      (scale (xyz 1 1 1))
    )
)
