EESchema Schematic File Version 4
EELAYER 30 0
EELAYER END
$Descr A3 16535 11693
encoding utf-8
Sheet 1 1
Title ""
Date ""
Rev ""
Comp ""
Comment1 ""
Comment2 ""
Comment3 ""
Comment4 ""
$EndDescr
$Comp
L MCU_Microchip_PIC18:PIC18F2550-ISO U3
U 1 1 6058828F
P 9150 2150
F 0 "U3" H 8850 3150 50  0000 C CNN
F 1 "PIC18F2550-ISO" H 9500 3150 50  0000 C CNN
F 2 "Package_DIP:DIP-28_W7.62mm_Socket" H 9150 2150 50  0001 C CIN
F 3 "http://ww1.microchip.com/downloads/en/devicedoc/39632c.pdf" H 9150 1700 50  0001 C CNN
	1    9150 2150
	1    0    0    -1  
$EndComp
Wire Wire Line
	9150 1050 9150 750 
Wire Wire Line
	7950 1350 7600 1350
Wire Wire Line
	7600 1450 7950 1450
Wire Wire Line
	7600 1550 7950 1550
Wire Wire Line
	7600 1650 7950 1650
Wire Wire Line
	7950 1750 7600 1750
Wire Wire Line
	7950 1850 7600 1850
Wire Wire Line
	7950 1950 7600 1950
Wire Wire Line
	7950 2050 7600 2050
Wire Wire Line
	7950 2250 7600 2250
Wire Wire Line
	7950 2350 7600 2350
Wire Wire Line
	7950 2450 7600 2450
Wire Wire Line
	7950 2550 7600 2550
Wire Wire Line
	7950 2650 7600 2650
Wire Wire Line
	10350 1350 10700 1350
Wire Wire Line
	10350 1450 10700 1450
Wire Wire Line
	10350 1550 10700 1550
Wire Wire Line
	10350 1650 10700 1650
Wire Wire Line
	10350 1750 10700 1750
Wire Wire Line
	10350 1850 10620 1850
Wire Wire Line
	10350 1950 10700 1950
Wire Wire Line
	10350 2150 10700 2150
Wire Wire Line
	10350 2350 10700 2350
Text Label 10700 2350 0    30   ~ 0
P1_MCLR
Text Label 7600 1350 2    30   ~ 0
P2_RA0
Text Label 7600 1450 2    30   ~ 0
P3_RA1
Text Label 7600 1550 2    30   ~ 0
P4_RA2
Text Label 7600 1650 2    30   ~ 0
P5_RA3
Text Label 7600 1750 2    30   ~ 0
P6_RA4
Text Label 7600 1850 2    30   ~ 0
P7_RA5
Text Label 7600 2050 2    30   ~ 0
P9_OSC1
Text Label 7600 1950 2    30   ~ 0
P10_OSC2
Text Label 10700 1350 0    30   ~ 0
P11_RC0
Text Label 10700 1450 0    30   ~ 0
P12_RC1
Text Label 10700 1550 0    30   ~ 0
P13_RC2
Text Label 10700 2150 0    30   ~ 0
P14_VUSB
Text Label 10700 1650 0    30   ~ 0
P15_RC4
Text Label 10700 1750 0    30   ~ 0
P16_RC5
Text Label 9150 750  0    30   ~ 0
P20_VDD
Text Label 7600 2250 2    30   ~ 0
RTC_SDA
Text Label 7600 2450 2    30   ~ 0
RTC_SQW
Text Label 7600 2550 2    30   ~ 0
P24_RB3
Text Label 7600 2650 2    30   ~ 0
P25_RB4
Text Label 7600 2750 2    30   ~ 0
P26_RB5
Text Label 7800 3290 3    30   ~ 0
P27_PGC
Text Label 7660 3200 3    30   ~ 0
P28_PGD
Text Notes 5400 750  0    98   ~ 0
PIC18F2550 CIRCUIT
Wire Notes Line
	11150 4350 11150 600 
Wire Notes Line
	5350 600  11150 600 
Wire Wire Line
	5750 900  5750 950 
$Comp
L Device:C C5
U 1 1 605F2DB3
P 5750 1150
F 0 "C5" H 5550 1200 50  0000 L CNN
F 1 "100n" H 5500 1050 50  0000 L CNN
F 2 "Capacitor_THT:C_Disc_D3.0mm_W1.6mm_P2.50mm" H 5788 1000 50  0001 C CNN
F 3 "~" H 5750 1150 50  0001 C CNN
	1    5750 1150
	1    0    0    -1  
$EndComp
$Comp
L Device:CP C7
U 1 1 605F3803
P 6150 1150
F 0 "C7" H 6268 1196 50  0000 L CNN
F 1 "10u" H 6268 1105 50  0000 L CNN
F 2 "Capacitor_THT:CP_Radial_D5.0mm_P2.50mm" H 6188 1000 50  0001 C CNN
F 3 "~" H 6150 1150 50  0001 C CNN
	1    6150 1150
	1    0    0    -1  
$EndComp
Wire Wire Line
	6150 1000 6150 950 
Wire Wire Line
	6150 950  5750 950 
Connection ~ 5750 950 
Wire Wire Line
	5750 950  5750 1000
Wire Wire Line
	5750 1300 5950 1300
Connection ~ 5950 1300
Wire Wire Line
	5950 1300 6150 1300
Wire Wire Line
	5950 1300 5950 1400
Text Label 5750 900  0    30   ~ 0
5V
Wire Wire Line
	6250 950  6150 950 
Connection ~ 6150 950 
Text Label 6250 950  0    30   ~ 0
P20_VDD
Wire Wire Line
	9050 3250 9050 3400
Wire Wire Line
	9050 3400 9150 3400
Wire Wire Line
	9150 3400 9150 3250
Wire Wire Line
	9150 3400 9250 3400
Connection ~ 9150 3400
Text Label 9250 3400 0    30   ~ 0
GND
$Comp
L Device:C C6
U 1 1 605C9F74
P 5800 2050
F 0 "C6" H 5600 2100 50  0000 L CNN
F 1 "22p" H 5550 1950 50  0000 L CNN
F 2 "Capacitor_THT:C_Disc_D3.0mm_W1.6mm_P2.50mm" H 5838 1900 50  0001 C CNN
F 3 "~" H 5800 2050 50  0001 C CNN
	1    5800 2050
	1    0    0    -1  
$EndComp
$Comp
L Device:C C8
U 1 1 605CA72C
P 6200 2050
F 0 "C8" H 6000 2000 50  0000 L CNN
F 1 "22p" H 6000 2150 50  0000 L CNN
F 2 "Capacitor_THT:C_Disc_D3.0mm_W1.6mm_P2.50mm" H 6238 1900 50  0001 C CNN
F 3 "~" H 6200 2050 50  0001 C CNN
	1    6200 2050
	-1   0    0    1   
$EndComp
Wire Wire Line
	5800 2200 5800 2250
Wire Wire Line
	5800 2250 6000 2250
Wire Wire Line
	6200 2250 6200 2200
Connection ~ 6000 2250
Wire Wire Line
	6000 2250 6200 2250
$Comp
L Device:Crystal Y1
U 1 1 605D3524
P 6000 1850
F 0 "Y1" H 6000 2118 50  0000 C CNN
F 1 "4Mz" H 6000 2027 50  0000 C CNN
F 2 "Capacitor_THT:C_Disc_D4.3mm_W1.9mm_P5.00mm" H 6000 1850 50  0001 C CNN
F 3 "~" H 6000 1850 50  0001 C CNN
	1    6000 1850
	1    0    0    -1  
$EndComp
Wire Wire Line
	6150 1850 6200 1850
Wire Wire Line
	6200 1850 6200 1900
Wire Wire Line
	5850 1850 5800 1850
Wire Wire Line
	5800 1850 5800 1900
Wire Wire Line
	6200 1850 6200 1750
Connection ~ 6200 1850
Wire Wire Line
	5800 1750 5800 1850
Connection ~ 5800 1850
Text Label 5800 1750 2    30   ~ 0
P10_OSC2
Text Label 6200 1750 0    30   ~ 0
P9_OSC1
Wire Wire Line
	6000 2250 6000 2350
$Comp
L Device:R R14
U 1 1 605E6894
P 4140 2660
F 0 "R14" V 4060 2600 50  0000 L CNN
F 1 "10K" V 4140 2580 50  0000 L CNN
F 2 "Resistor_THT:R_Axial_DIN0207_L6.3mm_D2.5mm_P10.16mm_Horizontal" V 4070 2660 50  0001 C CNN
F 3 "~" H 4140 2660 50  0001 C CNN
	1    4140 2660
	-1   0    0    1   
$EndComp
Text Label 6980 1150 0    30   ~ 0
P1_MCLR
$Comp
L Connector:Conn_01x06_Female J3
U 1 1 60604B58
P 4380 2130
F 0 "J3" V 4318 1742 50  0000 R CNN
F 1 "RTC DS3231" V 4480 2280 50  0000 R CNN
F 2 "Connector_PinSocket_2.54mm:PinSocket_1x06_P2.54mm_Vertical" H 4380 2130 50  0001 C CNN
F 3 "~" H 4380 2130 50  0001 C CNN
	1    4380 2130
	1    0    0    -1  
$EndComp
Wire Wire Line
	4180 1930 4030 1930
Wire Wire Line
	4180 2030 4030 2030
Wire Wire Line
	4180 2130 4140 2130
Wire Wire Line
	4180 2230 4050 2230
Text Label 4030 2030 2    50   ~ 0
5V
Text Label 3850 2330 2    50   ~ 0
RTC_SQW
Text Label 4560 1480 2    50   ~ 0
5V
Text Label 4860 1480 3    50   ~ 0
HC05_RX
Wire Wire Line
	6800 1150 6980 1150
Wire Wire Line
	6800 1600 6800 1750
Wire Wire Line
	6800 1200 6800 1150
NoConn ~ 7950 1550
NoConn ~ 7950 1650
NoConn ~ 7950 1750
NoConn ~ 7950 1850
NoConn ~ 7950 2550
NoConn ~ 10350 1550
NoConn ~ 10350 1650
NoConn ~ 10350 1750
NoConn ~ 10350 2150
Text Label 7600 2350 2    30   ~ 0
RTC_SCL
$Comp
L Connector:Conn_01x06_Female J4
U 1 1 60A960B3
P 6480 3440
F 0 "J4" H 6418 3052 50  0000 R CNN
F 1 "PICKIT3" V 6580 3590 50  0000 R CNN
F 2 "Connector_PinSocket_2.54mm:PinSocket_1x06_P2.54mm_Vertical" H 6480 3440 50  0001 C CNN
F 3 "~" H 6480 3440 50  0001 C CNN
	1    6480 3440
	1    0    0    -1  
$EndComp
Wire Wire Line
	6280 3240 6120 3240
Wire Wire Line
	6280 3640 6120 3640
NoConn ~ 6280 3740
NoConn ~ 10350 1450
NoConn ~ 10350 1350
$Comp
L Connector:Conn_01x08_Female J5
U 1 1 60F130A2
P 1820 1470
F 0 "J5" H 1750 960 50  0000 C CNN
F 1 "Conn_01x08_Female" V 1920 1400 50  0000 C CNN
F 2 "Connector_PinSocket_2.54mm:PinSocket_1x08_P2.54mm_Vertical" H 1820 1470 50  0001 C CNN
F 3 "~" H 1820 1470 50  0001 C CNN
	1    1820 1470
	-1   0    0    -1  
$EndComp
Wire Wire Line
	1350 1870 1140 1870
Text Label 1000 1870 2    50   ~ 0
ESP_VCC
$Comp
L Connector:Conn_01x08_Female J1
U 1 1 60F09076
P 1550 1470
F 0 "J1" H 1578 1446 50  0000 L CNN
F 1 "Conn_01x08_Female" V 1700 1080 50  0000 L CNN
F 2 "Connector_PinSocket_2.54mm:PinSocket_1x08_P2.54mm_Vertical" H 1550 1470 50  0001 C CNN
F 3 "~" H 1550 1470 50  0001 C CNN
	1    1550 1470
	1    0    0    -1  
$EndComp
Wire Wire Line
	1350 1770 1120 1770
Wire Wire Line
	1350 1670 1110 1670
Wire Wire Line
	1350 1570 1110 1570
Wire Wire Line
	1350 1470 1100 1470
Wire Wire Line
	1350 1370 1100 1370
Wire Wire Line
	1350 1270 1100 1270
Wire Wire Line
	1350 1170 1210 1170
Text Label 1100 1170 2    50   ~ 0
ESP_RESET
Text Label 1100 1270 2    50   ~ 0
ESP_ADC
Text Label 1100 1370 2    50   ~ 0
ESP_CH_PD
Text Label 1100 1470 2    50   ~ 0
ESP_GPIO16
Text Label 1110 1570 2    50   ~ 0
ESP_GPIO14
Text Label 1110 1670 2    50   ~ 0
ESP_GPIO12
Text Label 1120 1770 2    50   ~ 0
ESP_GPIO13
Text Label 2330 1170 0    50   ~ 0
ESP_TXD
Text Label 3310 1040 0    50   ~ 0
ESP_RXD
Text Label 2360 1370 0    50   ~ 0
ESP_GPIO5
Text Label 2370 1470 0    50   ~ 0
ESP_GPIO4
Text Label 2370 1570 0    50   ~ 0
ESP_GPIO0
Text Label 2390 1770 0    50   ~ 0
ESP_GPIO15
Text Label 2380 1670 0    50   ~ 0
ESP_GPIO2
Text Label 2390 1870 0    50   ~ 0
ESP_GND
$Comp
L power:GND #PWR0101
U 1 1 60FBB706
P 2190 1950
F 0 "#PWR0101" H 2190 1700 50  0001 C CNN
F 1 "GND" H 2195 1777 50  0000 C CNN
F 2 "" H 2190 1950 50  0001 C CNN
F 3 "" H 2190 1950 50  0001 C CNN
	1    2190 1950
	1    0    0    -1  
$EndComp
$Comp
L Connector:Conn_01x02_Female J7
U 1 1 60FCC516
P 2580 2050
F 0 "J7" V 2518 1862 50  0000 R CNN
F 1 "ESP_PROGRAM" V 2640 2180 50  0000 R CNN
F 2 "Connector_PinHeader_2.54mm:PinHeader_1x02_P2.54mm_Vertical" H 2580 2050 50  0001 C CNN
F 3 "~" H 2580 2050 50  0001 C CNN
	1    2580 2050
	0    -1   -1   0   
$EndComp
Wire Wire Line
	2330 2270 2580 2270
Wire Wire Line
	2580 2270 2580 2250
Wire Wire Line
	2680 2250 2680 2310
$Comp
L Device:R R2
U 1 1 60FE27D1
P 2330 2420
F 0 "R2" H 2400 2466 50  0000 L CNN
F 1 "10K" V 2330 2350 50  0000 L CNN
F 2 "Resistor_THT:R_Axial_DIN0207_L6.3mm_D2.5mm_P10.16mm_Horizontal" V 2260 2420 50  0001 C CNN
F 3 "~" H 2330 2420 50  0001 C CNN
	1    2330 2420
	1    0    0    -1  
$EndComp
$Comp
L Device:R R1
U 1 1 61012479
P 1210 2370
F 0 "R1" H 1280 2416 50  0000 L CNN
F 1 "10K" V 1210 2310 50  0000 L CNN
F 2 "Resistor_THT:R_Axial_DIN0207_L6.3mm_D2.5mm_P10.16mm_Horizontal" V 1140 2370 50  0001 C CNN
F 3 "~" H 1210 2370 50  0001 C CNN
	1    1210 2370
	-1   0    0    1   
$EndComp
Wire Wire Line
	1210 1170 1210 2150
Connection ~ 1210 1170
Wire Wire Line
	1210 1170 1100 1170
Wire Wire Line
	2190 1950 2190 1870
Connection ~ 2190 1870
Wire Wire Line
	2190 1870 2390 1870
$Comp
L power:GND #PWR0102
U 1 1 6103B801
P 2680 2310
F 0 "#PWR0102" H 2680 2060 50  0001 C CNN
F 1 "GND" H 2685 2137 50  0000 C CNN
F 2 "" H 2680 2310 50  0001 C CNN
F 3 "" H 2680 2310 50  0001 C CNN
	1    2680 2310
	1    0    0    -1  
$EndComp
Wire Wire Line
	1290 2150 1210 2150
Connection ~ 1210 2150
Wire Wire Line
	1210 2150 1210 2220
$Comp
L power:GND #PWR0103
U 1 1 6104642E
P 1790 2220
F 0 "#PWR0103" H 1790 1970 50  0001 C CNN
F 1 "GND" H 1795 2047 50  0000 C CNN
F 2 "" H 1790 2220 50  0001 C CNN
F 3 "" H 1790 2220 50  0001 C CNN
	1    1790 2220
	1    0    0    -1  
$EndComp
Wire Wire Line
	1790 2150 1790 2220
Wire Wire Line
	1790 2150 1690 2150
Wire Wire Line
	2270 1570 2270 2000
Wire Wire Line
	2270 2000 2330 2000
Wire Wire Line
	2330 2000 2330 2270
Connection ~ 2270 1570
Wire Wire Line
	2270 1570 2370 1570
Connection ~ 2330 2270
$Comp
L Device:R R4
U 1 1 61081FBB
P 3190 1290
F 0 "R4" H 3260 1336 50  0000 L CNN
F 1 "1K" V 3180 1250 50  0000 L CNN
F 2 "Resistor_THT:R_Axial_DIN0207_L6.3mm_D2.5mm_P10.16mm_Horizontal" V 3120 1290 50  0001 C CNN
F 3 "~" H 3190 1290 50  0001 C CNN
	1    3190 1290
	-1   0    0    1   
$EndComp
$Comp
L Device:R R5
U 1 1 6108A5DE
P 3190 1590
F 0 "R5" H 3260 1636 50  0000 L CNN
F 1 "1K" V 3190 1540 50  0000 L CNN
F 2 "Resistor_THT:R_Axial_DIN0207_L6.3mm_D2.5mm_P10.16mm_Horizontal" V 3120 1590 50  0001 C CNN
F 3 "~" H 3190 1590 50  0001 C CNN
	1    3190 1590
	-1   0    0    1   
$EndComp
$Comp
L power:GND #PWR0104
U 1 1 610A4366
P 3190 1740
F 0 "#PWR0104" H 3190 1490 50  0001 C CNN
F 1 "GND" H 3195 1567 50  0000 C CNN
F 2 "" H 3190 1740 50  0001 C CNN
F 3 "" H 3190 1740 50  0001 C CNN
	1    3190 1740
	1    0    0    -1  
$EndComp
$Comp
L Connector:Conn_01x02_Female J6
U 1 1 610AD607
P 2540 840
F 0 "J6" V 2478 652 50  0000 R CNN
F 1 "PIC/ESP_PROGRAM" V 2530 660 50  0000 R CNN
F 2 "Connector_PinHeader_2.54mm:PinHeader_1x02_P2.54mm_Vertical" H 2540 840 50  0001 C CNN
F 3 "~" H 2540 840 50  0001 C CNN
	1    2540 840 
	0    -1   -1   0   
$EndComp
Wire Wire Line
	2270 1040 2540 1040
Wire Wire Line
	2270 1040 2270 1270
$Comp
L Device:R R3
U 1 1 61081772
P 2960 1040
F 0 "R3" H 2810 1080 50  0000 L CNN
F 1 "1K" V 2960 990 50  0000 L CNN
F 2 "Resistor_THT:R_Axial_DIN0207_L6.3mm_D2.5mm_P10.16mm_Horizontal" V 2890 1040 50  0001 C CNN
F 3 "~" H 2960 1040 50  0001 C CNN
	1    2960 1040
	0    1    1    0   
$EndComp
Wire Wire Line
	2640 1040 2810 1040
Wire Wire Line
	3110 1040 3190 1040
Wire Wire Line
	3190 1040 3190 1140
Wire Wire Line
	3310 1040 3190 1040
Connection ~ 3190 1040
$Comp
L Device:CP C1
U 1 1 611D25ED
P 840 2330
F 0 "C1" H 640 2380 50  0000 L CNN
F 1 "100u" H 630 2230 50  0000 L CNN
F 2 "Capacitor_THT:CP_Radial_D5.0mm_P2.50mm" H 878 2180 50  0001 C CNN
F 3 "~" H 840 2330 50  0001 C CNN
	1    840  2330
	1    0    0    -1  
$EndComp
$Comp
L power:GND #PWR0105
U 1 1 611D31A7
P 840 2540
F 0 "#PWR0105" H 840 2290 50  0001 C CNN
F 1 "GND" H 845 2367 50  0000 C CNN
F 2 "" H 840 2540 50  0001 C CNN
F 3 "" H 840 2540 50  0001 C CNN
	1    840  2540
	1    0    0    -1  
$EndComp
Connection ~ 1140 1870
Wire Wire Line
	1000 1870 1140 1870
Wire Wire Line
	840  2180 840  2050
Wire Wire Line
	840  2050 1140 2050
Wire Wire Line
	1140 1870 1140 2050
Wire Wire Line
	840  2480 840  2540
Text Label 6120 3240 2    50   ~ 0
P1_MCLR
Wire Wire Line
	6280 3340 6110 3340
$Comp
L power:GND #PWR0106
U 1 1 611EEB36
P 6800 1750
F 0 "#PWR0106" H 6800 1500 50  0001 C CNN
F 1 "GND" H 6805 1577 50  0000 C CNN
F 2 "" H 6800 1750 50  0001 C CNN
F 3 "" H 6800 1750 50  0001 C CNN
	1    6800 1750
	1    0    0    -1  
$EndComp
$Comp
L power:GND #PWR0107
U 1 1 611EF279
P 6000 2350
F 0 "#PWR0107" H 6000 2100 50  0001 C CNN
F 1 "GND" H 6005 2177 50  0000 C CNN
F 2 "" H 6000 2350 50  0001 C CNN
F 3 "" H 6000 2350 50  0001 C CNN
	1    6000 2350
	1    0    0    -1  
$EndComp
$Comp
L power:GND #PWR0108
U 1 1 611EFD72
P 5950 1400
F 0 "#PWR0108" H 5950 1150 50  0001 C CNN
F 1 "GND" V 5955 1272 50  0000 R CNN
F 2 "" H 5950 1400 50  0001 C CNN
F 3 "" H 5950 1400 50  0001 C CNN
	1    5950 1400
	0    -1   -1   0   
$EndComp
Text Label 6110 3340 2    50   ~ 0
5V
$Comp
L power:GND #PWR0109
U 1 1 611F0490
P 5680 3440
F 0 "#PWR0109" H 5680 3190 50  0001 C CNN
F 1 "GND" V 5685 3312 50  0000 R CNN
F 2 "" H 5680 3440 50  0001 C CNN
F 3 "" H 5680 3440 50  0001 C CNN
	1    5680 3440
	0    1    1    0   
$EndComp
Wire Wire Line
	5680 3440 6280 3440
Wire Wire Line
	6280 3540 6120 3540
Text Label 6120 3540 2    50   ~ 0
P28_PGD
Text Label 6120 3640 2    50   ~ 0
P27_PGC
$Comp
L power:GND #PWR0110
U 1 1 6120FE3E
P 6910 2960
F 0 "#PWR0110" H 6910 2710 50  0001 C CNN
F 1 "GND" V 6915 2832 50  0000 R CNN
F 2 "" H 6910 2960 50  0001 C CNN
F 3 "" H 6910 2960 50  0001 C CNN
	1    6910 2960
	0    1    1    0   
$EndComp
Wire Wire Line
	7950 2850 7800 2850
Wire Wire Line
	7950 2950 7660 2950
$Comp
L Device:R R11
U 1 1 612198B1
P 7060 2960
F 0 "R11" V 7150 2940 50  0000 L CNN
F 1 "10K" V 7060 2910 50  0000 L CNN
F 2 "Resistor_THT:R_Axial_DIN0207_L6.3mm_D2.5mm_P10.16mm_Horizontal" V 6990 2960 50  0001 C CNN
F 3 "~" H 7060 2960 50  0001 C CNN
	1    7060 2960
	0    1    1    0   
$EndComp
Wire Wire Line
	7660 3200 7660 2950
Connection ~ 7660 2950
Wire Wire Line
	7450 2950 7450 2960
Wire Wire Line
	7450 2950 7660 2950
$Comp
L Connector:Conn_01x02_Female J9
U 1 1 6120F1C0
P 7450 3160
F 0 "J9" V 7388 2972 50  0000 R CNN
F 1 "PGD/GND" V 7510 3290 50  0000 R CNN
F 2 "Connector_PinHeader_2.54mm:PinHeader_1x02_P2.54mm_Vertical" H 7450 3160 50  0001 C CNN
F 3 "~" H 7450 3160 50  0001 C CNN
	1    7450 3160
	0    1    1    0   
$EndComp
Wire Wire Line
	7210 2960 7350 2960
Wire Wire Line
	7800 3290 7800 2850
Connection ~ 7800 2850
$Comp
L Connector:Conn_01x02_Female J8
U 1 1 6123B4B1
P 7010 2600
F 0 "J8" V 6948 2412 50  0000 R CNN
F 1 "PGC/GND" V 7070 2730 50  0000 R CNN
F 2 "Connector_PinHeader_2.54mm:PinHeader_1x02_P2.54mm_Vertical" H 7010 2600 50  0001 C CNN
F 3 "~" H 7010 2600 50  0001 C CNN
	1    7010 2600
	0    -1   -1   0   
$EndComp
$Comp
L power:GND #PWR0111
U 1 1 6123BF7A
P 6450 2820
F 0 "#PWR0111" H 6450 2570 50  0001 C CNN
F 1 "GND" V 6455 2692 50  0000 R CNN
F 2 "" H 6450 2820 50  0001 C CNN
F 3 "" H 6450 2820 50  0001 C CNN
	1    6450 2820
	0    1    1    0   
$EndComp
Wire Wire Line
	7110 2850 7110 2800
Wire Wire Line
	7110 2850 7800 2850
$Comp
L Device:R R10
U 1 1 61245B3D
P 6670 2820
F 0 "R10" V 6570 2790 50  0000 L CNN
F 1 "10K" V 6670 2760 50  0000 L CNN
F 2 "Resistor_THT:R_Axial_DIN0207_L6.3mm_D2.5mm_P10.16mm_Horizontal" V 6600 2820 50  0001 C CNN
F 3 "~" H 6670 2820 50  0001 C CNN
	1    6670 2820
	0    1    1    0   
$EndComp
Wire Wire Line
	7010 2820 7010 2800
Wire Wire Line
	6520 2820 6450 2820
$Comp
L power:GND #PWR0112
U 1 1 61254D7B
P 4660 1590
F 0 "#PWR0112" H 4660 1340 50  0001 C CNN
F 1 "GND" H 4665 1417 50  0000 C CNN
F 2 "" H 4660 1590 50  0001 C CNN
F 3 "" H 4660 1590 50  0001 C CNN
	1    4660 1590
	0    1    1    0   
$EndComp
$Comp
L power:GND #PWR0113
U 1 1 61255ABC
P 4030 1930
F 0 "#PWR0113" H 4030 1680 50  0001 C CNN
F 1 "GND" H 4035 1757 50  0000 C CNN
F 2 "" H 4030 1930 50  0001 C CNN
F 3 "" H 4030 1930 50  0001 C CNN
	1    4030 1930
	-1   0    0    1   
$EndComp
Connection ~ 6800 1150
Wire Wire Line
	6820 2820 7010 2820
Wire Wire Line
	1210 2520 1210 2640
Wire Wire Line
	2330 2570 2330 2690
Wire Wire Line
	2330 2690 2440 2690
Text Label 2440 2690 0    50   ~ 0
3,3V
Text Label 1210 2640 0    50   ~ 0
3,3V
Wire Wire Line
	7600 2750 7900 2750
Connection ~ 7900 2750
Wire Wire Line
	7900 2750 7950 2750
$Comp
L Device:R R12
U 1 1 61291ED4
P 7910 3630
F 0 "R12" V 7820 3590 50  0000 L CNN
F 1 "10K" V 7910 3560 50  0000 L CNN
F 2 "Resistor_THT:R_Axial_DIN0207_L6.3mm_D2.5mm_P10.16mm_Horizontal" V 7840 3630 50  0001 C CNN
F 3 "~" H 7910 3630 50  0001 C CNN
	1    7910 3630
	-1   0    0    1   
$EndComp
$Comp
L power:GND #PWR0114
U 1 1 61292353
P 7910 3780
F 0 "#PWR0114" H 7910 3530 50  0001 C CNN
F 1 "GND" H 7915 3607 50  0000 C CNN
F 2 "" H 7910 3780 50  0001 C CNN
F 3 "" H 7910 3780 50  0001 C CNN
	1    7910 3780
	1    0    0    -1  
$EndComp
$Comp
L Device:R R7
U 1 1 6129E742
P 4050 2660
F 0 "R7" H 4040 2500 50  0000 L CNN
F 1 "10K" V 4050 2580 50  0000 L CNN
F 2 "Resistor_THT:R_Axial_DIN0207_L6.3mm_D2.5mm_P10.16mm_Horizontal" V 3980 2660 50  0001 C CNN
F 3 "~" H 4050 2660 50  0001 C CNN
	1    4050 2660
	-1   0    0    1   
$EndComp
Connection ~ 4140 2130
Connection ~ 4050 2230
Wire Wire Line
	4050 2230 4050 2510
Text Label 3850 2230 2    50   ~ 0
RTC_SCL
Text Label 3860 2130 2    50   ~ 0
RTC_SDA
Wire Wire Line
	4140 2130 3860 2130
Wire Wire Line
	4050 2230 3850 2230
Wire Wire Line
	4180 2330 3950 2330
NoConn ~ 4180 2430
$Comp
L Device:R R6
U 1 1 612E1370
P 3950 2660
F 0 "R6" H 3970 2500 50  0000 L CNN
F 1 "10K" V 3950 2580 50  0000 L CNN
F 2 "Resistor_THT:R_Axial_DIN0207_L6.3mm_D2.5mm_P10.16mm_Horizontal" V 3880 2660 50  0001 C CNN
F 3 "~" H 3950 2660 50  0001 C CNN
	1    3950 2660
	-1   0    0    1   
$EndComp
Wire Wire Line
	3950 2510 3950 2330
Connection ~ 3950 2330
Wire Wire Line
	3950 2330 3850 2330
Wire Wire Line
	4140 2130 4140 2510
Text Label 10550 2620 2    50   ~ 0
ESP_RXD
Text Label 10690 2620 0    50   ~ 0
HC05_RX
Wire Wire Line
	10550 2620 10620 2620
Wire Wire Line
	10620 2620 10620 1850
Connection ~ 10620 2620
Wire Wire Line
	10620 2620 10690 2620
Wire Wire Line
	3950 2810 3950 2880
Wire Wire Line
	4050 2880 4050 2810
Wire Wire Line
	4140 2810 4140 2880
Wire Wire Line
	3950 2880 4050 2880
Connection ~ 4050 2880
Wire Wire Line
	4050 2880 4140 2880
Wire Wire Line
	4050 2880 4050 2960
Text Label 4050 2960 3    50   ~ 0
5V
Text Label 7110 940  0    50   ~ 0
5V
$Comp
L Connector:Conn_01x02_Female J10
U 1 1 613A9979
P 8110 3290
F 0 "J10" V 8048 3102 50  0000 R CNN
F 1 "PGM/GND" V 8170 3420 50  0000 R CNN
F 2 "Connector_PinHeader_2.54mm:PinHeader_1x02_P2.54mm_Vertical" H 8110 3290 50  0001 C CNN
F 3 "~" H 8110 3290 50  0001 C CNN
	1    8110 3290
	1    0    0    -1  
$EndComp
Wire Wire Line
	7900 3290 7910 3290
Wire Wire Line
	7900 2750 7900 3290
Wire Wire Line
	7910 3390 7910 3480
$Comp
L Regulator_Linear:LM7805_TO220 U1
U 1 1 613E76DA
P 1940 3590
F 0 "U1" H 1940 3832 50  0000 C CNN
F 1 "LM7805_TO220" H 1940 3741 50  0000 C CNN
F 2 "Package_TO_SOT_THT:TO-220-3_Vertical" H 1940 3815 50  0001 C CIN
F 3 "https://www.onsemi.cn/PowerSolutions/document/MC7800-D.PDF" H 1940 3540 50  0001 C CNN
	1    1940 3590
	1    0    0    -1  
$EndComp
$Comp
L power:+12V #PWR0115
U 1 1 613EF53C
P 1370 3360
F 0 "#PWR0115" H 1370 3210 50  0001 C CNN
F 1 "+12V" H 1385 3533 50  0000 C CNN
F 2 "" H 1370 3360 50  0001 C CNN
F 3 "" H 1370 3360 50  0001 C CNN
	1    1370 3360
	1    0    0    -1  
$EndComp
Wire Wire Line
	2240 3590 2430 3590
Text Label 2540 3590 0    50   ~ 0
5V
$Comp
L Device:C C2
U 1 1 6140B0A2
P 1370 3820
F 0 "C2" H 1170 3870 50  0000 L CNN
F 1 "0.33u" H 1120 3720 50  0000 L CNN
F 2 "Capacitor_THT:C_Disc_D3.0mm_W1.6mm_P2.50mm" H 1408 3670 50  0001 C CNN
F 3 "~" H 1370 3820 50  0001 C CNN
	1    1370 3820
	1    0    0    -1  
$EndComp
Wire Wire Line
	2430 3660 2430 3590
Connection ~ 2430 3590
Wire Wire Line
	2430 3590 2540 3590
Wire Wire Line
	2430 3960 2430 4040
Wire Wire Line
	2430 4040 1940 4040
Wire Wire Line
	1940 4040 1940 3890
Wire Wire Line
	1370 4040 1370 3970
Wire Wire Line
	1370 4040 1940 4040
Connection ~ 1940 4040
Wire Wire Line
	1370 3360 1370 3590
Wire Wire Line
	1640 3590 1370 3590
Connection ~ 1370 3590
Wire Wire Line
	1370 3590 1370 3670
$Comp
L power:+12V #PWR0116
U 1 1 6144C2A2
P 2980 3440
F 0 "#PWR0116" H 2980 3290 50  0001 C CNN
F 1 "+12V" H 2995 3613 50  0000 C CNN
F 2 "" H 2980 3440 50  0001 C CNN
F 3 "" H 2980 3440 50  0001 C CNN
	1    2980 3440
	1    0    0    -1  
$EndComp
$Comp
L Device:C C3
U 1 1 6140BE7D
P 2430 3810
F 0 "C3" H 2230 3860 50  0000 L CNN
F 1 "100n" H 2180 3710 50  0000 L CNN
F 2 "Capacitor_THT:C_Disc_D3.0mm_W1.6mm_P2.50mm" H 2468 3660 50  0001 C CNN
F 3 "~" H 2430 3810 50  0001 C CNN
	1    2430 3810
	1    0    0    -1  
$EndComp
Text Label 4390 3590 0    50   ~ 0
3,3V
$Comp
L Amplifier_Operational:LM358 U4
U 1 1 6149EB1B
P 4910 10600
F 0 "U4" H 4910 10967 50  0000 C CNN
F 1 "LM358" H 4910 10876 50  0000 C CNN
F 2 "Package_DIP:DIP-8_W7.62mm" H 4910 10600 50  0001 C CNN
F 3 "http://www.ti.com/lit/ds/symlink/lm2904-n.pdf" H 4910 10600 50  0001 C CNN
	1    4910 10600
	1    0    0    -1  
$EndComp
$Comp
L Amplifier_Operational:LM358 U4
U 3 1 614A01A9
P 3420 10470
F 0 "U4" H 3378 10516 50  0000 L CNN
F 1 "LM358" H 3378 10425 50  0000 L CNN
F 2 "Package_DIP:DIP-8_W7.62mm" H 3420 10470 50  0001 C CNN
F 3 "http://www.ti.com/lit/ds/symlink/lm2904-n.pdf" H 3420 10470 50  0001 C CNN
	3    3420 10470
	1    0    0    -1  
$EndComp
$Comp
L power:GND #PWR0117
U 1 1 614A2571
P 1940 4040
F 0 "#PWR0117" H 1940 3790 50  0001 C CNN
F 1 "GND" H 1945 3867 50  0000 C CNN
F 2 "" H 1940 4040 50  0001 C CNN
F 3 "" H 1940 4040 50  0001 C CNN
	1    1940 4040
	1    0    0    -1  
$EndComp
$Comp
L power:GND #PWR0119
U 1 1 614A30A0
P 3320 10770
F 0 "#PWR0119" H 3320 10520 50  0001 C CNN
F 1 "GND" H 3325 10597 50  0000 C CNN
F 2 "" H 3320 10770 50  0001 C CNN
F 3 "" H 3320 10770 50  0001 C CNN
	1    3320 10770
	1    0    0    -1  
$EndComp
$Comp
L Device:R R8
U 1 1 614B7384
P 4200 10500
F 0 "R8" V 4290 10480 50  0000 L CNN
F 1 "10K" V 4200 10450 50  0000 L CNN
F 2 "Resistor_THT:R_Axial_DIN0207_L6.3mm_D2.5mm_P10.16mm_Horizontal" V 4130 10500 50  0001 C CNN
F 3 "~" H 4200 10500 50  0001 C CNN
	1    4200 10500
	0    1    1    0   
$EndComp
Wire Wire Line
	3930 10500 4050 10500
$Comp
L Device:R R9
U 1 1 614E61BB
P 4390 10190
F 0 "R9" V 4480 10170 50  0000 L CNN
F 1 "10K" V 4390 10140 50  0000 L CNN
F 2 "Resistor_THT:R_Axial_DIN0207_L6.3mm_D2.5mm_P10.16mm_Horizontal" V 4320 10190 50  0001 C CNN
F 3 "~" H 4390 10190 50  0001 C CNN
	1    4390 10190
	-1   0    0    1   
$EndComp
Wire Wire Line
	4350 10500 4390 10500
Wire Wire Line
	4390 10340 4390 10500
Connection ~ 4390 10500
Wire Wire Line
	4390 10500 4610 10500
Text Label 4390 9920 2    50   ~ 0
5V
Wire Wire Line
	4390 9920 4390 10040
Wire Wire Line
	3320 10170 3320 10020
Text Label 3320 10020 0    50   ~ 0
5V
$Comp
L power:GND #PWR0120
U 1 1 61564A4E
P 3930 10650
F 0 "#PWR0120" H 3930 10400 50  0001 C CNN
F 1 "GND" H 3935 10477 50  0000 C CNN
F 2 "" H 3930 10650 50  0001 C CNN
F 3 "" H 3930 10650 50  0001 C CNN
	1    3930 10650
	1    0    0    -1  
$EndComp
Wire Wire Line
	3930 10500 3930 10650
Wire Wire Line
	4390 10700 4390 10880
Wire Wire Line
	4390 10700 4610 10700
Text Label 4390 11100 2    50   ~ 0
ADAPTED_VOLTAGE
Wire Wire Line
	5210 10600 5510 10600
Text Label 5510 10600 0    50   ~ 0
P25_RB4
Wire Wire Line
	4390 10880 5150 10880
Connection ~ 4390 10880
Text Label 5150 10880 0    50   ~ 0
P2_RA0
Wire Wire Line
	4390 10880 4390 11100
NoConn ~ 1350 1270
NoConn ~ 1350 1370
NoConn ~ 1350 1570
NoConn ~ 1350 1670
NoConn ~ 1350 1770
NoConn ~ 2020 1670
NoConn ~ 2020 1470
NoConn ~ 2020 1370
NoConn ~ 2020 1170
$Comp
L Connector:Conn_01x02_Female J11
U 1 1 6160629D
P 1050 4600
F 0 "J11" V 988 4412 50  0000 R CNN
F 1 "POWER_INPUT_12V" V 1110 4730 50  0000 R CNN
F 2 "TerminalBlock:TerminalBlock_bornier-2_P5.08mm" H 1050 4600 50  0001 C CNN
F 3 "~" H 1050 4600 50  0001 C CNN
	1    1050 4600
	0    -1   -1   0   
$EndComp
$Comp
L power:+12V #PWR0121
U 1 1 61607579
P 1050 4800
F 0 "#PWR0121" H 1050 4650 50  0001 C CNN
F 1 "+12V" H 1065 4973 50  0000 C CNN
F 2 "" H 1050 4800 50  0001 C CNN
F 3 "" H 1050 4800 50  0001 C CNN
	1    1050 4800
	-1   0    0    1   
$EndComp
$Comp
L power:GND #PWR0122
U 1 1 6160839D
P 1150 4800
F 0 "#PWR0122" H 1150 4550 50  0001 C CNN
F 1 "GND" V 1155 4672 50  0000 R CNN
F 2 "" H 1150 4800 50  0001 C CNN
F 3 "" H 1150 4800 50  0001 C CNN
	1    1150 4800
	0    -1   -1   0   
$EndComp
$Comp
L power:PWR_FLAG #FLG0101
U 1 1 616134EC
P 1890 4650
F 0 "#FLG0101" H 1890 4725 50  0001 C CNN
F 1 "PWR_FLAG" H 1890 4823 50  0000 C CNN
F 2 "" H 1890 4650 50  0001 C CNN
F 3 "~" H 1890 4650 50  0001 C CNN
	1    1890 4650
	1    0    0    -1  
$EndComp
$Comp
L power:+12V #PWR0123
U 1 1 616138F1
P 1890 4650
F 0 "#PWR0123" H 1890 4500 50  0001 C CNN
F 1 "+12V" H 1905 4823 50  0000 C CNN
F 2 "" H 1890 4650 50  0001 C CNN
F 3 "" H 1890 4650 50  0001 C CNN
	1    1890 4650
	-1   0    0    1   
$EndComp
$Comp
L power:PWR_FLAG #FLG0102
U 1 1 61613E00
P 2320 4640
F 0 "#FLG0102" H 2320 4715 50  0001 C CNN
F 1 "PWR_FLAG" H 2320 4813 50  0000 C CNN
F 2 "" H 2320 4640 50  0001 C CNN
F 3 "~" H 2320 4640 50  0001 C CNN
	1    2320 4640
	1    0    0    -1  
$EndComp
$Comp
L power:GND #PWR0124
U 1 1 61614150
P 2320 4640
F 0 "#PWR0124" H 2320 4390 50  0001 C CNN
F 1 "GND" H 2325 4467 50  0000 C CNN
F 2 "" H 2320 4640 50  0001 C CNN
F 3 "" H 2320 4640 50  0001 C CNN
	1    2320 4640
	1    0    0    -1  
$EndComp
$Comp
L Regulator_Linear:LM317_TO-220 U6
U 1 1 61614EDD
P 3490 3590
F 0 "U6" H 3490 3832 50  0000 C CNN
F 1 "LM317_TO-220" H 3490 3741 50  0000 C CNN
F 2 "Package_TO_SOT_THT:TO-220-3_Vertical" H 3490 3840 50  0001 C CIN
F 3 "http://www.ti.com/lit/ds/symlink/lm317.pdf" H 3490 3590 50  0001 C CNN
	1    3490 3590
	1    0    0    -1  
$EndComp
$Comp
L Device:R R38
U 1 1 61625D1C
P 3910 3900
F 0 "R38" H 3930 3740 50  0000 L CNN
F 1 "240" V 3910 3820 50  0000 L CNN
F 2 "Resistor_THT:R_Axial_DIN0207_L6.3mm_D2.5mm_P10.16mm_Horizontal" V 3840 3900 50  0001 C CNN
F 3 "~" H 3910 3900 50  0001 C CNN
	1    3910 3900
	-1   0    0    1   
$EndComp
$Comp
L Device:R R29
U 1 1 61626FC1
P 3490 4120
F 0 "R29" H 3510 3960 50  0000 L CNN
F 1 "390" V 3490 4040 50  0000 L CNN
F 2 "Resistor_THT:R_Axial_DIN0207_L6.3mm_D2.5mm_P10.16mm_Horizontal" V 3420 4120 50  0001 C CNN
F 3 "~" H 3490 4120 50  0001 C CNN
	1    3490 4120
	-1   0    0    1   
$EndComp
Wire Wire Line
	3790 3590 3910 3590
Wire Wire Line
	4300 3690 4300 3590
Connection ~ 4300 3590
Wire Wire Line
	4300 3590 4390 3590
$Comp
L Device:CP C11
U 1 1 616392B4
P 4300 3840
F 0 "C11" H 4418 3886 50  0000 L CNN
F 1 "1u" H 4418 3795 50  0000 L CNN
F 2 "Capacitor_THT:CP_Radial_D5.0mm_P2.50mm" H 4338 3690 50  0001 C CNN
F 3 "~" H 4300 3840 50  0001 C CNN
	1    4300 3840
	1    0    0    -1  
$EndComp
Wire Wire Line
	3910 3750 3910 3590
Connection ~ 3910 3590
Wire Wire Line
	3910 3590 4300 3590
Wire Wire Line
	3490 3890 3490 3920
Wire Wire Line
	3490 4270 3490 4320
Wire Wire Line
	4300 4340 4300 3990
$Comp
L Device:C C10
U 1 1 6165F9CF
P 3000 3950
F 0 "C10" H 2800 4000 50  0000 L CNN
F 1 "100n" H 2750 3850 50  0000 L CNN
F 2 "Capacitor_THT:C_Disc_D3.0mm_W1.6mm_P2.50mm" H 3038 3800 50  0001 C CNN
F 3 "~" H 3000 3950 50  0001 C CNN
	1    3000 3950
	1    0    0    -1  
$EndComp
Wire Wire Line
	3190 3590 3000 3590
Wire Wire Line
	2980 3590 2980 3440
Wire Wire Line
	3000 3800 3000 3590
Connection ~ 3000 3590
Wire Wire Line
	3000 3590 2980 3590
Wire Wire Line
	3000 4100 3000 4320
Wire Wire Line
	3000 4320 3490 4320
Connection ~ 3490 4320
Wire Wire Line
	3490 4320 3490 4340
$Comp
L power:GND #PWR011
U 1 1 6167DEC6
P 3490 4320
F 0 "#PWR011" H 3490 4070 50  0001 C CNN
F 1 "GND" H 3495 4147 50  0000 C CNN
F 2 "" H 3490 4320 50  0001 C CNN
F 3 "" H 3490 4320 50  0001 C CNN
	1    3490 4320
	1    0    0    -1  
$EndComp
Wire Notes Line
	5340 600  610  600 
Wire Notes Line
	610  3090 5350 3090
NoConn ~ 4460 1330
NoConn ~ 4960 1330
Wire Wire Line
	4560 1330 4560 1480
Wire Wire Line
	4660 1330 4660 1590
Wire Wire Line
	4860 1330 4860 1480
$Comp
L Connector:Conn_01x06_Female J2
U 1 1 6065BF99
P 4660 1130
F 0 "J2" V 4598 742 50  0000 R CNN
F 1 "HC-05" V 4760 1230 50  0000 R CNN
F 2 "Connector_PinSocket_2.54mm:PinSocket_1x06_P2.54mm_Vertical" H 4660 1130 50  0001 C CNN
F 3 "~" H 4660 1130 50  0001 C CNN
	1    4660 1130
	0    -1   -1   0   
$EndComp
Text Notes 750  940  0    98   ~ 0
ESP8266-12e ----- HC05 --------- RTCD 3231\n\n
Text Notes 3600 3260 0    98   ~ 0
POWER MANAGEMENT
$Comp
L Amplifier_Operational:LM358 U2
U 1 1 60EFF5C9
P 2670 6460
F 0 "U2" H 2670 6827 50  0000 C CNN
F 1 "LM358" H 2670 6736 50  0000 C CNN
F 2 "Package_DIP:DIP-8_W7.62mm" H 2670 6460 50  0001 C CNN
F 3 "http://www.ti.com/lit/ds/symlink/lm2904-n.pdf" H 2670 6460 50  0001 C CNN
	1    2670 6460
	1    0    0    -1  
$EndComp
$Comp
L Amplifier_Operational:LM358 U2
U 3 1 60F01783
P 1090 6820
F 0 "U2" H 1048 6866 50  0000 L CNN
F 1 "LM358" H 1048 6775 50  0000 L CNN
F 2 "Package_DIP:DIP-8_W7.62mm" H 1090 6820 50  0001 C CNN
F 3 "http://www.ti.com/lit/ds/symlink/lm2904-n.pdf" H 1090 6820 50  0001 C CNN
	3    1090 6820
	1    0    0    -1  
$EndComp
$Comp
L Amplifier_Operational:LM358 U2
U 2 1 60F045B4
P 4040 6560
F 0 "U2" H 4040 6927 50  0000 C CNN
F 1 "LM358" H 4040 6836 50  0000 C CNN
F 2 "Package_DIP:DIP-8_W7.62mm" H 4040 6560 50  0001 C CNN
F 3 "http://www.ti.com/lit/ds/symlink/lm2904-n.pdf" H 4040 6560 50  0001 C CNN
	2    4040 6560
	1    0    0    -1  
$EndComp
$Comp
L power:+12V #PWR01
U 1 1 60F06FF3
P 990 6520
F 0 "#PWR01" H 990 6370 50  0001 C CNN
F 1 "+12V" H 1005 6693 50  0000 C CNN
F 2 "" H 990 6520 50  0001 C CNN
F 3 "" H 990 6520 50  0001 C CNN
	1    990  6520
	1    0    0    -1  
$EndComp
$Comp
L power:GND #PWR02
U 1 1 60F07C54
P 990 7120
F 0 "#PWR02" H 990 6870 50  0001 C CNN
F 1 "GND" V 995 6992 50  0000 R CNN
F 2 "" H 990 7120 50  0001 C CNN
F 3 "" H 990 7120 50  0001 C CNN
	1    990  7120
	1    0    0    -1  
$EndComp
$Comp
L Connector:Conn_01x02_Female J12
U 1 1 60F08690
P 1220 6060
F 0 "J12" V 1158 5872 50  0000 R CNN
F 1 "SENS_CURRENT" V 1280 6190 50  0000 R CNN
F 2 "Connector_PinSocket_2.54mm:PinSocket_1x02_P2.54mm_Vertical" H 1220 6060 50  0001 C CNN
F 3 "~" H 1220 6060 50  0001 C CNN
	1    1220 6060
	0    -1   -1   0   
$EndComp
$Comp
L power:GND #PWR05
U 1 1 60F0932C
P 1220 6260
F 0 "#PWR05" H 1220 6010 50  0001 C CNN
F 1 "GND" V 1225 6132 50  0000 R CNN
F 2 "" H 1220 6260 50  0001 C CNN
F 3 "" H 1220 6260 50  0001 C CNN
	1    1220 6260
	1    0    0    -1  
$EndComp
$Comp
L Device:CP C4
U 1 1 60F0B9B9
P 1540 6360
F 0 "C4" H 1658 6406 50  0000 L CNN
F 1 "100u" H 1658 6315 50  0000 L CNN
F 2 "Capacitor_THT:CP_Radial_D5.0mm_P2.50mm" H 1578 6210 50  0001 C CNN
F 3 "~" H 1540 6360 50  0001 C CNN
	1    1540 6360
	0    1    1    0   
$EndComp
Wire Wire Line
	1390 6360 1320 6360
Wire Wire Line
	1320 6360 1320 6260
$Comp
L Device:R R13
U 1 1 60F18498
P 1930 6160
F 0 "R13" V 1830 6130 50  0000 L CNN
F 1 "10K" V 1930 6100 50  0000 L CNN
F 2 "Resistor_THT:R_Axial_DIN0207_L6.3mm_D2.5mm_P10.16mm_Horizontal" V 1860 6160 50  0001 C CNN
F 3 "~" H 1930 6160 50  0001 C CNN
	1    1930 6160
	-1   0    0    1   
$EndComp
$Comp
L Device:R R15
U 1 1 60F1A54D
P 1930 6610
F 0 "R15" V 1830 6580 50  0000 L CNN
F 1 "10K" V 1930 6550 50  0000 L CNN
F 2 "Resistor_THT:R_Axial_DIN0207_L6.3mm_D2.5mm_P10.16mm_Horizontal" V 1860 6610 50  0001 C CNN
F 3 "~" H 1930 6610 50  0001 C CNN
	1    1930 6610
	-1   0    0    1   
$EndComp
Wire Wire Line
	1930 6010 1930 5930
Text Label 1930 5930 0    50   ~ 0
5V
$Comp
L power:GND #PWR07
U 1 1 60F3C7A9
P 1930 6760
F 0 "#PWR07" H 1930 6510 50  0001 C CNN
F 1 "GND" V 1935 6632 50  0000 R CNN
F 2 "" H 1930 6760 50  0001 C CNN
F 3 "" H 1930 6760 50  0001 C CNN
	1    1930 6760
	1    0    0    -1  
$EndComp
$Comp
L Device:R R18
U 1 1 60F54A30
P 2210 6770
F 0 "R18" V 2110 6740 50  0000 L CNN
F 1 "10K" V 2210 6710 50  0000 L CNN
F 2 "Resistor_THT:R_Axial_DIN0207_L6.3mm_D2.5mm_P10.16mm_Horizontal" V 2140 6770 50  0001 C CNN
F 3 "~" H 2210 6770 50  0001 C CNN
	1    2210 6770
	-1   0    0    1   
$EndComp
$Comp
L Device:R R19
U 1 1 60F54DB6
P 2210 7070
F 0 "R19" V 2110 7040 50  0000 L CNN
F 1 "8K2" V 2210 7010 50  0000 L CNN
F 2 "Resistor_THT:R_Axial_DIN0207_L6.3mm_D2.5mm_P10.16mm_Horizontal" V 2140 7070 50  0001 C CNN
F 3 "~" H 2210 7070 50  0001 C CNN
	1    2210 7070
	-1   0    0    1   
$EndComp
$Comp
L power:GND #PWR09
U 1 1 60F5635D
P 2210 7520
F 0 "#PWR09" H 2210 7270 50  0001 C CNN
F 1 "GND" V 2215 7392 50  0000 R CNN
F 2 "" H 2210 7520 50  0001 C CNN
F 3 "" H 2210 7520 50  0001 C CNN
	1    2210 7520
	1    0    0    -1  
$EndComp
Wire Wire Line
	2210 6620 2210 6560
Wire Wire Line
	2210 6560 2350 6560
Wire Wire Line
	2350 6560 2350 6780
Wire Wire Line
	2350 6780 2510 6780
Connection ~ 2350 6560
Wire Wire Line
	2350 6560 2370 6560
Wire Wire Line
	2810 6780 3030 6780
$Comp
L Device:R R27
U 1 1 60FD23A4
P 3350 6460
F 0 "R27" V 3250 6430 50  0000 L CNN
F 1 "1M" V 3350 6400 50  0000 L CNN
F 2 "Resistor_THT:R_Axial_DIN0207_L6.3mm_D2.5mm_P10.16mm_Horizontal" V 3280 6460 50  0001 C CNN
F 3 "~" H 3350 6460 50  0001 C CNN
	1    3350 6460
	0    -1   -1   0   
$EndComp
$Comp
L Device:R R32
U 1 1 60FD273E
P 3610 6290
F 0 "R32" V 3510 6260 50  0000 L CNN
F 1 "1M" V 3610 6230 50  0000 L CNN
F 2 "Resistor_THT:R_Axial_DIN0207_L6.3mm_D2.5mm_P10.16mm_Horizontal" V 3540 6290 50  0001 C CNN
F 3 "~" H 3610 6290 50  0001 C CNN
	1    3610 6290
	1    0    0    -1  
$EndComp
$Comp
L power:GND #PWR012
U 1 1 61007333
P 3610 6140
F 0 "#PWR012" H 3610 5890 50  0001 C CNN
F 1 "GND" H 3615 6012 50  0000 R CNN
F 2 "" H 3610 6140 50  0001 C CNN
F 3 "" H 3610 6140 50  0001 C CNN
	1    3610 6140
	-1   0    0    1   
$EndComp
Wire Wire Line
	3030 6460 3030 6780
Wire Wire Line
	2970 6460 3030 6460
Connection ~ 3030 6460
Wire Wire Line
	3030 6460 3200 6460
Wire Wire Line
	3500 6460 3610 6460
Wire Wire Line
	3610 6460 3610 6440
Wire Wire Line
	3740 6460 3610 6460
Connection ~ 3610 6460
$Comp
L Device:R R40
U 1 1 610745FC
P 4020 6890
F 0 "R40" V 3920 6860 50  0000 L CNN
F 1 "1M" V 4020 6830 50  0000 L CNN
F 2 "Resistor_THT:R_Axial_DIN0207_L6.3mm_D2.5mm_P10.16mm_Horizontal" V 3950 6890 50  0001 C CNN
F 3 "~" H 4020 6890 50  0001 C CNN
	1    4020 6890
	0    -1   -1   0   
$EndComp
Wire Wire Line
	4340 6560 4430 6560
Wire Wire Line
	4430 6560 4430 6890
Wire Wire Line
	4430 6890 4170 6890
Wire Wire Line
	3870 6890 3660 6890
Wire Wire Line
	3660 6890 3660 6660
Wire Wire Line
	3660 6660 3740 6660
Wire Wire Line
	3660 7010 3660 6890
Connection ~ 3660 6890
$Comp
L Device:R R24
U 1 1 60F622EC
P 2660 6780
F 0 "R24" V 2560 6750 50  0000 L CNN
F 1 "15K" V 2660 6720 50  0000 L CNN
F 2 "Resistor_THT:R_Axial_DIN0207_L6.3mm_D2.5mm_P10.16mm_Horizontal" V 2590 6780 50  0001 C CNN
F 3 "~" H 2660 6780 50  0001 C CNN
	1    2660 6780
	0    -1   -1   0   
$EndComp
$Comp
L Device:R R33
U 1 1 610908BC
P 3660 7160
F 0 "R33" V 3560 7130 50  0000 L CNN
F 1 "1M" V 3660 7100 50  0000 L CNN
F 2 "Resistor_THT:R_Axial_DIN0207_L6.3mm_D2.5mm_P10.16mm_Horizontal" V 3590 7160 50  0001 C CNN
F 3 "~" H 3660 7160 50  0001 C CNN
	1    3660 7160
	1    0    0    -1  
$EndComp
$Comp
L Device:R R36
U 1 1 610A223E
P 3810 7310
F 0 "R36" V 3710 7280 50  0000 L CNN
F 1 "18K" V 3810 7250 50  0000 L CNN
F 2 "Resistor_THT:R_Axial_DIN0207_L6.3mm_D2.5mm_P10.16mm_Horizontal" V 3740 7310 50  0001 C CNN
F 3 "~" H 3810 7310 50  0001 C CNN
	1    3810 7310
	0    -1   -1   0   
$EndComp
$Comp
L power:GND #PWR014
U 1 1 610A298B
P 3960 7310
F 0 "#PWR014" H 3960 7060 50  0001 C CNN
F 1 "GND" H 3965 7182 50  0000 R CNN
F 2 "" H 3960 7310 50  0001 C CNN
F 3 "" H 3960 7310 50  0001 C CNN
	1    3960 7310
	0    -1   -1   0   
$EndComp
$Comp
L Device:R R30
U 1 1 610A3281
P 3510 7310
F 0 "R30" V 3410 7280 50  0000 L CNN
F 1 "1K8" V 3510 7250 50  0000 L CNN
F 2 "Resistor_THT:R_Axial_DIN0207_L6.3mm_D2.5mm_P10.16mm_Horizontal" V 3440 7310 50  0001 C CNN
F 3 "~" H 3510 7310 50  0001 C CNN
	1    3510 7310
	0    -1   -1   0   
$EndComp
Connection ~ 3660 7310
$Comp
L Device:R R20
U 1 1 60F55F2D
P 2210 7370
F 0 "R20" V 2110 7340 50  0000 L CNN
F 1 "1K2" V 2210 7310 50  0000 L CNN
F 2 "Resistor_THT:R_Axial_DIN0207_L6.3mm_D2.5mm_P10.16mm_Horizontal" V 2140 7370 50  0001 C CNN
F 3 "~" H 2210 7370 50  0001 C CNN
	1    2210 7370
	-1   0    0    1   
$EndComp
$Comp
L Device:R R26
U 1 1 610A4623
P 3210 7310
F 0 "R26" V 3110 7280 50  0000 L CNN
F 1 "27K" V 3210 7250 50  0000 L CNN
F 2 "Resistor_THT:R_Axial_DIN0207_L6.3mm_D2.5mm_P10.16mm_Horizontal" V 3140 7310 50  0001 C CNN
F 3 "~" H 3210 7310 50  0001 C CNN
	1    3210 7310
	0    -1   -1   0   
$EndComp
Wire Wire Line
	3060 7310 2980 7310
Text Label 2980 7310 2    50   ~ 0
5V
$Comp
L Device:R R42
U 1 1 610B3710
P 4650 6560
F 0 "R42" V 4550 6530 50  0000 L CNN
F 1 "10K" V 4650 6500 50  0000 L CNN
F 2 "Resistor_THT:R_Axial_DIN0207_L6.3mm_D2.5mm_P10.16mm_Horizontal" V 4580 6560 50  0001 C CNN
F 3 "~" H 4650 6560 50  0001 C CNN
	1    4650 6560
	0    -1   -1   0   
$EndComp
Wire Wire Line
	4500 6560 4430 6560
Connection ~ 4430 6560
Wire Wire Line
	4960 6560 4960 6570
Wire Wire Line
	4800 6560 4960 6560
$Comp
L power:GND #PWR016
U 1 1 610E0650
P 4960 6870
F 0 "#PWR016" H 4960 6620 50  0001 C CNN
F 1 "GND" H 4965 6742 50  0000 R CNN
F 2 "" H 4960 6870 50  0001 C CNN
F 3 "" H 4960 6870 50  0001 C CNN
	1    4960 6870
	1    0    0    -1  
$EndComp
Text Label 4820 7780 0    50   ~ 0
P3_RA1
Wire Wire Line
	4160 7780 4820 7780
Text Label 4160 7780 2    50   ~ 0
ADAPTED_CURRENT
$Comp
L Device:C C12
U 1 1 610B3E27
P 4960 6720
F 0 "C12" H 4760 6770 50  0000 L CNN
F 1 "100n" H 4710 6620 50  0000 L CNN
F 2 "Capacitor_THT:C_Disc_D3.0mm_W1.6mm_P2.50mm" H 4998 6570 50  0001 C CNN
F 3 "~" H 4960 6720 50  0001 C CNN
	1    4960 6720
	1    0    0    -1  
$EndComp
Wire Wire Line
	4960 6560 5140 6560
Connection ~ 4960 6560
Text Label 5140 6560 3    50   ~ 0
ADAPTED_CURRENT
$Comp
L Amplifier_Operational:LM358 U5
U 1 1 6115E114
P 2850 8710
F 0 "U5" H 2850 9077 50  0000 C CNN
F 1 "LM358" H 2850 8986 50  0000 C CNN
F 2 "Package_DIP:DIP-8_W7.62mm" H 2850 8710 50  0001 C CNN
F 3 "http://www.ti.com/lit/ds/symlink/lm2904-n.pdf" H 2850 8710 50  0001 C CNN
	1    2850 8710
	1    0    0    -1  
$EndComp
$Comp
L Amplifier_Operational:LM358 U5
U 3 1 6115E11A
P 1270 9070
F 0 "U5" H 1228 9116 50  0000 L CNN
F 1 "LM358" H 1228 9025 50  0000 L CNN
F 2 "Package_DIP:DIP-8_W7.62mm" H 1270 9070 50  0001 C CNN
F 3 "http://www.ti.com/lit/ds/symlink/lm2904-n.pdf" H 1270 9070 50  0001 C CNN
	3    1270 9070
	1    0    0    -1  
$EndComp
$Comp
L Amplifier_Operational:LM358 U5
U 2 1 6115E120
P 4220 8810
F 0 "U5" H 4220 9177 50  0000 C CNN
F 1 "LM358" H 4220 9086 50  0000 C CNN
F 2 "Package_DIP:DIP-8_W7.62mm" H 4220 8810 50  0001 C CNN
F 3 "http://www.ti.com/lit/ds/symlink/lm2904-n.pdf" H 4220 8810 50  0001 C CNN
	2    4220 8810
	1    0    0    -1  
$EndComp
$Comp
L power:+12V #PWR03
U 1 1 6115E126
P 1170 8770
F 0 "#PWR03" H 1170 8620 50  0001 C CNN
F 1 "+12V" H 1185 8943 50  0000 C CNN
F 2 "" H 1170 8770 50  0001 C CNN
F 3 "" H 1170 8770 50  0001 C CNN
	1    1170 8770
	1    0    0    -1  
$EndComp
$Comp
L power:GND #PWR04
U 1 1 6115E12C
P 1170 9370
F 0 "#PWR04" H 1170 9120 50  0001 C CNN
F 1 "GND" V 1175 9242 50  0000 R CNN
F 2 "" H 1170 9370 50  0001 C CNN
F 3 "" H 1170 9370 50  0001 C CNN
	1    1170 9370
	1    0    0    -1  
$EndComp
$Comp
L Connector:Conn_01x02_Female J13
U 1 1 6115E132
P 1400 8310
F 0 "J13" V 1338 8122 50  0000 R CNN
F 1 "SENS_VOLTAGE" V 1460 8440 50  0000 R CNN
F 2 "Connector_PinSocket_2.54mm:PinSocket_1x02_P2.54mm_Vertical" H 1400 8310 50  0001 C CNN
F 3 "~" H 1400 8310 50  0001 C CNN
	1    1400 8310
	0    -1   -1   0   
$EndComp
$Comp
L power:GND #PWR06
U 1 1 6115E138
P 1400 8510
F 0 "#PWR06" H 1400 8260 50  0001 C CNN
F 1 "GND" V 1405 8382 50  0000 R CNN
F 2 "" H 1400 8510 50  0001 C CNN
F 3 "" H 1400 8510 50  0001 C CNN
	1    1400 8510
	1    0    0    -1  
$EndComp
$Comp
L Device:CP C9
U 1 1 6115E13E
P 1720 8610
F 0 "C9" H 1838 8656 50  0000 L CNN
F 1 "100u" H 1838 8565 50  0000 L CNN
F 2 "Capacitor_THT:CP_Radial_D5.0mm_P2.50mm" H 1758 8460 50  0001 C CNN
F 3 "~" H 1720 8610 50  0001 C CNN
	1    1720 8610
	0    1    1    0   
$EndComp
Wire Wire Line
	1570 8610 1500 8610
Wire Wire Line
	1500 8610 1500 8510
$Comp
L Device:R R16
U 1 1 6115E146
P 2110 8410
F 0 "R16" V 2010 8380 50  0000 L CNN
F 1 "10K" V 2110 8350 50  0000 L CNN
F 2 "Resistor_THT:R_Axial_DIN0207_L6.3mm_D2.5mm_P10.16mm_Horizontal" V 2040 8410 50  0001 C CNN
F 3 "~" H 2110 8410 50  0001 C CNN
	1    2110 8410
	-1   0    0    1   
$EndComp
$Comp
L Device:R R17
U 1 1 6115E14C
P 2110 8860
F 0 "R17" V 2010 8830 50  0000 L CNN
F 1 "10K" V 2110 8800 50  0000 L CNN
F 2 "Resistor_THT:R_Axial_DIN0207_L6.3mm_D2.5mm_P10.16mm_Horizontal" V 2040 8860 50  0001 C CNN
F 3 "~" H 2110 8860 50  0001 C CNN
	1    2110 8860
	-1   0    0    1   
$EndComp
Wire Wire Line
	2110 8260 2110 8180
Text Label 2110 8180 0    50   ~ 0
5V
$Comp
L power:GND #PWR08
U 1 1 6115E158
P 2110 9010
F 0 "#PWR08" H 2110 8760 50  0001 C CNN
F 1 "GND" V 2115 8882 50  0000 R CNN
F 2 "" H 2110 9010 50  0001 C CNN
F 3 "" H 2110 9010 50  0001 C CNN
	1    2110 9010
	1    0    0    -1  
$EndComp
$Comp
L Device:R R21
U 1 1 6115E160
P 2390 9020
F 0 "R21" V 2290 8990 50  0000 L CNN
F 1 "10K" V 2390 8960 50  0000 L CNN
F 2 "Resistor_THT:R_Axial_DIN0207_L6.3mm_D2.5mm_P10.16mm_Horizontal" V 2320 9020 50  0001 C CNN
F 3 "~" H 2390 9020 50  0001 C CNN
	1    2390 9020
	-1   0    0    1   
$EndComp
$Comp
L Device:R R22
U 1 1 6115E166
P 2390 9320
F 0 "R22" V 2290 9290 50  0000 L CNN
F 1 "8K2" V 2390 9260 50  0000 L CNN
F 2 "Resistor_THT:R_Axial_DIN0207_L6.3mm_D2.5mm_P10.16mm_Horizontal" V 2320 9320 50  0001 C CNN
F 3 "~" H 2390 9320 50  0001 C CNN
	1    2390 9320
	-1   0    0    1   
$EndComp
$Comp
L power:GND #PWR010
U 1 1 6115E16C
P 2390 9770
F 0 "#PWR010" H 2390 9520 50  0001 C CNN
F 1 "GND" V 2395 9642 50  0000 R CNN
F 2 "" H 2390 9770 50  0001 C CNN
F 3 "" H 2390 9770 50  0001 C CNN
	1    2390 9770
	1    0    0    -1  
$EndComp
Wire Wire Line
	2390 8870 2390 8810
Wire Wire Line
	2390 8810 2530 8810
Wire Wire Line
	2530 8810 2530 9030
Wire Wire Line
	2530 9030 2690 9030
Connection ~ 2530 8810
Wire Wire Line
	2530 8810 2550 8810
Wire Wire Line
	2990 9030 3210 9030
$Comp
L Device:R R31
U 1 1 6115E179
P 3530 8710
F 0 "R31" V 3430 8680 50  0000 L CNN
F 1 "1M" V 3530 8650 50  0000 L CNN
F 2 "Resistor_THT:R_Axial_DIN0207_L6.3mm_D2.5mm_P10.16mm_Horizontal" V 3460 8710 50  0001 C CNN
F 3 "~" H 3530 8710 50  0001 C CNN
	1    3530 8710
	0    -1   -1   0   
$EndComp
$Comp
L Device:R R35
U 1 1 6115E17F
P 3790 8540
F 0 "R35" V 3690 8510 50  0000 L CNN
F 1 "1M" V 3790 8480 50  0000 L CNN
F 2 "Resistor_THT:R_Axial_DIN0207_L6.3mm_D2.5mm_P10.16mm_Horizontal" V 3720 8540 50  0001 C CNN
F 3 "~" H 3790 8540 50  0001 C CNN
	1    3790 8540
	1    0    0    -1  
$EndComp
$Comp
L power:GND #PWR013
U 1 1 6115E185
P 3790 8390
F 0 "#PWR013" H 3790 8140 50  0001 C CNN
F 1 "GND" H 3795 8262 50  0000 R CNN
F 2 "" H 3790 8390 50  0001 C CNN
F 3 "" H 3790 8390 50  0001 C CNN
	1    3790 8390
	-1   0    0    1   
$EndComp
Wire Wire Line
	3210 8710 3210 9030
Wire Wire Line
	3150 8710 3210 8710
Connection ~ 3210 8710
Wire Wire Line
	3210 8710 3380 8710
Wire Wire Line
	3680 8710 3790 8710
Wire Wire Line
	3790 8710 3790 8690
Wire Wire Line
	3920 8710 3790 8710
Connection ~ 3790 8710
$Comp
L Device:R R41
U 1 1 6115E193
P 4200 9140
F 0 "R41" V 4100 9110 50  0000 L CNN
F 1 "1M" V 4200 9080 50  0000 L CNN
F 2 "Resistor_THT:R_Axial_DIN0207_L6.3mm_D2.5mm_P10.16mm_Horizontal" V 4130 9140 50  0001 C CNN
F 3 "~" H 4200 9140 50  0001 C CNN
	1    4200 9140
	0    -1   -1   0   
$EndComp
Wire Wire Line
	4520 8810 4610 8810
Wire Wire Line
	4610 8810 4610 9140
Wire Wire Line
	4610 9140 4350 9140
Wire Wire Line
	4050 9140 3840 9140
Wire Wire Line
	3840 9140 3840 8910
Wire Wire Line
	3840 8910 3920 8910
Wire Wire Line
	3840 9260 3840 9140
Connection ~ 3840 9140
$Comp
L Device:R R25
U 1 1 6115E1A1
P 2840 9030
F 0 "R25" V 2740 9000 50  0000 L CNN
F 1 "15K" V 2840 8970 50  0000 L CNN
F 2 "Resistor_THT:R_Axial_DIN0207_L6.3mm_D2.5mm_P10.16mm_Horizontal" V 2770 9030 50  0001 C CNN
F 3 "~" H 2840 9030 50  0001 C CNN
	1    2840 9030
	0    -1   -1   0   
$EndComp
$Comp
L Device:R R37
U 1 1 6115E1A7
P 3840 9410
F 0 "R37" V 3740 9380 50  0000 L CNN
F 1 "1M" V 3840 9350 50  0000 L CNN
F 2 "Resistor_THT:R_Axial_DIN0207_L6.3mm_D2.5mm_P10.16mm_Horizontal" V 3770 9410 50  0001 C CNN
F 3 "~" H 3840 9410 50  0001 C CNN
	1    3840 9410
	1    0    0    -1  
$EndComp
$Comp
L Device:R R39
U 1 1 6115E1AD
P 3990 9560
F 0 "R39" V 3890 9530 50  0000 L CNN
F 1 "18K" V 3990 9500 50  0000 L CNN
F 2 "Resistor_THT:R_Axial_DIN0207_L6.3mm_D2.5mm_P10.16mm_Horizontal" V 3920 9560 50  0001 C CNN
F 3 "~" H 3990 9560 50  0001 C CNN
	1    3990 9560
	0    -1   -1   0   
$EndComp
$Comp
L power:GND #PWR015
U 1 1 6115E1B3
P 4140 9560
F 0 "#PWR015" H 4140 9310 50  0001 C CNN
F 1 "GND" H 4145 9432 50  0000 R CNN
F 2 "" H 4140 9560 50  0001 C CNN
F 3 "" H 4140 9560 50  0001 C CNN
	1    4140 9560
	0    -1   -1   0   
$EndComp
$Comp
L Device:R R34
U 1 1 6115E1B9
P 3690 9560
F 0 "R34" V 3590 9530 50  0000 L CNN
F 1 "1K8" V 3690 9500 50  0000 L CNN
F 2 "Resistor_THT:R_Axial_DIN0207_L6.3mm_D2.5mm_P10.16mm_Horizontal" V 3620 9560 50  0001 C CNN
F 3 "~" H 3690 9560 50  0001 C CNN
	1    3690 9560
	0    -1   -1   0   
$EndComp
Connection ~ 3840 9560
$Comp
L Device:R R23
U 1 1 6115E1C0
P 2390 9620
F 0 "R23" V 2290 9590 50  0000 L CNN
F 1 "1K2" V 2390 9560 50  0000 L CNN
F 2 "Resistor_THT:R_Axial_DIN0207_L6.3mm_D2.5mm_P10.16mm_Horizontal" V 2320 9620 50  0001 C CNN
F 3 "~" H 2390 9620 50  0001 C CNN
	1    2390 9620
	-1   0    0    1   
$EndComp
$Comp
L Device:R R28
U 1 1 6115E1C6
P 3390 9560
F 0 "R28" V 3290 9530 50  0000 L CNN
F 1 "27K" V 3390 9500 50  0000 L CNN
F 2 "Resistor_THT:R_Axial_DIN0207_L6.3mm_D2.5mm_P10.16mm_Horizontal" V 3320 9560 50  0001 C CNN
F 3 "~" H 3390 9560 50  0001 C CNN
	1    3390 9560
	0    -1   -1   0   
$EndComp
Wire Wire Line
	3240 9560 3160 9560
Text Label 3160 9560 2    50   ~ 0
5V
$Comp
L Device:R R43
U 1 1 6115E1CE
P 4830 8810
F 0 "R43" V 4730 8780 50  0000 L CNN
F 1 "10K" V 4830 8750 50  0000 L CNN
F 2 "Resistor_THT:R_Axial_DIN0207_L6.3mm_D2.5mm_P10.16mm_Horizontal" V 4760 8810 50  0001 C CNN
F 3 "~" H 4830 8810 50  0001 C CNN
	1    4830 8810
	0    -1   -1   0   
$EndComp
Wire Wire Line
	4680 8810 4610 8810
Connection ~ 4610 8810
Wire Wire Line
	5140 8810 5140 8820
Wire Wire Line
	4980 8810 5140 8810
$Comp
L power:GND #PWR017
U 1 1 6115E1D8
P 5140 9120
F 0 "#PWR017" H 5140 8870 50  0001 C CNN
F 1 "GND" H 5145 8992 50  0000 R CNN
F 2 "" H 5140 9120 50  0001 C CNN
F 3 "" H 5140 9120 50  0001 C CNN
	1    5140 9120
	1    0    0    -1  
$EndComp
$Comp
L Device:C C13
U 1 1 6115E1DF
P 5140 8970
F 0 "C13" H 4940 9020 50  0000 L CNN
F 1 "100n" H 4890 8870 50  0000 L CNN
F 2 "Capacitor_THT:C_Disc_D3.0mm_W1.6mm_P2.50mm" H 5178 8820 50  0001 C CNN
F 3 "~" H 5140 8970 50  0001 C CNN
	1    5140 8970
	1    0    0    -1  
$EndComp
Wire Wire Line
	5140 8810 5320 8810
Connection ~ 5140 8810
Text Label 5320 8810 3    50   ~ 0
ADAPTED_VOLTAGE
Wire Notes Line
	610  600  610  11160
Wire Notes Line
	610  5060 5960 5060
Wire Notes Line
	5960 5060 5960 11160
Wire Notes Line
	610  11160 5960 11160
Text Notes 1140 5360 0    98   ~ 0
SIGNAL ADAPT
Wire Notes Line
	5350 600  5350 5060
Wire Notes Line
	11150 4350 5350 4350
$Comp
L placa1-rescue:Button_THT_5x5-Switch_THT_personalizado SW1
U 1 1 60FE47BF
P 1440 2050
F 0 "SW1" H 1500 2130 50  0000 C CNN
F 1 "Button_THT_5x5" H 1570 2050 50  0000 C CNN
F 2 "Button_Switch_THT:SW_PUSH_6mm" H 1440 2050 50  0001 C CNN
F 3 "" H 1440 2050 50  0001 C CNN
	1    1440 2050
	1    0    0    -1  
$EndComp
$Comp
L placa1-rescue:Button_THT_5x5-Switch_THT_personalizado SW2
U 1 1 60FF33C2
P 6900 1350
F 0 "SW2" H 6960 1430 50  0000 C CNN
F 1 "Button_THT_5x5" H 7030 1350 50  0000 C CNN
F 2 "Button_Switch_THT:SW_PUSH_6mm" H 6900 1350 50  0001 C CNN
F 3 "" H 6900 1350 50  0001 C CNN
	1    6900 1350
	0    1    1    0   
$EndComp
$Comp
L Device:R R44
U 1 1 612EB3A5
P 6960 940
F 0 "R44" H 7030 986 50  0000 L CNN
F 1 "10K" V 6960 880 50  0000 L CNN
F 2 "Resistor_THT:R_Axial_DIN0207_L6.3mm_D2.5mm_P10.16mm_Horizontal" V 6890 940 50  0001 C CNN
F 3 "~" H 6960 940 50  0001 C CNN
	1    6960 940 
	0    -1   -1   0   
$EndComp
Wire Wire Line
	6800 940  6800 1150
Wire Wire Line
	6800 940  6810 940 
NoConn ~ 1350 1470
Wire Wire Line
	2020 1870 2190 1870
Wire Wire Line
	2020 1770 2390 1770
Wire Wire Line
	2020 1670 2380 1670
Wire Wire Line
	2020 1170 2330 1170
Wire Wire Line
	2020 1270 2270 1270
Wire Wire Line
	2020 1370 2360 1370
Wire Wire Line
	2020 1470 2370 1470
Wire Wire Line
	2020 1570 2270 1570
Wire Wire Line
	840  2050 840  1980
Connection ~ 840  2050
Text Label 840  1980 0    50   ~ 0
3,3V
Wire Wire Line
	3490 4340 4300 4340
Wire Wire Line
	3910 4050 3910 4120
Wire Wire Line
	3910 4120 3650 4120
Wire Wire Line
	3650 4120 3650 3920
Wire Wire Line
	3650 3920 3490 3920
Connection ~ 3490 3920
Wire Wire Line
	3490 3920 3490 3970
Wire Wire Line
	1690 6360 1930 6360
Wire Wire Line
	1930 6460 1930 6360
Connection ~ 1930 6360
Wire Wire Line
	1930 6360 2370 6360
Wire Wire Line
	1930 6360 1930 6310
Wire Wire Line
	1870 8610 2110 8610
Wire Wire Line
	2110 8710 2110 8610
Connection ~ 2110 8610
Wire Wire Line
	2110 8610 2550 8610
Wire Wire Line
	2110 8560 2110 8610
Wire Wire Line
	4760 1330 4760 1480
Text Label 4760 1480 3    50   ~ 0
HC05_TX
Text Label 10700 1950 0    50   ~ 0
HC05_TX
$EndSCHEMATC
