(module Button_Switch_SMD:TVDM04-B043BB-R (layer F.Cu) (tedit 60A16587)
  (fp_text reference REF** (at 0 4.25) (layer F.SilkS)
    (effects (font (size 1 1) (thickness 0.15)))
  )
  (fp_text value TVDM04-B043BB-R (at 0 -4.1) (layer F.Fab)
    (effects (font (size 1 1) (thickness 0.15)))
  )
  (fp_line (start 0 0) (end 5.5 0) (layer F.SilkS) (width 0.12))
  (fp_line (start 0 0) (end -5.5 0) (layer F.SilkS) (width 0.12))
  (fp_line (start 5.5 3) (end 0 3) (layer F.SilkS) (width 0.12))
  (fp_line (start 5.5 -3) (end 5.5 3) (layer F.SilkS) (width 0.12))
  (fp_line (start 0 -3) (end 5.5 -3) (layer F.SilkS) (width 0.12))
  (fp_line (start 0 3) (end 0 0) (layer F.SilkS) (width 0.12))
  (fp_line (start -5.5 3) (end 0 3) (layer F.SilkS) (width 0.12))
  (fp_line (start -5.5 -3) (end -5.5 3) (layer F.SilkS) (width 0.12))
  (fp_line (start 0 -3) (end -5.5 -3) (layer F.SilkS) (width 0.12))
  (fp_line (start 0 0) (end 0 -3) (layer F.SilkS) (width 0.12))
  (pad 4 smd rect (at 3.45 1.7) (size 3.3 2.2) (layers F.Cu F.Paste F.Mask))
  (pad 3 smd rect (at -3.55 1.7) (size 3.3 2.2) (layers F.Cu F.Paste F.Mask))
  (pad 2 smd rect (at 3.45 -1.7) (size 3.3 2.2) (layers F.Cu F.Paste F.Mask))
  (pad 1 smd rect (at -3.55 -1.7) (size 3.3 2.2) (layers F.Cu F.Paste F.Mask))
)
